EESchema Schematic File Version 2
LIBS:power
LIBS:MyKiCadLibs-Lib
EELAYER 25 0
EELAYER END
$Descr A3 16535 11693
encoding utf-8
Sheet 5 5
Title ""
Date ""
Rev ""
Comp ""
Comment1 ""
Comment2 ""
Comment3 ""
Comment4 ""
$EndDescr
$Comp
L CP1 C518
U 1 1 5616697A
P 7750 7000
F 0 "C518" H 7800 7100 50  0000 L CNN
F 1 "2200u" H 7650 6650 50  0000 L CNN
F 2 "MyKiCadLibs-Footprints:CAP-TH-D12.5mmP5mm" H 7750 7000 60  0001 C CNN
F 3 "" H 7750 7000 60  0000 C CNN
	1    7750 7000
	1    0    0    -1  
$EndComp
$Comp
L CP1 C517
U 1 1 561669E0
P 7750 2150
F 0 "C517" H 7800 2250 50  0000 L CNN
F 1 "2200u" H 7650 1800 50  0000 L CNN
F 2 "MyKiCadLibs-Footprints:CAP-TH-D12.5mmP5mm" H 7750 2150 60  0001 C CNN
F 3 "" H 7750 2150 60  0000 C CNN
	1    7750 2150
	-1   0    0    1   
$EndComp
$Comp
L CP1 C516
U 1 1 56166BF4
P 7250 7000
F 0 "C516" H 7300 7100 50  0000 L CNN
F 1 "10u" H 7300 6900 50  0000 L CNN
F 2 "MyKiCadLibs-Footprints:CAP-TH-D6.3mmP2.5mm" H 7250 7000 60  0001 C CNN
F 3 "" H 7250 7000 60  0000 C CNN
	1    7250 7000
	1    0    0    -1  
$EndComp
$Comp
L CP1 C515
U 1 1 56167AE1
P 7250 2150
F 0 "C515" H 7300 2250 50  0000 L CNN
F 1 "10u" H 7300 2050 50  0000 L CNN
F 2 "MyKiCadLibs-Footprints:CAP-TH-D6.3mmP2.5mm" H 7250 2150 60  0001 C CNN
F 3 "" H 7250 2150 60  0000 C CNN
	1    7250 2150
	-1   0    0    1   
$EndComp
$Comp
L C C522
U 1 1 56167D01
P 8350 7000
F 0 "C522" H 8350 7100 40  0000 L CNN
F 1 "100n" H 8356 6915 40  0000 L CNN
F 2 "MyKiCadLibs-Footprints:SMD-0805" H 8388 6850 30  0001 C CNN
F 3 "" H 8350 7000 60  0000 C CNN
	1    8350 7000
	1    0    0    -1  
$EndComp
$Comp
L R R549
U 1 1 56167D90
P 9150 6950
F 0 "R549" V 9070 6950 40  0000 C CNN
F 1 "1Meg" V 9157 6951 40  0000 C CNN
F 2 "MyKiCadLibs-Footprints:SMD-0805" V 9080 6950 30  0001 C CNN
F 3 "" H 9150 6950 30  0000 C CNN
	1    9150 6950
	1    0    0    -1  
$EndComp
$Comp
L C C521
U 1 1 561680DF
P 8350 2150
F 0 "C521" H 8350 2250 40  0000 L CNN
F 1 "100n" H 8356 2065 40  0000 L CNN
F 2 "MyKiCadLibs-Footprints:SMD-0805" H 8388 2000 30  0001 C CNN
F 3 "" H 8350 2150 60  0000 C CNN
	1    8350 2150
	1    0    0    1   
$EndComp
$Comp
L R R546
U 1 1 561680E8
P 9150 2200
F 0 "R546" V 9070 2200 40  0000 C CNN
F 1 "1Meg" V 9157 2201 40  0000 C CNN
F 2 "MyKiCadLibs-Footprints:SMD-0805" V 9080 2200 30  0001 C CNN
F 3 "" H 9150 2200 30  0000 C CNN
	1    9150 2200
	1    0    0    1   
$EndComp
$Comp
L C C524
U 1 1 56168B73
P 8550 4950
F 0 "C524" H 8550 5050 40  0000 L CNN
F 1 "100n" H 8556 4865 40  0000 L CNN
F 2 "MyKiCadLibs-Footprints:SMD-0805" H 8588 4800 30  0001 C CNN
F 3 "" H 8550 4950 60  0000 C CNN
	1    8550 4950
	-1   0    0    -1  
$EndComp
$Comp
L C C523
U 1 1 56169A93
P 8550 4200
F 0 "C523" H 8550 4300 40  0000 L CNN
F 1 "100n" H 8556 4115 40  0000 L CNN
F 2 "MyKiCadLibs-Footprints:SMD-0805" H 8588 4050 30  0001 C CNN
F 3 "" H 8550 4200 60  0000 C CNN
	1    8550 4200
	-1   0    0    1   
$EndComp
$Comp
L IC-DAC-AK4490EQ U501
U 1 1 5616783A
P 5550 3500
F 0 "U501" H 5800 3900 60  0000 C CNN
F 1 "IC-DAC-AK4490EQ" H 6800 2800 60  0000 C CNN
F 2 "MyKiCadLibs-Footprints:IC-LQFP48_7x7" H 4650 4700 60  0001 C CNN
F 3 "" H 4650 4700 60  0000 C CNN
	1    5550 3500
	1    0    0    -1  
$EndComp
$Comp
L CP1 C531
U 1 1 56169C4B
P 9150 4200
F 0 "C531" H 9200 4300 50  0000 L CNN
F 1 "220u" H 9200 4100 50  0000 L CNN
F 2 "MyKiCadLibs-Footprints:CAP-TH-D6.3mmP2.5mm" H 9150 4200 60  0001 C CNN
F 3 "" H 9150 4200 60  0000 C CNN
	1    9150 4200
	-1   0    0    -1  
$EndComp
$Comp
L CP1 C532
U 1 1 56169C8D
P 9150 4950
F 0 "C532" H 9200 5050 50  0000 L CNN
F 1 "220u" H 9200 4850 50  0000 L CNN
F 2 "MyKiCadLibs-Footprints:CAP-TH-D6.3mmP2.5mm" H 9150 4950 60  0001 C CNN
F 3 "" H 9150 4950 60  0000 C CNN
	1    9150 4950
	-1   0    0    1   
$EndComp
$Comp
L GNDA #PWR051
U 1 1 5616A0AC
P 9300 4650
F 0 "#PWR051" H 9300 4400 50  0001 C CNN
F 1 "GNDA" H 9300 4500 50  0000 C CNN
F 2 "" H 9300 4650 60  0000 C CNN
F 3 "" H 9300 4650 60  0000 C CNN
	1    9300 4650
	1    0    0    -1  
$EndComp
$Comp
L GNDA #PWR052
U 1 1 5616A613
P 6200 6450
F 0 "#PWR052" H 6200 6200 50  0001 C CNN
F 1 "GNDA" H 6200 6300 50  0000 C CNN
F 2 "" H 6200 6450 60  0000 C CNN
F 3 "" H 6200 6450 60  0000 C CNN
	1    6200 6450
	1    0    0    -1  
$EndComp
$Comp
L GNDA #PWR053
U 1 1 5616AE93
P 9150 7300
F 0 "#PWR053" H 9150 7050 50  0001 C CNN
F 1 "GNDA" H 9150 7150 50  0000 C CNN
F 2 "" H 9150 7300 60  0000 C CNN
F 3 "" H 9150 7300 60  0000 C CNN
	1    9150 7300
	1    0    0    -1  
$EndComp
$Comp
L C C514
U 1 1 5616AF43
P 6950 7000
F 0 "C514" H 6950 7100 40  0000 L CNN
F 1 "100n" H 6956 6915 40  0000 L CNN
F 2 "MyKiCadLibs-Footprints:SMD-0805" H 6988 6850 30  0001 C CNN
F 3 "" H 6950 7000 60  0000 C CNN
	1    6950 7000
	1    0    0    -1  
$EndComp
$Comp
L GNDA #PWR054
U 1 1 5616B11F
P 9350 1950
F 0 "#PWR054" H 9350 1700 50  0001 C CNN
F 1 "GNDA" H 9350 1800 50  0000 C CNN
F 2 "" H 9350 1950 60  0000 C CNN
F 3 "" H 9350 1950 60  0000 C CNN
	1    9350 1950
	1    0    0    -1  
$EndComp
$Comp
L C C513
U 1 1 5616B2A9
P 6900 2150
F 0 "C513" H 6900 2250 40  0000 L CNN
F 1 "100n" H 6906 2065 40  0000 L CNN
F 2 "MyKiCadLibs-Footprints:SMD-0805" H 6938 2000 30  0001 C CNN
F 3 "" H 6900 2150 60  0000 C CNN
	1    6900 2150
	1    0    0    1   
$EndComp
$Comp
L C C504
U 1 1 5616B8A7
P 5050 2700
F 0 "C504" H 5050 2800 40  0000 L CNN
F 1 "100n" H 5056 2615 40  0000 L CNN
F 2 "MyKiCadLibs-Footprints:SMD-0805" H 5088 2550 30  0001 C CNN
F 3 "" H 5050 2700 60  0000 C CNN
	1    5050 2700
	-1   0    0    1   
$EndComp
$Comp
L CP1 C510
U 1 1 5616B8AD
P 5950 2700
F 0 "C510" H 6000 2800 50  0000 L CNN
F 1 "220u" H 6000 2600 50  0000 L CNN
F 2 "MyKiCadLibs-Footprints:CAP-TH-D6.3mmP2.5mm" H 5950 2700 60  0001 C CNN
F 3 "" H 5950 2700 60  0000 C CNN
	1    5950 2700
	-1   0    0    -1  
$EndComp
$Comp
L C C503
U 1 1 5616B9A7
P 5050 1550
F 0 "C503" H 5050 1650 40  0000 L CNN
F 1 "100n" H 5056 1465 40  0000 L CNN
F 2 "MyKiCadLibs-Footprints:SMD-0805" H 5088 1400 30  0001 C CNN
F 3 "" H 5050 1550 60  0000 C CNN
	1    5050 1550
	-1   0    0    1   
$EndComp
$Comp
L CP1 C509
U 1 1 5616B9AD
P 5950 1550
F 0 "C509" H 6000 1650 50  0000 L CNN
F 1 "220u" H 6000 1450 50  0000 L CNN
F 2 "MyKiCadLibs-Footprints:CAP-TH-D6.3mmP2.5mm" H 5950 1550 60  0001 C CNN
F 3 "" H 5950 1550 60  0000 C CNN
	1    5950 1550
	-1   0    0    -1  
$EndComp
$Comp
L GNDA #PWR055
U 1 1 5616B9E1
P 5050 3000
F 0 "#PWR055" H 5050 2750 50  0001 C CNN
F 1 "GNDA" H 5050 2850 50  0000 C CNN
F 2 "" H 5050 3000 60  0000 C CNN
F 3 "" H 5050 3000 60  0000 C CNN
	1    5050 3000
	1    0    0    -1  
$EndComp
$Comp
L GNDA #PWR056
U 1 1 5616BB87
P 5050 1850
F 0 "#PWR056" H 5050 1600 50  0001 C CNN
F 1 "GNDA" H 5050 1700 50  0000 C CNN
F 2 "" H 5050 1850 60  0000 C CNN
F 3 "" H 5050 1850 60  0000 C CNN
	1    5050 1850
	1    0    0    -1  
$EndComp
$Comp
L VAA #PWR057
U 1 1 5616C7FD
P 4050 1150
F 0 "#PWR057" H 4050 1000 50  0001 C CNN
F 1 "VAA" H 4050 1300 50  0000 C CNN
F 2 "" H 4050 1150 60  0000 C CNN
F 3 "" H 4050 1150 60  0000 C CNN
	1    4050 1150
	1    0    0    -1  
$EndComp
$Comp
L R R547
U 1 1 5616CCF2
P 9150 2850
F 0 "R547" V 9070 2850 40  0000 C CNN
F 1 "1R" V 9157 2851 40  0000 C CNN
F 2 "MyKiCadLibs-Footprints:SMD-0805" V 9080 2850 30  0001 C CNN
F 3 "" H 9150 2850 30  0000 C CNN
	1    9150 2850
	-1   0    0    -1  
$EndComp
$Comp
L R R548
U 1 1 5616D7F2
P 9150 6300
F 0 "R548" V 9070 6300 40  0000 C CNN
F 1 "1R" V 9157 6301 40  0000 C CNN
F 2 "MyKiCadLibs-Footprints:SMD-0805" V 9080 6300 30  0001 C CNN
F 3 "" H 9150 6300 30  0000 C CNN
	1    9150 6300
	-1   0    0    -1  
$EndComp
$Comp
L CP1 C533
U 1 1 5616E1D2
P 9400 3400
F 0 "C533" H 9450 3500 50  0000 L CNN
F 1 "220u" H 9450 3300 50  0000 L CNN
F 2 "MyKiCadLibs-Footprints:CAP-TH-D6.3mmP2.5mm" H 9400 3400 60  0001 C CNN
F 3 "" H 9400 3400 60  0000 C CNN
	1    9400 3400
	-1   0    0    -1  
$EndComp
$Comp
L GNDA #PWR058
U 1 1 5616E309
P 9400 3650
F 0 "#PWR058" H 9400 3400 50  0001 C CNN
F 1 "GNDA" H 9400 3500 50  0000 C CNN
F 2 "" H 9400 3650 60  0000 C CNN
F 3 "" H 9400 3650 60  0000 C CNN
	1    9400 3650
	1    0    0    -1  
$EndComp
$Comp
L CP1 C534
U 1 1 5616E63B
P 9600 6250
F 0 "C534" H 9650 6350 50  0000 L CNN
F 1 "220u" H 9650 6150 50  0000 L CNN
F 2 "MyKiCadLibs-Footprints:CAP-TH-D6.3mmP2.5mm" H 9600 6250 60  0001 C CNN
F 3 "" H 9600 6250 60  0000 C CNN
	1    9600 6250
	-1   0    0    -1  
$EndComp
$Comp
L GNDA #PWR059
U 1 1 5616E643
P 9600 6500
F 0 "#PWR059" H 9600 6250 50  0001 C CNN
F 1 "GNDA" H 9600 6350 50  0000 C CNN
F 2 "" H 9600 6500 60  0000 C CNN
F 3 "" H 9600 6500 60  0000 C CNN
	1    9600 6500
	1    0    0    -1  
$EndComp
$Comp
L C C538
U 1 1 5616EBD8
P 9850 6250
F 0 "C538" H 9850 6350 40  0000 L CNN
F 1 "100n" H 9856 6165 40  0000 L CNN
F 2 "MyKiCadLibs-Footprints:SMD-0805" H 9888 6100 30  0001 C CNN
F 3 "" H 9850 6250 60  0000 C CNN
	1    9850 6250
	1    0    0    -1  
$EndComp
$Comp
L GNDA #PWR060
U 1 1 5616EDA8
P 9850 6500
F 0 "#PWR060" H 9850 6250 50  0001 C CNN
F 1 "GNDA" H 9850 6350 50  0000 C CNN
F 2 "" H 9850 6500 60  0000 C CNN
F 3 "" H 9850 6500 60  0000 C CNN
	1    9850 6500
	1    0    0    -1  
$EndComp
$Comp
L C C535
U 1 1 5616EEB1
P 9700 3400
F 0 "C535" H 9700 3500 40  0000 L CNN
F 1 "100n" H 9706 3315 40  0000 L CNN
F 2 "MyKiCadLibs-Footprints:SMD-0805" H 9738 3250 30  0001 C CNN
F 3 "" H 9700 3400 60  0000 C CNN
	1    9700 3400
	1    0    0    -1  
$EndComp
$Comp
L GNDA #PWR061
U 1 1 5616EEB7
P 9700 3650
F 0 "#PWR061" H 9700 3400 50  0001 C CNN
F 1 "GNDA" H 9700 3500 50  0000 C CNN
F 2 "" H 9700 3650 60  0000 C CNN
F 3 "" H 9700 3650 60  0000 C CNN
	1    9700 3650
	1    0    0    -1  
$EndComp
$Comp
L R R524
U 1 1 56290740
P 5150 4500
F 0 "R524" V 5100 4900 40  0000 C CNN
F 1 "27R" V 5157 4501 40  0000 C CNN
F 2 "MyKiCadLibs-Footprints:SMD-0805" V 5080 4500 30  0001 C CNN
F 3 "" H 5150 4500 30  0000 C CNN
	1    5150 4500
	0    -1   1    0   
$EndComp
$Comp
L R R525
U 1 1 56292659
P 5150 4600
F 0 "R525" V 5100 5000 40  0000 C CNN
F 1 "27R" V 5157 4601 40  0000 C CNN
F 2 "MyKiCadLibs-Footprints:SMD-0805" V 5080 4600 30  0001 C CNN
F 3 "" H 5150 4600 30  0000 C CNN
	1    5150 4600
	0    -1   1    0   
$EndComp
Text HLabel 1500 5650 0    60   Input ~ 0
SMUTE/CSN
Text Label 3850 4700 0    60   ~ 0
SD/CCLK/SCL
$Comp
L R R526
U 1 1 562942C2
P 5150 4700
F 0 "R526" V 5100 5100 40  0000 C CNN
F 1 "27R" V 5157 4701 40  0000 C CNN
F 2 "MyKiCadLibs-Footprints:SMD-0805" V 5080 4700 30  0001 C CNN
F 3 "" H 5150 4700 30  0000 C CNN
	1    5150 4700
	0    -1   1    0   
$EndComp
Text Label 3850 4800 0    60   ~ 0
SLOW/CDTI/SDA
$Comp
L R R527
U 1 1 562942CB
P 5150 4800
F 0 "R527" V 5100 5200 40  0000 C CNN
F 1 "27R" V 5157 4801 40  0000 C CNN
F 2 "MyKiCadLibs-Footprints:SMD-0805" V 5080 4800 30  0001 C CNN
F 3 "" H 5150 4800 30  0000 C CNN
	1    5150 4800
	0    -1   1    0   
$EndComp
Text HLabel 1500 6800 0    60   Input ~ 0
CCLK/SCL
Text HLabel 1500 6250 0    60   Input ~ 0
CDTI/SDA
Text Label 3850 4900 0    60   ~ 0
DIF0/DZFL1
$Comp
L R R528
U 1 1 5629747B
P 5150 4900
F 0 "R528" V 5100 5300 40  0000 C CNN
F 1 "27R" V 5157 4901 40  0000 C CNN
F 2 "MyKiCadLibs-Footprints:SMD-0805" V 5080 4900 30  0001 C CNN
F 3 "" H 5150 4900 30  0000 C CNN
	1    5150 4900
	0    -1   1    0   
$EndComp
Text Label 3850 5000 0    60   ~ 0
DIF1/DZFR1
$Comp
L R R529
U 1 1 56297484
P 5150 5000
F 0 "R529" V 5100 5400 40  0000 C CNN
F 1 "27R" V 5157 5001 40  0000 C CNN
F 2 "MyKiCadLibs-Footprints:SMD-0805" V 5080 5000 30  0001 C CNN
F 3 "" H 5150 5000 30  0000 C CNN
	1    5150 5000
	0    -1   1    0   
$EndComp
Text Label 3850 5100 0    60   ~ 0
DIF2/CAD0
$Comp
L R R530
U 1 1 5629748D
P 5150 5100
F 0 "R530" V 5100 5500 40  0000 C CNN
F 1 "27R" V 5157 5101 40  0000 C CNN
F 2 "MyKiCadLibs-Footprints:SMD-0805" V 5080 5100 30  0001 C CNN
F 3 "" H 5150 5100 30  0000 C CNN
	1    5150 5100
	0    -1   1    0   
$EndComp
Text Label 3850 5200 0    60   ~ 0
PSN
$Comp
L R R531
U 1 1 56297496
P 5150 5200
F 0 "R531" V 5100 5600 40  0000 C CNN
F 1 "27R" V 5157 5201 40  0000 C CNN
F 2 "MyKiCadLibs-Footprints:SMD-0805" V 5080 5200 30  0001 C CNN
F 3 "" H 5150 5200 30  0000 C CNN
	1    5150 5200
	0    -1   1    0   
$EndComp
Text Label 3850 5300 0    60   ~ 0
I2C
$Comp
L R R532
U 1 1 5629751A
P 5150 5300
F 0 "R532" V 5100 5700 40  0000 C CNN
F 1 "27R" V 5157 5301 40  0000 C CNN
F 2 "MyKiCadLibs-Footprints:SMD-0805" V 5080 5300 30  0001 C CNN
F 3 "" H 5150 5300 30  0000 C CNN
	1    5150 5300
	0    -1   1    0   
$EndComp
Text Label 3850 5400 0    60   ~ 0
DEM0
$Comp
L R R533
U 1 1 56297523
P 5150 5400
F 0 "R533" V 5100 5800 40  0000 C CNN
F 1 "27R" V 5157 5401 40  0000 C CNN
F 2 "MyKiCadLibs-Footprints:SMD-0805" V 5080 5400 30  0001 C CNN
F 3 "" H 5150 5400 30  0000 C CNN
	1    5150 5400
	0    -1   1    0   
$EndComp
Text Label 3850 5500 0    60   ~ 0
DEM1
$Comp
L R R534
U 1 1 5629752C
P 5150 5500
F 0 "R534" V 5100 5900 40  0000 C CNN
F 1 "27R" V 5157 5501 40  0000 C CNN
F 2 "MyKiCadLibs-Footprints:SMD-0805" V 5080 5500 30  0001 C CNN
F 3 "" H 5150 5500 30  0000 C CNN
	1    5150 5500
	0    -1   1    0   
$EndComp
Text Label 3850 5600 0    60   ~ 0
ACKS/CAD1
$Comp
L R R535
U 1 1 56297535
P 5150 5600
F 0 "R535" V 5100 6000 40  0000 C CNN
F 1 "27R" V 5157 5601 40  0000 C CNN
F 2 "MyKiCadLibs-Footprints:SMD-0805" V 5080 5600 30  0001 C CNN
F 3 "" H 5150 5600 30  0000 C CNN
	1    5150 5600
	0    -1   1    0   
$EndComp
$Comp
L R R519
U 1 1 562A4006
P 5150 3500
F 0 "R519" V 5100 3900 40  0000 C CNN
F 1 "0R" V 5157 3501 40  0000 C CNN
F 2 "MyKiCadLibs-Footprints:SMD-0805" V 5080 3500 30  0001 C CNN
F 3 "" H 5150 3500 30  0000 C CNN
	1    5150 3500
	0    -1   1    0   
$EndComp
$Comp
L R R520
U 1 1 562A4551
P 5150 3650
F 0 "R520" V 5100 4050 40  0000 C CNN
F 1 "0R" V 5157 3651 40  0000 C CNN
F 2 "MyKiCadLibs-Footprints:SMD-0805" V 5080 3650 30  0001 C CNN
F 3 "" H 5150 3650 30  0000 C CNN
	1    5150 3650
	0    -1   1    0   
$EndComp
$Comp
L R R521
U 1 1 562A4644
P 5150 3750
F 0 "R521" V 5100 4150 40  0000 C CNN
F 1 "0R" V 5157 3751 40  0000 C CNN
F 2 "MyKiCadLibs-Footprints:SMD-0805" V 5080 3750 30  0001 C CNN
F 3 "" H 5150 3750 30  0000 C CNN
	1    5150 3750
	0    -1   1    0   
$EndComp
$Comp
L R R522
U 1 1 562A4738
P 5150 3850
F 0 "R522" V 5100 4250 40  0000 C CNN
F 1 "0R" V 5157 3851 40  0000 C CNN
F 2 "MyKiCadLibs-Footprints:SMD-0805" V 5080 3850 30  0001 C CNN
F 3 "" H 5150 3850 30  0000 C CNN
	1    5150 3850
	0    -1   1    0   
$EndComp
Text HLabel 4650 3500 0    60   Input ~ 0
MCLK1
Text HLabel 4650 3650 0    60   Input ~ 0
BICK1
Text HLabel 4650 3750 0    60   Input ~ 0
SDATA1
Text HLabel 4650 3850 0    60   Input ~ 0
LRCK1
Text HLabel 8300 3600 2    60   Output ~ 0
ALP1
Text HLabel 8300 3700 2    60   Output ~ 0
ALN1
Text HLabel 8300 5450 2    60   Output ~ 0
ARP1
Text HLabel 8300 5550 2    60   Output ~ 0
ARN1
$Comp
L CP1 C519
U 1 1 562AE289
P 8050 2150
F 0 "C519" H 8100 2250 50  0000 L CNN
F 1 "2200u" H 7950 1800 50  0000 L CNN
F 2 "MyKiCadLibs-Footprints:CAP-TH-D12.5mmP5mm" H 8050 2150 60  0001 C CNN
F 3 "" H 8050 2150 60  0000 C CNN
	1    8050 2150
	-1   0    0    1   
$EndComp
$Comp
L CP1 C520
U 1 1 562B13FA
P 8050 7000
F 0 "C520" H 8100 7100 50  0000 L CNN
F 1 "2200u" H 7950 6650 50  0000 L CNN
F 2 "MyKiCadLibs-Footprints:CAP-TH-D12.5mmP5mm" H 8050 7000 60  0001 C CNN
F 3 "" H 8050 7000 60  0000 C CNN
	1    8050 7000
	1    0    0    -1  
$EndComp
Text Label 3850 4600 0    60   ~ 0
SMUTE/CS
$Comp
L R R523
U 1 1 562E8A64
P 5150 4400
F 0 "R523" V 5100 4800 40  0000 C CNN
F 1 "27R" V 5157 4401 40  0000 C CNN
F 2 "MyKiCadLibs-Footprints:SMD-0805" V 5080 4400 30  0001 C CNN
F 3 "" H 5150 4400 30  0000 C CNN
	1    5150 4400
	0    -1   1    0   
$EndComp
Text Notes 900  8450 0    118  ~ 0
Control Pins
Text Notes 900  8600 0    60   ~ 0
Can use Standalone, SPI, or I2C.
$Comp
L VCOM #PWR062
U 1 1 563567D4
P 9700 3100
F 0 "#PWR062" H 9700 2950 50  0001 C CNN
F 1 "VCOM" H 9700 3250 50  0000 C CNN
F 2 "" H 9700 3100 60  0000 C CNN
F 3 "" H 9700 3100 60  0000 C CNN
	1    9700 3100
	1    0    0    -1  
$EndComp
$Comp
L VCOM #PWR063
U 1 1 563572D2
P 9850 5950
F 0 "#PWR063" H 9850 5800 50  0001 C CNN
F 1 "VCOM" H 9850 6100 50  0000 C CNN
F 2 "" H 9850 5950 60  0000 C CNN
F 3 "" H 9850 5950 60  0000 C CNN
	1    9850 5950
	1    0    0    -1  
$EndComp
$Comp
L INDUCTOR L501
U 1 1 5629A4EF
P 4450 1300
F 0 "L501" V 4400 1300 40  0000 C CNN
F 1 "600R@100MHz" V 4550 1300 40  0000 C CNN
F 2 "MyKiCadLibs-Footprints:SMD-0805" H 4450 1300 60  0001 C CNN
F 3 "" H 4450 1300 60  0000 C CNN
	1    4450 1300
	0    -1   -1   0   
$EndComp
$Comp
L R R515
U 1 1 5629F423
P 4450 1500
F 0 "R515" V 4370 1500 40  0000 C CNN
F 1 "47R" V 4457 1501 40  0000 C CNN
F 2 "MyKiCadLibs-Footprints:SMD-0805" V 4380 1500 30  0001 C CNN
F 3 "" H 4450 1500 30  0000 C CNN
	1    4450 1500
	0    -1   1    0   
$EndComp
$Comp
L C C501
U 1 1 5629F6CD
P 4450 1800
F 0 "C501" H 4450 1900 40  0000 L CNN
F 1 "100p" H 4456 1715 40  0000 L CNN
F 2 "MyKiCadLibs-Footprints:SMD-0805" H 4488 1650 30  0001 C CNN
F 3 "" H 4450 1800 60  0000 C CNN
	1    4450 1800
	0    -1   -1   0   
$EndComp
$Comp
L GNDA #PWR064
U 1 1 5629FA46
P 4750 1900
F 0 "#PWR064" H 4750 1650 50  0001 C CNN
F 1 "GNDA" H 4750 1750 50  0000 C CNN
F 2 "" H 4750 1900 60  0000 C CNN
F 3 "" H 4750 1900 60  0000 C CNN
	1    4750 1900
	1    0    0    -1  
$EndComp
Wire Wire Line
	7650 6250 7650 6300
Wire Wire Line
	7650 6300 7750 6300
Wire Wire Line
	7750 6250 7750 6800
Connection ~ 7750 6300
Wire Wire Line
	7450 6250 7450 6300
Wire Wire Line
	7450 6300 7550 6300
Wire Wire Line
	7550 6300 7550 6250
Wire Wire Line
	7250 6250 7250 6800
Wire Wire Line
	7250 7250 7250 7200
Wire Wire Line
	6700 7250 9150 7250
Wire Wire Line
	7750 7250 7750 7200
Wire Wire Line
	7500 6300 7500 7250
Connection ~ 7500 7250
Connection ~ 7500 6300
Wire Wire Line
	8350 7250 8350 7200
Connection ~ 7750 7250
Wire Wire Line
	8350 6650 8350 6800
Wire Wire Line
	7750 6650 9150 6650
Connection ~ 7750 6650
Connection ~ 8350 6650
Wire Wire Line
	9150 7200 9150 7300
Connection ~ 8350 7250
Wire Wire Line
	6650 1900 9350 1900
Wire Wire Line
	8350 1900 8350 1950
Wire Wire Line
	8350 2500 8350 2350
Wire Wire Line
	7750 2500 9150 2500
Wire Wire Line
	9150 2450 9150 2600
Connection ~ 8350 2500
Wire Wire Line
	9150 1900 9150 1950
Connection ~ 8350 1900
Wire Wire Line
	7250 1900 7250 1950
Wire Wire Line
	7250 2350 7250 2950
Wire Wire Line
	7750 2350 7750 2950
Wire Wire Line
	7650 2950 7650 2900
Wire Wire Line
	7650 2900 7750 2900
Connection ~ 7750 2900
Connection ~ 7750 2500
Wire Wire Line
	7750 1950 7750 1900
Connection ~ 7750 1900
Wire Wire Line
	7450 2950 7450 2900
Wire Wire Line
	7450 2900 7550 2900
Wire Wire Line
	7550 2900 7550 2950
Wire Wire Line
	7500 2900 7500 1900
Connection ~ 7500 1900
Connection ~ 7500 2900
Wire Wire Line
	8200 4800 8300 4800
Wire Wire Line
	8300 4800 8300 4700
Wire Wire Line
	8200 4700 9150 4700
Wire Wire Line
	8550 5250 8550 5150
Wire Wire Line
	8200 5250 9150 5250
Wire Wire Line
	8200 5150 8300 5150
Wire Wire Line
	8300 5150 8300 5250
Connection ~ 8300 5250
Wire Wire Line
	8850 5250 8850 5150
Connection ~ 8550 5250
Wire Wire Line
	8550 4700 8550 4750
Connection ~ 8300 4700
Wire Wire Line
	8850 4700 8850 4750
Connection ~ 8550 4700
Wire Wire Line
	8200 4350 8300 4350
Wire Wire Line
	8300 4350 8300 4450
Wire Wire Line
	8200 4450 9500 4450
Wire Wire Line
	8550 3900 8550 4000
Wire Wire Line
	8200 3900 9150 3900
Wire Wire Line
	8200 4000 8300 4000
Wire Wire Line
	8300 4000 8300 3900
Connection ~ 8300 3900
Wire Wire Line
	8850 3900 8850 4000
Connection ~ 8550 3900
Wire Wire Line
	8550 4450 8550 4400
Connection ~ 8300 4450
Wire Wire Line
	8850 4450 8850 4400
Connection ~ 8550 4450
Wire Wire Line
	9150 3800 9150 4000
Connection ~ 8850 3900
Wire Wire Line
	9150 4450 9150 4400
Connection ~ 8850 4450
Wire Wire Line
	9150 4600 9150 4750
Connection ~ 8850 4700
Wire Wire Line
	9150 5150 9150 5350
Connection ~ 8850 5250
Connection ~ 9150 4450
Wire Wire Line
	9150 4600 9300 4600
Wire Wire Line
	9250 4600 9250 4450
Connection ~ 9250 4450
Connection ~ 9150 4700
Wire Wire Line
	6200 6250 6200 6450
Wire Wire Line
	6200 6350 7000 6350
Wire Wire Line
	6450 6350 6450 6250
Connection ~ 6200 6350
Wire Wire Line
	6600 6350 6600 6250
Connection ~ 6450 6350
Wire Wire Line
	6700 6350 6700 6250
Connection ~ 6600 6350
Wire Wire Line
	6800 6350 6800 6250
Connection ~ 6700 6350
Wire Wire Line
	6900 6350 6900 6250
Connection ~ 6800 6350
Wire Wire Line
	7000 6350 7000 6250
Connection ~ 6900 6350
Connection ~ 9150 7250
Wire Wire Line
	6950 7200 6950 7250
Connection ~ 7250 7250
Wire Wire Line
	6950 6800 6950 6700
Wire Wire Line
	6700 6700 7250 6700
Connection ~ 7250 6700
Wire Wire Line
	9350 1900 9350 1950
Connection ~ 9150 1900
Wire Wire Line
	6900 1950 6900 1900
Connection ~ 7250 1900
Wire Wire Line
	6900 2350 6900 2450
Wire Wire Line
	6650 2450 7250 2450
Connection ~ 7250 2450
Wire Wire Line
	5050 1750 5050 1850
Wire Wire Line
	5050 1800 5950 1800
Wire Wire Line
	5650 1800 5650 1750
Connection ~ 5050 1800
Wire Wire Line
	5950 1800 5950 1750
Connection ~ 5650 1800
Wire Wire Line
	5050 2900 5050 3000
Wire Wire Line
	5050 2950 5950 2950
Connection ~ 5050 2950
Wire Wire Line
	4750 2450 6200 2450
Wire Wire Line
	6200 2450 6200 2950
Wire Wire Line
	5950 2500 5950 2450
Connection ~ 5950 2450
Wire Wire Line
	5650 2500 5650 2450
Connection ~ 5650 2450
Wire Wire Line
	4750 1300 6450 1300
Wire Wire Line
	6450 1300 6450 2950
Wire Wire Line
	5650 1350 5650 1300
Connection ~ 5650 1300
Wire Wire Line
	5950 1350 5950 1300
Connection ~ 5950 1300
Connection ~ 9150 2500
Wire Wire Line
	9150 3100 9150 3200
Connection ~ 9150 3900
Connection ~ 9150 5250
Wire Wire Line
	9850 5950 9850 6050
Wire Wire Line
	9400 3200 9400 3150
Wire Wire Line
	9400 3650 9400 3600
Wire Wire Line
	9600 6000 9600 6050
Wire Wire Line
	9600 6500 9600 6450
Connection ~ 9850 6000
Wire Wire Line
	9850 6500 9850 6450
Connection ~ 9600 6000
Wire Wire Line
	9700 3650 9700 3600
Wire Wire Line
	9700 3100 9700 3200
Connection ~ 9400 3150
Connection ~ 5050 2450
Connection ~ 5050 1300
Wire Wire Line
	5550 4500 5400 4500
Wire Wire Line
	3850 4500 4900 4500
Wire Wire Line
	5550 4600 5400 4600
Wire Wire Line
	4900 4600 3850 4600
Wire Wire Line
	5550 4700 5400 4700
Wire Wire Line
	4900 4700 3850 4700
Wire Wire Line
	5550 4800 5400 4800
Wire Wire Line
	4900 4800 3850 4800
Wire Wire Line
	5550 4900 5400 4900
Wire Wire Line
	4900 4900 3850 4900
Wire Wire Line
	5550 5000 5400 5000
Wire Wire Line
	4900 5000 3850 5000
Wire Wire Line
	5550 5100 5400 5100
Wire Wire Line
	4900 5100 3850 5100
Wire Wire Line
	5550 5200 5400 5200
Wire Wire Line
	4900 5200 3850 5200
Wire Wire Line
	5550 5300 5400 5300
Wire Wire Line
	4900 5300 3850 5300
Wire Wire Line
	5550 5400 5400 5400
Wire Wire Line
	4900 5400 3850 5400
Wire Wire Line
	5550 5500 5400 5500
Wire Wire Line
	4900 5500 3850 5500
Wire Wire Line
	5550 5600 5400 5600
Wire Wire Line
	4900 5600 3850 5600
Wire Wire Line
	5550 3500 5400 3500
Wire Wire Line
	4900 3500 4650 3500
Wire Wire Line
	5550 3650 5400 3650
Wire Wire Line
	4900 3650 4650 3650
Wire Wire Line
	5550 3750 5400 3750
Wire Wire Line
	4900 3750 4650 3750
Wire Wire Line
	5550 3850 5400 3850
Wire Wire Line
	4900 3850 4650 3850
Wire Wire Line
	8300 3600 8200 3600
Wire Wire Line
	8300 3700 8200 3700
Wire Wire Line
	8300 5450 8200 5450
Wire Wire Line
	8300 5550 8200 5550
Wire Wire Line
	8050 1950 8050 1900
Connection ~ 8050 1900
Wire Wire Line
	8050 2350 8050 2500
Connection ~ 8050 2500
Wire Wire Line
	8050 6800 8050 6650
Connection ~ 8050 6650
Wire Wire Line
	8050 7200 8050 7250
Connection ~ 8050 7250
Wire Wire Line
	5400 4400 5550 4400
Wire Wire Line
	3850 4400 4900 4400
Wire Wire Line
	5050 1350 5050 1300
Wire Wire Line
	4150 1300 4050 1300
Wire Wire Line
	4050 1300 4050 1150
Wire Wire Line
	4750 1900 4750 1800
Wire Wire Line
	4750 1800 4650 1800
Wire Wire Line
	4250 1800 4100 1800
Wire Wire Line
	4100 1800 4100 1500
Wire Wire Line
	4100 1500 4200 1500
Wire Wire Line
	4700 1500 4850 1500
Wire Wire Line
	4850 1500 4850 1300
Connection ~ 4850 1300
$Comp
L VDD #PWR065
U 1 1 562A07A5
P 4050 2300
F 0 "#PWR065" H 4050 2150 50  0001 C CNN
F 1 "VDD" H 4050 2450 50  0000 C CNN
F 2 "" H 4050 2300 60  0000 C CNN
F 3 "" H 4050 2300 60  0000 C CNN
	1    4050 2300
	1    0    0    -1  
$EndComp
$Comp
L INDUCTOR L502
U 1 1 562A0A61
P 4450 2450
F 0 "L502" V 4400 2450 40  0000 C CNN
F 1 "600R@100MHz" V 4550 2450 40  0000 C CNN
F 2 "MyKiCadLibs-Footprints:SMD-0805" H 4450 2450 60  0001 C CNN
F 3 "" H 4450 2450 60  0000 C CNN
	1    4450 2450
	0    -1   -1   0   
$EndComp
$Comp
L R R516
U 1 1 562A0A67
P 4450 2650
F 0 "R516" V 4370 2650 40  0000 C CNN
F 1 "47R" V 4457 2651 40  0000 C CNN
F 2 "MyKiCadLibs-Footprints:SMD-0805" V 4380 2650 30  0001 C CNN
F 3 "" H 4450 2650 30  0000 C CNN
	1    4450 2650
	0    -1   1    0   
$EndComp
$Comp
L C C502
U 1 1 562A0A6D
P 4450 2950
F 0 "C502" H 4450 3050 40  0000 L CNN
F 1 "100p" H 4456 2865 40  0000 L CNN
F 2 "MyKiCadLibs-Footprints:SMD-0805" H 4488 2800 30  0001 C CNN
F 3 "" H 4450 2950 60  0000 C CNN
	1    4450 2950
	0    -1   -1   0   
$EndComp
$Comp
L GNDA #PWR066
U 1 1 562A0A73
P 4750 3050
F 0 "#PWR066" H 4750 2800 50  0001 C CNN
F 1 "GNDA" H 4750 2900 50  0000 C CNN
F 2 "" H 4750 3050 60  0000 C CNN
F 3 "" H 4750 3050 60  0000 C CNN
	1    4750 3050
	1    0    0    -1  
$EndComp
Wire Wire Line
	4150 2450 4050 2450
Wire Wire Line
	4050 2450 4050 2300
Wire Wire Line
	4750 3050 4750 2950
Wire Wire Line
	4750 2950 4650 2950
Wire Wire Line
	4250 2950 4100 2950
Wire Wire Line
	4100 2950 4100 2650
Wire Wire Line
	4100 2650 4200 2650
Wire Wire Line
	4700 2650 4850 2650
Wire Wire Line
	4850 2650 4850 2450
Connection ~ 4850 2450
Wire Wire Line
	5050 2450 5050 2500
$Comp
L R R545
U 1 1 562A2DBE
P 8600 2750
F 0 "R545" V 8520 2750 40  0000 C CNN
F 1 "47R" V 8607 2751 40  0000 C CNN
F 2 "MyKiCadLibs-Footprints:SMD-0805" V 8530 2750 30  0001 C CNN
F 3 "" H 8600 2750 30  0000 C CNN
	1    8600 2750
	0    1    1    0   
$EndComp
$Comp
L C C526
U 1 1 562A2DC4
P 8600 3050
F 0 "C526" H 8600 3150 40  0000 L CNN
F 1 "100p" H 8606 2965 40  0000 L CNN
F 2 "MyKiCadLibs-Footprints:SMD-0805" H 8638 2900 30  0001 C CNN
F 3 "" H 8600 3050 60  0000 C CNN
	1    8600 3050
	0    1    -1   0   
$EndComp
$Comp
L GNDA #PWR067
U 1 1 562A2DCA
P 8300 3100
F 0 "#PWR067" H 8300 2850 50  0001 C CNN
F 1 "GNDA" H 8300 2950 50  0000 C CNN
F 2 "" H 8300 3100 60  0000 C CNN
F 3 "" H 8300 3100 60  0000 C CNN
	1    8300 3100
	-1   0    0    -1  
$EndComp
Wire Wire Line
	8300 3100 8300 3050
Wire Wire Line
	8300 3050 8400 3050
Wire Wire Line
	8800 3050 8950 3050
Wire Wire Line
	8950 3050 8950 2750
Wire Wire Line
	8950 2750 8850 2750
Connection ~ 8200 2500
$Comp
L R R552
U 1 1 562A4D58
P 9700 3950
F 0 "R552" V 9620 3950 40  0000 C CNN
F 1 "47R" V 9707 3951 40  0000 C CNN
F 2 "MyKiCadLibs-Footprints:SMD-0805" V 9630 3950 30  0001 C CNN
F 3 "" H 9700 3950 30  0000 C CNN
	1    9700 3950
	0    1    1    0   
$EndComp
$Comp
L C C536
U 1 1 562A4D5E
P 9700 4450
F 0 "C536" H 9700 4550 40  0000 L CNN
F 1 "100p" H 9706 4365 40  0000 L CNN
F 2 "MyKiCadLibs-Footprints:SMD-0805" H 9738 4300 30  0001 C CNN
F 3 "" H 9700 4450 60  0000 C CNN
	1    9700 4450
	0    1    -1   0   
$EndComp
Wire Wire Line
	10050 4450 9900 4450
Wire Wire Line
	9150 3950 9450 3950
Connection ~ 9150 3950
Wire Wire Line
	10050 3950 10050 4450
Wire Wire Line
	9950 3950 10050 3950
$Comp
L INDUCTOR L503
U 1 1 562B41BC
P 9150 3500
F 0 "L503" V 9100 3500 40  0000 C CNN
F 1 "600R@100MHz" V 9250 3500 40  0000 C CNN
F 2 "MyKiCadLibs-Footprints:SMD-0805" H 9150 3500 60  0001 C CNN
F 3 "" H 9150 3500 60  0000 C CNN
	1    9150 3500
	-1   0    0    1   
$EndComp
Wire Wire Line
	9150 3150 9700 3150
$Comp
L INDUCTOR L504
U 1 1 562B5205
P 9150 5650
F 0 "L504" V 9100 5650 40  0000 C CNN
F 1 "600R@100MHz" V 9250 5650 40  0000 C CNN
F 2 "MyKiCadLibs-Footprints:SMD-0805" H 9150 5650 60  0001 C CNN
F 3 "" H 9150 5650 60  0000 C CNN
	1    9150 5650
	-1   0    0    1   
$EndComp
$Comp
L R R553
U 1 1 562B5600
P 9700 5300
F 0 "R553" V 9620 5300 40  0000 C CNN
F 1 "47R" V 9707 5301 40  0000 C CNN
F 2 "MyKiCadLibs-Footprints:SMD-0805" V 9630 5300 30  0001 C CNN
F 3 "" H 9700 5300 30  0000 C CNN
	1    9700 5300
	0    1    -1   0   
$EndComp
$Comp
L C C537
U 1 1 562B5606
P 9700 4800
F 0 "C537" H 9700 4900 40  0000 L CNN
F 1 "100p" H 9706 4715 40  0000 L CNN
F 2 "MyKiCadLibs-Footprints:SMD-0805" H 9738 4650 30  0001 C CNN
F 3 "" H 9700 4800 60  0000 C CNN
	1    9700 4800
	0    1    1    0   
$EndComp
Wire Wire Line
	10050 4800 9900 4800
Wire Wire Line
	10050 5300 10050 4800
Wire Wire Line
	9950 5300 10050 5300
Wire Wire Line
	9500 4800 9450 4800
Wire Wire Line
	9450 4800 9450 4450
Connection ~ 9450 4450
Wire Wire Line
	9300 4600 9300 4650
Connection ~ 9250 4600
Wire Wire Line
	9450 5300 9150 5300
Connection ~ 9150 5300
$Comp
L R R544
U 1 1 562B771B
P 8550 6400
F 0 "R544" V 8470 6400 40  0000 C CNN
F 1 "47R" V 8557 6401 40  0000 C CNN
F 2 "MyKiCadLibs-Footprints:SMD-0805" V 8480 6400 30  0001 C CNN
F 3 "" H 8550 6400 30  0000 C CNN
	1    8550 6400
	0    1    -1   0   
$EndComp
$Comp
L C C525
U 1 1 562B7721
P 8550 6100
F 0 "C525" H 8550 6200 40  0000 L CNN
F 1 "100p" H 8556 6015 40  0000 L CNN
F 2 "MyKiCadLibs-Footprints:SMD-0805" H 8588 5950 30  0001 C CNN
F 3 "" H 8550 6100 60  0000 C CNN
	1    8550 6100
	0    1    1    0   
$EndComp
Wire Wire Line
	8750 6100 8900 6100
Wire Wire Line
	8900 6100 8900 6400
Wire Wire Line
	8900 6400 8800 6400
$Comp
L GNDA #PWR068
U 1 1 562B7A21
P 8150 6200
F 0 "#PWR068" H 8150 5950 50  0001 C CNN
F 1 "GNDA" H 8150 6050 50  0000 C CNN
F 2 "" H 8150 6200 60  0000 C CNN
F 3 "" H 8150 6200 60  0000 C CNN
	1    8150 6200
	-1   0    0    -1  
$EndComp
Wire Wire Line
	8300 6400 8250 6400
Wire Wire Line
	8250 6400 8250 6650
Connection ~ 8250 6650
Wire Wire Line
	5650 2950 5650 2900
Wire Wire Line
	5950 2950 5950 2900
Connection ~ 5650 2950
$Comp
L C C506
U 1 1 562BFF75
P 5300 2700
F 0 "C506" H 5300 2800 40  0000 L CNN
F 1 "1n" H 5306 2615 40  0000 L CNN
F 2 "MyKiCadLibs-Footprints:SMD-0805" H 5338 2550 30  0001 C CNN
F 3 "" H 5300 2700 60  0000 C CNN
	1    5300 2700
	-1   0    0    1   
$EndComp
Wire Wire Line
	5300 2500 5300 2450
Connection ~ 5300 2450
Wire Wire Line
	5300 2900 5300 2950
Connection ~ 5300 2950
$Comp
L C C505
U 1 1 562C130E
P 5300 1550
F 0 "C505" H 5300 1650 40  0000 L CNN
F 1 "1n" H 5306 1465 40  0000 L CNN
F 2 "MyKiCadLibs-Footprints:SMD-0805" H 5338 1400 30  0001 C CNN
F 3 "" H 5300 1550 60  0000 C CNN
	1    5300 1550
	-1   0    0    1   
$EndComp
Wire Wire Line
	5300 1350 5300 1300
Wire Wire Line
	5300 1750 5300 1800
Connection ~ 5300 1300
Connection ~ 5300 1800
$Comp
L C C511
U 1 1 562C220E
P 6650 2150
F 0 "C511" H 6650 2250 40  0000 L CNN
F 1 "1n" H 6656 2065 40  0000 L CNN
F 2 "MyKiCadLibs-Footprints:SMD-0805" H 6688 2000 30  0001 C CNN
F 3 "" H 6650 2150 60  0000 C CNN
	1    6650 2150
	-1   0    0    1   
$EndComp
Wire Wire Line
	6650 1950 6650 1900
Connection ~ 6900 1900
Wire Wire Line
	6650 2350 6650 2450
Connection ~ 6900 2450
$Comp
L C C529
U 1 1 562C6E97
P 8850 4200
F 0 "C529" H 8850 4300 40  0000 L CNN
F 1 "1n" H 8856 4115 40  0000 L CNN
F 2 "MyKiCadLibs-Footprints:SMD-0805" H 8888 4050 30  0001 C CNN
F 3 "" H 8850 4200 60  0000 C CNN
	1    8850 4200
	-1   0    0    1   
$EndComp
$Comp
L C C530
U 1 1 562C706B
P 8850 4950
F 0 "C530" H 8850 5050 40  0000 L CNN
F 1 "1n" H 8856 4865 40  0000 L CNN
F 2 "MyKiCadLibs-Footprints:SMD-0805" H 8888 4800 30  0001 C CNN
F 3 "" H 8850 4950 60  0000 C CNN
	1    8850 4950
	-1   0    0    1   
$EndComp
$Comp
L C C512
U 1 1 562C835B
P 6700 7000
F 0 "C512" H 6700 7100 40  0000 L CNN
F 1 "1n" H 6706 6915 40  0000 L CNN
F 2 "MyKiCadLibs-Footprints:SMD-0805" H 6738 6850 30  0001 C CNN
F 3 "" H 6700 7000 60  0000 C CNN
	1    6700 7000
	-1   0    0    1   
$EndComp
Wire Wire Line
	6700 6800 6700 6700
Connection ~ 6950 6700
Wire Wire Line
	6700 7200 6700 7250
Connection ~ 6950 7250
Connection ~ 9150 6000
Wire Wire Line
	9150 5950 9150 6050
Wire Wire Line
	9150 6550 9150 6700
Connection ~ 9150 6650
$Comp
L C C528
U 1 1 562CB3C7
P 8650 7000
F 0 "C528" H 8650 7100 40  0000 L CNN
F 1 "1n" H 8656 6915 40  0000 L CNN
F 2 "MyKiCadLibs-Footprints:SMD-0805" H 8688 6850 30  0001 C CNN
F 3 "" H 8650 7000 60  0000 C CNN
	1    8650 7000
	-1   0    0    1   
$EndComp
Wire Wire Line
	8650 6800 8650 6650
Connection ~ 8650 6650
Wire Wire Line
	8650 7200 8650 7250
Connection ~ 8650 7250
Wire Wire Line
	8150 6200 8150 6100
Wire Wire Line
	8150 6100 8350 6100
Connection ~ 9150 3150
Connection ~ 9700 3150
Wire Wire Line
	9150 6000 9850 6000
$Comp
L C C527
U 1 1 562D4B2F
P 8650 2150
F 0 "C527" H 8650 2250 40  0000 L CNN
F 1 "1n" H 8656 2065 40  0000 L CNN
F 2 "MyKiCadLibs-Footprints:SMD-0805" H 8688 2000 30  0001 C CNN
F 3 "" H 8650 2150 60  0000 C CNN
	1    8650 2150
	-1   0    0    1   
$EndComp
Wire Wire Line
	8650 1950 8650 1900
Connection ~ 8650 1900
Wire Wire Line
	8650 2350 8650 2500
Connection ~ 8650 2500
Wire Wire Line
	8350 2750 8200 2750
Wire Wire Line
	8200 2750 8200 2500
Text Notes 11200 7200 0    59   ~ 0
Generate a global reset based on voltage rails.\nUse ADM811TART (Reset at 3v08)
Text Notes 11200 6950 0    118  ~ 0
Voltage Monitor Reset
$Comp
L C C539
U 1 1 5636DCC5
P 12200 8300
F 0 "C539" H 12200 8400 40  0000 L CNN
F 1 "1u" H 12206 8215 40  0000 L CNN
F 2 "MyKiCadLibs-Footprints:SMD-0805" H 12238 8150 30  0000 C CNN
F 3 "~" H 12200 8300 60  0000 C CNN
	1    12200 8300
	1    0    0    -1  
$EndComp
$Comp
L C C540
U 1 1 5636DCCC
P 12450 8300
F 0 "C540" H 12450 8400 40  0000 L CNN
F 1 "100n" H 12456 8215 40  0000 L CNN
F 2 "MyKiCadLibs-Footprints:SMD-0805" H 12488 8150 30  0000 C CNN
F 3 "~" H 12450 8300 60  0000 C CNN
	1    12450 8300
	1    0    0    -1  
$EndComp
$Comp
L SWITCH SW501
U 1 1 5636DCD3
P 14800 8350
F 0 "SW501" H 15000 8480 70  0000 C CNN
F 1 "SWITCH" H 15000 8600 70  0000 C CNN
F 2 "MyKiCadLibs-Footprints:SW_TACT_SMD" H 15065 8350 60  0001 C CNN
F 3 "" H 15065 8350 60  0000 C CNN
	1    14800 8350
	0    1    1    0   
$EndComp
$Comp
L GNDD #PWR069
U 1 1 5636DCE1
P 14800 8800
F 0 "#PWR069" H 14800 8550 60  0001 C CNN
F 1 "GNDD" H 14800 8650 60  0000 C CNN
F 2 "" H 14800 8800 60  0000 C CNN
F 3 "" H 14800 8800 60  0000 C CNN
	1    14800 8800
	-1   0    0    -1  
$EndComp
$Comp
L C C541
U 1 1 5636DCE7
P 13850 8550
F 0 "C541" H 13850 8650 40  0000 L CNN
F 1 "100n" H 13856 8465 40  0000 L CNN
F 2 "MyKiCadLibs-Footprints:SMD-0805" H 13888 8400 30  0000 C CNN
F 3 "~" H 13850 8550 60  0000 C CNN
	1    13850 8550
	1    0    0    -1  
$EndComp
$Comp
L GNDD #PWR070
U 1 1 5636DCEE
P 13850 8800
F 0 "#PWR070" H 13850 8550 60  0001 C CNN
F 1 "GNDD" H 13850 8650 60  0000 C CNN
F 2 "" H 13850 8800 60  0000 C CNN
F 3 "" H 13850 8800 60  0000 C CNN
	1    13850 8800
	-1   0    0    -1  
$EndComp
$Comp
L GNDD #PWR071
U 1 1 5636DCF4
P 12200 8600
F 0 "#PWR071" H 12200 8350 60  0001 C CNN
F 1 "GNDD" H 12200 8450 60  0000 C CNN
F 2 "" H 12200 8600 60  0000 C CNN
F 3 "" H 12200 8600 60  0000 C CNN
	1    12200 8600
	-1   0    0    -1  
$EndComp
$Comp
L GNDD #PWR072
U 1 1 5636DCFA
P 12800 8000
F 0 "#PWR072" H 12800 7750 60  0001 C CNN
F 1 "GNDD" H 12800 7850 60  0000 C CNN
F 2 "" H 12800 8000 60  0000 C CNN
F 3 "" H 12800 8000 60  0000 C CNN
	1    12800 8000
	-1   0    0    -1  
$EndComp
$Comp
L R R559
U 1 1 5636DD00
P 14150 8250
F 0 "R559" V 14050 8350 40  0000 C CNN
F 1 "1k" V 14157 8251 40  0000 C CNN
F 2 "MyKiCadLibs-Footprints:SMD-0805" V 14080 8250 30  0001 C CNN
F 3 "~" H 14150 8250 30  0000 C CNN
	1    14150 8250
	0    -1   1    0   
$EndComp
Text HLabel 15400 8350 2    60   Input ~ 0
MAN_RST_IN
$Comp
L C C543
U 1 1 5636DD08
P 15200 8650
F 0 "C543" H 15200 8750 40  0000 L CNN
F 1 "100n" H 15206 8565 40  0000 L CNN
F 2 "MyKiCadLibs-Footprints:SMD-0805" H 15238 8500 30  0000 C CNN
F 3 "~" H 15200 8650 60  0000 C CNN
	1    15200 8650
	1    0    0    -1  
$EndComp
$Comp
L GNDD #PWR073
U 1 1 5636DD0F
P 15200 8900
F 0 "#PWR073" H 15200 8650 60  0001 C CNN
F 1 "GNDD" H 15200 8750 60  0000 C CNN
F 2 "" H 15200 8900 60  0000 C CNN
F 3 "" H 15200 8900 60  0000 C CNN
	1    15200 8900
	-1   0    0    -1  
$EndComp
$Comp
L C C542
U 1 1 5636DD15
P 14100 7400
F 0 "C542" H 14100 7500 40  0000 L CNN
F 1 "100n" H 14106 7315 40  0000 L CNN
F 2 "MyKiCadLibs-Footprints:SMD-0805" H 14138 7250 30  0000 C CNN
F 3 "~" H 14100 7400 60  0000 C CNN
	1    14100 7400
	1    0    0    -1  
$EndComp
$Comp
L GNDD #PWR074
U 1 1 5636DD1C
P 14100 7650
F 0 "#PWR074" H 14100 7400 60  0001 C CNN
F 1 "GNDD" H 14100 7500 60  0000 C CNN
F 2 "" H 14100 7650 60  0000 C CNN
F 3 "" H 14100 7650 60  0000 C CNN
	1    14100 7650
	-1   0    0    -1  
$EndComp
$Comp
L R R561
U 1 1 5636DD22
P 14750 6900
F 0 "R561" V 14680 6820 40  0000 C CNN
F 1 "100R" V 14757 6901 40  0000 C CNN
F 2 "MyKiCadLibs-Footprints:SMD-0805" V 14680 6900 30  0001 C CNN
F 3 "~" H 14750 6900 30  0000 C CNN
	1    14750 6900
	0    1    1    0   
$EndComp
Text Label 15550 6900 2    60   ~ 0
DAC_RESET
$Comp
L C C544
U 1 1 5636DD2A
P 15550 7200
F 0 "C544" H 15550 7300 40  0000 L CNN
F 1 "100n" H 15556 7115 40  0000 L CNN
F 2 "MyKiCadLibs-Footprints:SMD-0805" H 15588 7050 30  0000 C CNN
F 3 "~" H 15550 7200 60  0000 C CNN
	1    15550 7200
	1    0    0    -1  
$EndComp
$Comp
L GNDD #PWR075
U 1 1 5636DD31
P 15550 7450
F 0 "#PWR075" H 15550 7200 60  0001 C CNN
F 1 "GNDD" H 15550 7300 60  0000 C CNN
F 2 "" H 15550 7450 60  0000 C CNN
F 3 "" H 15550 7450 60  0000 C CNN
	1    15550 7450
	-1   0    0    -1  
$EndComp
$Comp
L IC-RST-ADM811 U502
U 1 1 5636DD3F
P 12850 7750
F 0 "U502" H 13100 8000 60  0000 C CNN
F 1 "ADM811TART" H 13350 7900 60  0000 C CNN
F 2 "MyKiCadLibs-Footprints:IC-SOT143" H 12850 7900 60  0001 C CNN
F 3 "" H 12850 7900 60  0000 C CNN
	1    12850 7750
	1    0    0    -1  
$EndComp
$Comp
L R R560
U 1 1 5636DD46
P 14400 7350
F 0 "R560" V 14370 7590 40  0000 C CNN
F 1 "100k" V 14407 7351 40  0000 C CNN
F 2 "MyKiCadLibs-Footprints:SMD-0805" V 14330 7350 30  0001 C CNN
F 3 "~" H 14400 7350 30  0000 C CNN
	1    14400 7350
	1    0    0    1   
$EndComp
$Comp
L GNDD #PWR076
U 1 1 5636DD4D
P 14400 7650
F 0 "#PWR076" H 14400 7400 60  0001 C CNN
F 1 "GNDD" H 14400 7500 60  0000 C CNN
F 2 "" H 14400 7650 60  0000 C CNN
F 3 "" H 14400 7650 60  0000 C CNN
	1    14400 7650
	-1   0    0    -1  
$EndComp
$Comp
L R R558
U 1 1 5636DD5A
P 11850 7750
F 0 "R558" V 11780 7670 40  0000 C CNN
F 1 "0R" V 11857 7751 40  0000 C CNN
F 2 "MyKiCadLibs-Footprints:SMD-0805" V 11780 7750 30  0001 C CNN
F 3 "~" H 11850 7750 30  0000 C CNN
	1    11850 7750
	0    1    1    0   
$EndComp
$Comp
L CONN_3x1 P501
U 1 1 5636DD82
P 1700 9650
F 0 "P501" V 2185 9445 40  0000 C CNN
F 1 "CONN_3x1" V 2130 9560 40  0000 C CNN
F 2 "MyKiCadLibs-Footprints:CONN_SIL_3" H 2040 9540 60  0001 C CNN
F 3 "" H 2040 9540 60  0000 C CNN
	1    1700 9650
	-1   0    0    -1  
$EndComp
$Comp
L GNDD #PWR077
U 1 1 5636DD89
P 1750 10850
F 0 "#PWR077" H 1750 10600 60  0001 C CNN
F 1 "GNDD" H 1750 10700 60  0000 C CNN
F 2 "" H 1750 10850 60  0000 C CNN
F 3 "" H 1750 10850 60  0000 C CNN
	1    1750 10850
	1    0    0    -1  
$EndComp
$Comp
L R R502
U 1 1 5636DD8F
P 1750 10500
F 0 "R502" V 1800 10800 40  0000 C CNN
F 1 "10k" V 1757 10501 40  0000 C CNN
F 2 "MyKiCadLibs-Footprints:SMD-0805" V 1680 10500 30  0001 C CNN
F 3 "~" H 1750 10500 30  0000 C CNN
	1    1750 10500
	1    0    0    -1  
$EndComp
$Comp
L R R501
U 1 1 5636DD96
P 1750 9300
F 0 "R501" V 1800 9600 40  0000 C CNN
F 1 "10k" V 1757 9301 40  0000 C CNN
F 2 "MyKiCadLibs-Footprints:SMD-0805" V 1680 9300 30  0001 C CNN
F 3 "~" H 1750 9300 30  0000 C CNN
	1    1750 9300
	1    0    0    -1  
$EndComp
$Comp
L CONN_3x1 P508
U 1 1 5636DDA3
P 2550 9650
F 0 "P508" V 3035 9445 40  0000 C CNN
F 1 "CONN_3x1" V 2980 9560 40  0000 C CNN
F 2 "MyKiCadLibs-Footprints:CONN_SIL_3" H 2890 9540 60  0001 C CNN
F 3 "" H 2890 9540 60  0000 C CNN
	1    2550 9650
	-1   0    0    -1  
$EndComp
$Comp
L GNDD #PWR078
U 1 1 5636DDAA
P 2600 10850
F 0 "#PWR078" H 2600 10600 60  0001 C CNN
F 1 "GNDD" H 2600 10700 60  0000 C CNN
F 2 "" H 2600 10850 60  0000 C CNN
F 3 "" H 2600 10850 60  0000 C CNN
	1    2600 10850
	1    0    0    -1  
$EndComp
$Comp
L R R510
U 1 1 5636DDB0
P 2600 10500
F 0 "R510" V 2650 10800 40  0000 C CNN
F 1 "10k" V 2607 10501 40  0000 C CNN
F 2 "MyKiCadLibs-Footprints:SMD-0805" V 2530 10500 30  0001 C CNN
F 3 "~" H 2600 10500 30  0000 C CNN
	1    2600 10500
	1    0    0    -1  
$EndComp
$Comp
L R R509
U 1 1 5636DDB7
P 2600 9300
F 0 "R509" V 2650 9600 40  0000 C CNN
F 1 "10k" V 2607 9301 40  0000 C CNN
F 2 "MyKiCadLibs-Footprints:SMD-0805" V 2530 9300 30  0001 C CNN
F 3 "~" H 2600 9300 30  0000 C CNN
	1    2600 9300
	1    0    0    -1  
$EndComp
$Comp
L CONN_3x1 P509
U 1 1 5636DDC4
P 3400 9650
F 0 "P509" V 3885 9445 40  0000 C CNN
F 1 "CONN_3x1" V 3830 9560 40  0000 C CNN
F 2 "MyKiCadLibs-Footprints:CONN_SIL_3" H 3740 9540 60  0001 C CNN
F 3 "" H 3740 9540 60  0000 C CNN
	1    3400 9650
	-1   0    0    -1  
$EndComp
$Comp
L GNDD #PWR079
U 1 1 5636DDCB
P 3450 10850
F 0 "#PWR079" H 3450 10600 60  0001 C CNN
F 1 "GNDD" H 3450 10700 60  0000 C CNN
F 2 "" H 3450 10850 60  0000 C CNN
F 3 "" H 3450 10850 60  0000 C CNN
	1    3450 10850
	1    0    0    -1  
$EndComp
$Comp
L R R512
U 1 1 5636DDD1
P 3450 10500
F 0 "R512" V 3500 10800 40  0000 C CNN
F 1 "10k" V 3457 10501 40  0000 C CNN
F 2 "MyKiCadLibs-Footprints:SMD-0805" V 3380 10500 30  0001 C CNN
F 3 "~" H 3450 10500 30  0000 C CNN
	1    3450 10500
	1    0    0    -1  
$EndComp
$Comp
L R R511
U 1 1 5636DDD8
P 3450 9300
F 0 "R511" V 3500 9600 40  0000 C CNN
F 1 "10k" V 3457 9301 40  0000 C CNN
F 2 "MyKiCadLibs-Footprints:SMD-0805" V 3380 9300 30  0001 C CNN
F 3 "~" H 3450 9300 30  0000 C CNN
	1    3450 9300
	1    0    0    -1  
$EndComp
$Comp
L CONN_3x1 P510
U 1 1 5636DDE5
P 4200 9650
F 0 "P510" V 4685 9445 40  0000 C CNN
F 1 "CONN_3x1" V 4630 9560 40  0000 C CNN
F 2 "MyKiCadLibs-Footprints:CONN_SIL_3" H 4540 9540 60  0001 C CNN
F 3 "" H 4540 9540 60  0000 C CNN
	1    4200 9650
	-1   0    0    -1  
$EndComp
$Comp
L GNDD #PWR080
U 1 1 5636DDEC
P 4250 10850
F 0 "#PWR080" H 4250 10600 60  0001 C CNN
F 1 "GNDD" H 4250 10700 60  0000 C CNN
F 2 "" H 4250 10850 60  0000 C CNN
F 3 "" H 4250 10850 60  0000 C CNN
	1    4250 10850
	1    0    0    -1  
$EndComp
$Comp
L R R514
U 1 1 5636DDF2
P 4250 10500
F 0 "R514" V 4300 10800 40  0000 C CNN
F 1 "10k" V 4257 10501 40  0000 C CNN
F 2 "MyKiCadLibs-Footprints:SMD-0805" V 4180 10500 30  0001 C CNN
F 3 "~" H 4250 10500 30  0000 C CNN
	1    4250 10500
	1    0    0    -1  
$EndComp
$Comp
L R R513
U 1 1 5636DDF9
P 4250 9300
F 0 "R513" V 4300 9600 40  0000 C CNN
F 1 "10k" V 4257 9301 40  0000 C CNN
F 2 "MyKiCadLibs-Footprints:SMD-0805" V 4180 9300 30  0001 C CNN
F 3 "~" H 4250 9300 30  0000 C CNN
	1    4250 9300
	1    0    0    -1  
$EndComp
$Comp
L CONN_2x1 P505
U 1 1 5636DE0B
P 2350 5800
F 0 "P505" V 2850 5750 40  0000 C CNN
F 1 "CONN_2x1" V 2800 5750 40  0000 C CNN
F 2 "MyKiCadLibs-Footprints:CONN_SIL_2" H 2350 5800 60  0001 C CNN
F 3 "" H 2350 5800 60  0000 C CNN
	1    2350 5800
	-1   0    0    -1  
$EndComp
$Comp
L CONN_2x1 P507
U 1 1 5636DE20
P 2350 6950
F 0 "P507" V 2850 6900 40  0000 C CNN
F 1 "CONN_2x1" V 2800 6900 40  0000 C CNN
F 2 "MyKiCadLibs-Footprints:CONN_SIL_2" H 2350 6950 60  0001 C CNN
F 3 "" H 2350 6950 60  0000 C CNN
	1    2350 6950
	-1   0    0    -1  
$EndComp
$Comp
L CONN_2x1 P506
U 1 1 5636DE27
P 2350 6400
F 0 "P506" V 2850 6350 40  0000 C CNN
F 1 "CONN_2x1" V 2800 6350 40  0000 C CNN
F 2 "MyKiCadLibs-Footprints:CONN_SIL_2" H 2350 6400 60  0001 C CNN
F 3 "" H 2350 6400 60  0000 C CNN
	1    2350 6400
	-1   0    0    -1  
$EndComp
$Comp
L CONN_3x1 P511
U 1 1 5636DE2E
P 5050 9650
F 0 "P511" V 5535 9445 40  0000 C CNN
F 1 "CONN_3x1" V 5480 9560 40  0000 C CNN
F 2 "MyKiCadLibs-Footprints:CONN_SIL_3" H 5390 9540 60  0001 C CNN
F 3 "" H 5390 9540 60  0000 C CNN
	1    5050 9650
	-1   0    0    -1  
$EndComp
$Comp
L GNDD #PWR081
U 1 1 5636DE35
P 5100 10850
F 0 "#PWR081" H 5100 10600 60  0001 C CNN
F 1 "GNDD" H 5100 10700 60  0000 C CNN
F 2 "" H 5100 10850 60  0000 C CNN
F 3 "" H 5100 10850 60  0000 C CNN
	1    5100 10850
	1    0    0    -1  
$EndComp
$Comp
L R R518
U 1 1 5636DE3B
P 5100 10500
F 0 "R518" V 5150 10800 40  0000 C CNN
F 1 "10k" V 5107 10501 40  0000 C CNN
F 2 "MyKiCadLibs-Footprints:SMD-0805" V 5030 10500 30  0001 C CNN
F 3 "~" H 5100 10500 30  0000 C CNN
	1    5100 10500
	1    0    0    -1  
$EndComp
$Comp
L R R517
U 1 1 5636DE42
P 5100 9300
F 0 "R517" V 5150 9600 40  0000 C CNN
F 1 "10k" V 5107 9301 40  0000 C CNN
F 2 "MyKiCadLibs-Footprints:SMD-0805" V 5030 9300 30  0001 C CNN
F 3 "~" H 5100 9300 30  0000 C CNN
	1    5100 9300
	1    0    0    -1  
$EndComp
$Comp
L CONN_3x1 P512
U 1 1 5636DE4F
P 5850 9650
F 0 "P512" V 6335 9445 40  0000 C CNN
F 1 "CONN_3x1" V 6280 9560 40  0000 C CNN
F 2 "MyKiCadLibs-Footprints:CONN_SIL_3" H 6190 9540 60  0001 C CNN
F 3 "" H 6190 9540 60  0000 C CNN
	1    5850 9650
	-1   0    0    -1  
$EndComp
$Comp
L GNDD #PWR082
U 1 1 5636DE56
P 5900 10850
F 0 "#PWR082" H 5900 10600 60  0001 C CNN
F 1 "GNDD" H 5900 10700 60  0000 C CNN
F 2 "" H 5900 10850 60  0000 C CNN
F 3 "" H 5900 10850 60  0000 C CNN
	1    5900 10850
	1    0    0    -1  
$EndComp
$Comp
L R R537
U 1 1 5636DE5C
P 5900 10500
F 0 "R537" V 5950 10800 40  0000 C CNN
F 1 "10k" V 5907 10501 40  0000 C CNN
F 2 "MyKiCadLibs-Footprints:SMD-0805" V 5830 10500 30  0001 C CNN
F 3 "~" H 5900 10500 30  0000 C CNN
	1    5900 10500
	1    0    0    -1  
$EndComp
$Comp
L R R536
U 1 1 5636DE63
P 5900 9300
F 0 "R536" V 5950 9600 40  0000 C CNN
F 1 "10k" V 5907 9301 40  0000 C CNN
F 2 "MyKiCadLibs-Footprints:SMD-0805" V 5830 9300 30  0001 C CNN
F 3 "~" H 5900 9300 30  0000 C CNN
	1    5900 9300
	1    0    0    -1  
$EndComp
Wire Wire Line
	14800 8350 14800 8250
Wire Wire Line
	14800 8800 14800 8750
Wire Wire Line
	13850 8800 13850 8750
Wire Wire Line
	15200 8250 15200 8450
Connection ~ 14800 8250
Wire Wire Line
	12100 7750 12850 7750
Wire Wire Line
	12200 8500 12200 8600
Wire Wire Line
	12450 8500 12450 8550
Wire Wire Line
	12450 8550 12200 8550
Connection ~ 12200 8550
Wire Wire Line
	12200 7750 12200 8100
Wire Wire Line
	12450 7750 12450 8100
Connection ~ 12200 7750
Connection ~ 12450 7750
Wire Wire Line
	12800 8000 12800 7900
Wire Wire Line
	12800 7900 12850 7900
Wire Wire Line
	14400 8250 15200 8250
Wire Wire Line
	15400 8350 15200 8350
Connection ~ 15200 8350
Wire Wire Line
	13850 7900 13850 8350
Connection ~ 13850 8250
Wire Wire Line
	15200 8900 15200 8850
Wire Wire Line
	14100 7650 14100 7600
Wire Wire Line
	13850 6900 14500 6900
Wire Wire Line
	13850 6900 13850 7750
Wire Wire Line
	15000 6900 15550 6900
Wire Wire Line
	15550 6900 15550 7000
Wire Wire Line
	15550 7450 15550 7400
Wire Wire Line
	13850 8250 13900 8250
Wire Wire Line
	13800 7900 13850 7900
Wire Wire Line
	14100 7200 14100 6900
Connection ~ 14100 6900
Wire Wire Line
	13850 7750 13800 7750
Wire Wire Line
	14400 7100 14400 6900
Connection ~ 14400 6900
Wire Wire Line
	14400 7650 14400 7600
Wire Wire Line
	11500 7650 11500 7750
Wire Wire Line
	11500 7750 11600 7750
Wire Wire Line
	1500 5650 2400 5650
Wire Wire Line
	1750 8950 1750 9050
Wire Wire Line
	1750 9550 1750 9650
Wire Wire Line
	1750 9650 1700 9650
Wire Wire Line
	1700 9850 1750 9850
Wire Wire Line
	1750 9850 1750 10250
Wire Wire Line
	1750 10750 1750 10850
Wire Wire Line
	1700 9750 1950 9750
Wire Wire Line
	2600 8950 2600 9050
Wire Wire Line
	2600 9550 2600 9650
Wire Wire Line
	2600 9650 2550 9650
Wire Wire Line
	2550 9850 2600 9850
Wire Wire Line
	2600 9850 2600 10250
Wire Wire Line
	2600 10750 2600 10850
Wire Wire Line
	2550 9750 2800 9750
Wire Wire Line
	3450 8950 3450 9050
Wire Wire Line
	3450 9550 3450 9650
Wire Wire Line
	3450 9650 3400 9650
Wire Wire Line
	3400 9850 3450 9850
Wire Wire Line
	3450 9850 3450 10250
Wire Wire Line
	3450 10750 3450 10850
Wire Wire Line
	3400 9750 3650 9750
Wire Wire Line
	4250 8950 4250 9050
Wire Wire Line
	4250 9550 4250 9650
Wire Wire Line
	4250 9650 4200 9650
Wire Wire Line
	4200 9850 4250 9850
Wire Wire Line
	4250 9850 4250 10250
Wire Wire Line
	4250 10750 4250 10850
Wire Wire Line
	4200 9750 4450 9750
Wire Wire Line
	2400 5650 2400 5800
Wire Wire Line
	2400 5800 2350 5800
Wire Wire Line
	2950 5900 2350 5900
Wire Wire Line
	1950 9750 1950 9000
Wire Wire Line
	2800 9750 2800 9000
Wire Wire Line
	3650 9750 3650 9000
Wire Wire Line
	4450 9750 4450 9000
Wire Wire Line
	1500 6250 2400 6250
Wire Wire Line
	1500 6800 2400 6800
Wire Wire Line
	2400 6800 2400 6950
Wire Wire Line
	2400 6950 2350 6950
Wire Wire Line
	3150 7050 2350 7050
Wire Wire Line
	2400 6250 2400 6400
Wire Wire Line
	2400 6400 2350 6400
Wire Wire Line
	3150 6500 2350 6500
Wire Wire Line
	5100 8950 5100 9050
Wire Wire Line
	5100 9550 5100 9650
Wire Wire Line
	5100 9650 5050 9650
Wire Wire Line
	5050 9850 5100 9850
Wire Wire Line
	5100 9850 5100 10250
Wire Wire Line
	5100 10750 5100 10850
Wire Wire Line
	5050 9750 5300 9750
Wire Wire Line
	5900 8950 5900 9050
Wire Wire Line
	5900 9550 5900 9650
Wire Wire Line
	5900 9650 5850 9650
Wire Wire Line
	5850 9850 5900 9850
Wire Wire Line
	5900 9850 5900 10250
Wire Wire Line
	5900 10750 5900 10850
Wire Wire Line
	5850 9750 6100 9750
Wire Wire Line
	5300 9750 5300 9000
Wire Wire Line
	6100 9750 6100 9000
Text Label 3850 4500 0    60   ~ 0
SSLOW/WCK
Text Label 2950 5900 2    60   ~ 0
SMUTE/CS
Text Label 3150 6500 2    60   ~ 0
SLOW/CDTI/SDA
Text Label 3150 7050 2    60   ~ 0
SD/CCLK/SCL
$Comp
L VDD #PWR083
U 1 1 5637D272
P 1750 8950
F 0 "#PWR083" H 1750 8800 50  0001 C CNN
F 1 "VDD" H 1750 9100 50  0000 C CNN
F 2 "" H 1750 8950 60  0000 C CNN
F 3 "" H 1750 8950 60  0000 C CNN
	1    1750 8950
	1    0    0    -1  
$EndComp
Text Label 1950 9000 3    60   ~ 0
SSLOW/WCK
Text Label 2800 9000 3    60   ~ 0
SMUTE/CS
Text Label 3650 9000 3    60   ~ 0
SD/CCLK/SCL
Text Label 4450 9000 3    60   ~ 0
SLOW/CDTI/SDA
Text Label 5300 9000 3    60   ~ 0
DIF0/DZFL1
Text Label 6100 9000 3    60   ~ 0
DIF1/DZFR1
$Comp
L VDD #PWR084
U 1 1 56380B45
P 2600 8950
F 0 "#PWR084" H 2600 8800 50  0001 C CNN
F 1 "VDD" H 2600 9100 50  0000 C CNN
F 2 "" H 2600 8950 60  0000 C CNN
F 3 "" H 2600 8950 60  0000 C CNN
	1    2600 8950
	1    0    0    -1  
$EndComp
$Comp
L VDD #PWR085
U 1 1 56380CC4
P 3450 8950
F 0 "#PWR085" H 3450 8800 50  0001 C CNN
F 1 "VDD" H 3450 9100 50  0000 C CNN
F 2 "" H 3450 8950 60  0000 C CNN
F 3 "" H 3450 8950 60  0000 C CNN
	1    3450 8950
	1    0    0    -1  
$EndComp
$Comp
L VDD #PWR086
U 1 1 56380E43
P 4250 8950
F 0 "#PWR086" H 4250 8800 50  0001 C CNN
F 1 "VDD" H 4250 9100 50  0000 C CNN
F 2 "" H 4250 8950 60  0000 C CNN
F 3 "" H 4250 8950 60  0000 C CNN
	1    4250 8950
	1    0    0    -1  
$EndComp
$Comp
L VDD #PWR087
U 1 1 56380FC2
P 5100 8950
F 0 "#PWR087" H 5100 8800 50  0001 C CNN
F 1 "VDD" H 5100 9100 50  0000 C CNN
F 2 "" H 5100 8950 60  0000 C CNN
F 3 "" H 5100 8950 60  0000 C CNN
	1    5100 8950
	1    0    0    -1  
$EndComp
$Comp
L VDD #PWR088
U 1 1 56381141
P 5900 8950
F 0 "#PWR088" H 5900 8800 50  0001 C CNN
F 1 "VDD" H 5900 9100 50  0000 C CNN
F 2 "" H 5900 8950 60  0000 C CNN
F 3 "" H 5900 8950 60  0000 C CNN
	1    5900 8950
	1    0    0    -1  
$EndComp
$Comp
L CONN_3x1 P513
U 1 1 56381E7A
P 6700 9650
F 0 "P513" V 7185 9445 40  0000 C CNN
F 1 "CONN_3x1" V 7130 9560 40  0000 C CNN
F 2 "MyKiCadLibs-Footprints:CONN_SIL_3" H 7040 9540 60  0001 C CNN
F 3 "" H 7040 9540 60  0000 C CNN
	1    6700 9650
	-1   0    0    -1  
$EndComp
$Comp
L GNDD #PWR089
U 1 1 56381E80
P 6750 10850
F 0 "#PWR089" H 6750 10600 60  0001 C CNN
F 1 "GNDD" H 6750 10700 60  0000 C CNN
F 2 "" H 6750 10850 60  0000 C CNN
F 3 "" H 6750 10850 60  0000 C CNN
	1    6750 10850
	1    0    0    -1  
$EndComp
$Comp
L R R539
U 1 1 56381E86
P 6750 10500
F 0 "R539" V 6800 10800 40  0000 C CNN
F 1 "10k" V 6757 10501 40  0000 C CNN
F 2 "MyKiCadLibs-Footprints:SMD-0805" V 6680 10500 30  0001 C CNN
F 3 "~" H 6750 10500 30  0000 C CNN
	1    6750 10500
	1    0    0    -1  
$EndComp
$Comp
L R R538
U 1 1 56381E8C
P 6750 9300
F 0 "R538" V 6800 9600 40  0000 C CNN
F 1 "10k" V 6757 9301 40  0000 C CNN
F 2 "MyKiCadLibs-Footprints:SMD-0805" V 6680 9300 30  0001 C CNN
F 3 "~" H 6750 9300 30  0000 C CNN
	1    6750 9300
	1    0    0    -1  
$EndComp
$Comp
L CONN_3x1 P514
U 1 1 56381E92
P 7550 9650
F 0 "P514" V 8035 9445 40  0000 C CNN
F 1 "CONN_3x1" V 7980 9560 40  0000 C CNN
F 2 "MyKiCadLibs-Footprints:CONN_SIL_3" H 7890 9540 60  0001 C CNN
F 3 "" H 7890 9540 60  0000 C CNN
	1    7550 9650
	-1   0    0    -1  
$EndComp
$Comp
L GNDD #PWR090
U 1 1 56381E98
P 7600 10850
F 0 "#PWR090" H 7600 10600 60  0001 C CNN
F 1 "GNDD" H 7600 10700 60  0000 C CNN
F 2 "" H 7600 10850 60  0000 C CNN
F 3 "" H 7600 10850 60  0000 C CNN
	1    7600 10850
	1    0    0    -1  
$EndComp
$Comp
L R R541
U 1 1 56381E9E
P 7600 10500
F 0 "R541" V 7650 10800 40  0000 C CNN
F 1 "0R" V 7607 10501 40  0000 C CNN
F 2 "MyKiCadLibs-Footprints:SMD-0805" V 7530 10500 30  0001 C CNN
F 3 "~" H 7600 10500 30  0000 C CNN
	1    7600 10500
	1    0    0    -1  
$EndComp
$Comp
L R R540
U 1 1 56381EA4
P 7600 9300
F 0 "R540" V 7650 9600 40  0000 C CNN
F 1 "10k" V 7607 9301 40  0000 C CNN
F 2 "MyKiCadLibs-Footprints:SMD-0805" V 7530 9300 30  0001 C CNN
F 3 "~" H 7600 9300 30  0000 C CNN
	1    7600 9300
	1    0    0    -1  
$EndComp
$Comp
L CONN_3x1 P515
U 1 1 56381EAA
P 8400 9650
F 0 "P515" V 8885 9445 40  0000 C CNN
F 1 "CONN_3x1" V 8830 9560 40  0000 C CNN
F 2 "MyKiCadLibs-Footprints:CONN_SIL_3" H 8740 9540 60  0001 C CNN
F 3 "" H 8740 9540 60  0000 C CNN
	1    8400 9650
	-1   0    0    -1  
$EndComp
$Comp
L GNDD #PWR091
U 1 1 56381EB0
P 8450 10850
F 0 "#PWR091" H 8450 10600 60  0001 C CNN
F 1 "GNDD" H 8450 10700 60  0000 C CNN
F 2 "" H 8450 10850 60  0000 C CNN
F 3 "" H 8450 10850 60  0000 C CNN
	1    8450 10850
	1    0    0    -1  
$EndComp
$Comp
L R R543
U 1 1 56381EB6
P 8450 10500
F 0 "R543" V 8500 10800 40  0000 C CNN
F 1 "10k" V 8457 10501 40  0000 C CNN
F 2 "MyKiCadLibs-Footprints:SMD-0805" V 8380 10500 30  0001 C CNN
F 3 "~" H 8450 10500 30  0000 C CNN
	1    8450 10500
	1    0    0    -1  
$EndComp
$Comp
L R R542
U 1 1 56381EBC
P 8450 9300
F 0 "R542" V 8500 9600 40  0000 C CNN
F 1 "0R" V 8457 9301 40  0000 C CNN
F 2 "MyKiCadLibs-Footprints:SMD-0805" V 8380 9300 30  0001 C CNN
F 3 "~" H 8450 9300 30  0000 C CNN
	1    8450 9300
	1    0    0    -1  
$EndComp
$Comp
L CONN_3x1 P516
U 1 1 56381EC2
P 9200 9650
F 0 "P516" V 9685 9445 40  0000 C CNN
F 1 "CONN_3x1" V 9630 9560 40  0000 C CNN
F 2 "MyKiCadLibs-Footprints:CONN_SIL_3" H 9540 9540 60  0001 C CNN
F 3 "" H 9540 9540 60  0000 C CNN
	1    9200 9650
	-1   0    0    -1  
$EndComp
$Comp
L GNDD #PWR092
U 1 1 56381EC8
P 9250 10850
F 0 "#PWR092" H 9250 10600 60  0001 C CNN
F 1 "GNDD" H 9250 10700 60  0000 C CNN
F 2 "" H 9250 10850 60  0000 C CNN
F 3 "" H 9250 10850 60  0000 C CNN
	1    9250 10850
	1    0    0    -1  
$EndComp
$Comp
L R R551
U 1 1 56381ECE
P 9250 10500
F 0 "R551" V 9300 10800 40  0000 C CNN
F 1 "0R" V 9257 10501 40  0000 C CNN
F 2 "MyKiCadLibs-Footprints:SMD-0805" V 9180 10500 30  0001 C CNN
F 3 "~" H 9250 10500 30  0000 C CNN
	1    9250 10500
	1    0    0    -1  
$EndComp
$Comp
L R R550
U 1 1 56381ED4
P 9250 9300
F 0 "R550" V 9300 9600 40  0000 C CNN
F 1 "10k" V 9257 9301 40  0000 C CNN
F 2 "MyKiCadLibs-Footprints:SMD-0805" V 9180 9300 30  0001 C CNN
F 3 "~" H 9250 9300 30  0000 C CNN
	1    9250 9300
	1    0    0    -1  
$EndComp
$Comp
L CONN_3x1 P517
U 1 1 56381EDA
P 10050 9650
F 0 "P517" V 10535 9445 40  0000 C CNN
F 1 "CONN_3x1" V 10480 9560 40  0000 C CNN
F 2 "MyKiCadLibs-Footprints:CONN_SIL_3" H 10390 9540 60  0001 C CNN
F 3 "" H 10390 9540 60  0000 C CNN
	1    10050 9650
	-1   0    0    -1  
$EndComp
$Comp
L GNDD #PWR093
U 1 1 56381EE0
P 10100 10850
F 0 "#PWR093" H 10100 10600 60  0001 C CNN
F 1 "GNDD" H 10100 10700 60  0000 C CNN
F 2 "" H 10100 10850 60  0000 C CNN
F 3 "" H 10100 10850 60  0000 C CNN
	1    10100 10850
	1    0    0    -1  
$EndComp
$Comp
L R R555
U 1 1 56381EE6
P 10100 10500
F 0 "R555" V 10150 10800 40  0000 C CNN
F 1 "10k" V 10107 10501 40  0000 C CNN
F 2 "MyKiCadLibs-Footprints:SMD-0805" V 10030 10500 30  0001 C CNN
F 3 "~" H 10100 10500 30  0000 C CNN
	1    10100 10500
	1    0    0    -1  
$EndComp
$Comp
L R R554
U 1 1 56381EEC
P 10100 9300
F 0 "R554" V 10150 9600 40  0000 C CNN
F 1 "0R" V 10107 9301 40  0000 C CNN
F 2 "MyKiCadLibs-Footprints:SMD-0805" V 10030 9300 30  0001 C CNN
F 3 "~" H 10100 9300 30  0000 C CNN
	1    10100 9300
	1    0    0    -1  
$EndComp
$Comp
L CONN_3x1 P518
U 1 1 56381EF2
P 10850 9650
F 0 "P518" V 11335 9445 40  0000 C CNN
F 1 "CONN_3x1" V 11280 9560 40  0000 C CNN
F 2 "MyKiCadLibs-Footprints:CONN_SIL_3" H 11190 9540 60  0001 C CNN
F 3 "" H 11190 9540 60  0000 C CNN
	1    10850 9650
	-1   0    0    -1  
$EndComp
$Comp
L GNDD #PWR094
U 1 1 56381EF8
P 10900 10850
F 0 "#PWR094" H 10900 10600 60  0001 C CNN
F 1 "GNDD" H 10900 10700 60  0000 C CNN
F 2 "" H 10900 10850 60  0000 C CNN
F 3 "" H 10900 10850 60  0000 C CNN
	1    10900 10850
	1    0    0    -1  
$EndComp
$Comp
L R R557
U 1 1 56381EFE
P 10900 10500
F 0 "R557" V 10950 10800 40  0000 C CNN
F 1 "10k" V 10907 10501 40  0000 C CNN
F 2 "MyKiCadLibs-Footprints:SMD-0805" V 10830 10500 30  0001 C CNN
F 3 "~" H 10900 10500 30  0000 C CNN
	1    10900 10500
	1    0    0    -1  
$EndComp
$Comp
L R R556
U 1 1 56381F04
P 10900 9300
F 0 "R556" V 10950 9600 40  0000 C CNN
F 1 "0R" V 10907 9301 40  0000 C CNN
F 2 "MyKiCadLibs-Footprints:SMD-0805" V 10830 9300 30  0001 C CNN
F 3 "~" H 10900 9300 30  0000 C CNN
	1    10900 9300
	1    0    0    -1  
$EndComp
Wire Wire Line
	6750 8950 6750 9050
Wire Wire Line
	6750 9550 6750 9650
Wire Wire Line
	6750 9650 6700 9650
Wire Wire Line
	6700 9850 6750 9850
Wire Wire Line
	6750 9850 6750 10250
Wire Wire Line
	6750 10750 6750 10850
Wire Wire Line
	6700 9750 6950 9750
Wire Wire Line
	7600 8950 7600 9050
Wire Wire Line
	7600 9550 7600 9650
Wire Wire Line
	7600 9650 7550 9650
Wire Wire Line
	7550 9850 7600 9850
Wire Wire Line
	7600 9850 7600 10250
Wire Wire Line
	7600 10750 7600 10850
Wire Wire Line
	7550 9750 7800 9750
Wire Wire Line
	8450 8950 8450 9050
Wire Wire Line
	8450 9550 8450 9650
Wire Wire Line
	8450 9650 8400 9650
Wire Wire Line
	8400 9850 8450 9850
Wire Wire Line
	8450 9850 8450 10250
Wire Wire Line
	8450 10750 8450 10850
Wire Wire Line
	8400 9750 8650 9750
Wire Wire Line
	9250 8950 9250 9050
Wire Wire Line
	9250 9550 9250 9650
Wire Wire Line
	9250 9650 9200 9650
Wire Wire Line
	9200 9850 9250 9850
Wire Wire Line
	9250 9850 9250 10250
Wire Wire Line
	9250 10750 9250 10850
Wire Wire Line
	9200 9750 9450 9750
Wire Wire Line
	6950 9750 6950 9000
Wire Wire Line
	7800 9750 7800 9000
Wire Wire Line
	8650 9750 8650 9000
Wire Wire Line
	9450 9750 9450 9000
Wire Wire Line
	10100 8950 10100 9050
Wire Wire Line
	10100 9550 10100 9650
Wire Wire Line
	10100 9650 10050 9650
Wire Wire Line
	10050 9850 10100 9850
Wire Wire Line
	10100 9850 10100 10250
Wire Wire Line
	10100 10750 10100 10850
Wire Wire Line
	10050 9750 10300 9750
Wire Wire Line
	10900 8950 10900 9050
Wire Wire Line
	10900 9550 10900 9650
Wire Wire Line
	10900 9650 10850 9650
Wire Wire Line
	10850 9850 10900 9850
Wire Wire Line
	10900 9850 10900 10250
Wire Wire Line
	10900 10750 10900 10850
Wire Wire Line
	10850 9750 11100 9750
Wire Wire Line
	10300 9750 10300 9000
Wire Wire Line
	11100 9750 11100 9000
$Comp
L VDD #PWR095
U 1 1 56381F3A
P 6750 8950
F 0 "#PWR095" H 6750 8800 50  0001 C CNN
F 1 "VDD" H 6750 9100 50  0000 C CNN
F 2 "" H 6750 8950 60  0000 C CNN
F 3 "" H 6750 8950 60  0000 C CNN
	1    6750 8950
	1    0    0    -1  
$EndComp
$Comp
L VDD #PWR096
U 1 1 56381F46
P 7600 8950
F 0 "#PWR096" H 7600 8800 50  0001 C CNN
F 1 "VDD" H 7600 9100 50  0000 C CNN
F 2 "" H 7600 8950 60  0000 C CNN
F 3 "" H 7600 8950 60  0000 C CNN
	1    7600 8950
	1    0    0    -1  
$EndComp
$Comp
L VDD #PWR097
U 1 1 56381F4C
P 8450 8950
F 0 "#PWR097" H 8450 8800 50  0001 C CNN
F 1 "VDD" H 8450 9100 50  0000 C CNN
F 2 "" H 8450 8950 60  0000 C CNN
F 3 "" H 8450 8950 60  0000 C CNN
	1    8450 8950
	1    0    0    -1  
$EndComp
$Comp
L VDD #PWR098
U 1 1 56381F52
P 9250 8950
F 0 "#PWR098" H 9250 8800 50  0001 C CNN
F 1 "VDD" H 9250 9100 50  0000 C CNN
F 2 "" H 9250 8950 60  0000 C CNN
F 3 "" H 9250 8950 60  0000 C CNN
	1    9250 8950
	1    0    0    -1  
$EndComp
$Comp
L VDD #PWR099
U 1 1 56381F58
P 10100 8950
F 0 "#PWR099" H 10100 8800 50  0001 C CNN
F 1 "VDD" H 10100 9100 50  0000 C CNN
F 2 "" H 10100 8950 60  0000 C CNN
F 3 "" H 10100 8950 60  0000 C CNN
	1    10100 8950
	1    0    0    -1  
$EndComp
$Comp
L VDD #PWR0100
U 1 1 56381F5E
P 10900 8950
F 0 "#PWR0100" H 10900 8800 50  0001 C CNN
F 1 "VDD" H 10900 9100 50  0000 C CNN
F 2 "" H 10900 8950 60  0000 C CNN
F 3 "" H 10900 8950 60  0000 C CNN
	1    10900 8950
	1    0    0    -1  
$EndComp
Text Label 6950 9000 3    60   ~ 0
DIF2/CAD0
Text Label 7800 9000 3    60   ~ 0
PSN
Text Label 8650 9000 3    60   ~ 0
I2C
Text Label 9450 9000 3    60   ~ 0
DEM0
Text Label 10300 9000 3    60   ~ 0
DEM1
Text Label 11100 9000 3    60   ~ 0
ACKS/CAD1
$Comp
L VDD #PWR0101
U 1 1 5636DD54
P 11500 7650
F 0 "#PWR0101" H 11500 7500 60  0001 C CNN
F 1 "VDD" H 11500 7800 60  0000 C CNN
F 2 "" H 11500 7650 60  0000 C CNN
F 3 "" H 11500 7650 60  0000 C CNN
	1    11500 7650
	1    0    0    -1  
$EndComp
Text Label 3850 4400 0    60   ~ 0
DAC_RESET
Text Notes 11850 10550 0    59   ~ 0
Copyright Paul Janicki 2015\n\nLicensed under the TAPR Open Hardware License (www.tapr.org/OHL).\n\nThis documentation is distributed\nWITHOUT ANY EXPRESS OR IMPLIED WARRANTY, INCLUDING OF\nMERCHANTABILITY, SATISFACTORY QUALITY AND FITNESS FOR A\nPARTICULAR PURPOSE.\n
$Comp
L C C507
U 1 1 5633B34D
P 5650 1550
F 0 "C507" H 5650 1650 40  0000 L CNN
F 1 "10u" H 5656 1465 40  0000 L CNN
F 2 "MyKiCadLibs-Footprints:SMD-0805" H 5688 1400 30  0001 C CNN
F 3 "" H 5650 1550 60  0000 C CNN
	1    5650 1550
	-1   0    0    1   
$EndComp
$Comp
L C C508
U 1 1 5633BE60
P 5650 2700
F 0 "C508" H 5650 2800 40  0000 L CNN
F 1 "10u" H 5656 2615 40  0000 L CNN
F 2 "MyKiCadLibs-Footprints:SMD-0805" H 5688 2550 30  0001 C CNN
F 3 "" H 5650 2700 60  0000 C CNN
	1    5650 2700
	-1   0    0    1   
$EndComp
$EndSCHEMATC
