EESchema Schematic File Version 2
LIBS:power
LIBS:MyKiCadLibs-Lib
EELAYER 25 0
EELAYER END
$Descr A3 16535 11693
encoding utf-8
Sheet 4 5
Title ""
Date ""
Rev ""
Comp ""
Comment1 ""
Comment2 ""
Comment3 ""
Comment4 ""
$EndDescr
$Comp
L GNDA #PWR021
U 1 1 56313D88
P 5050 3400
F 0 "#PWR021" H 5050 3150 50  0001 C CNN
F 1 "GNDA" H 5050 3250 50  0000 C CNN
F 2 "" H 5050 3400 60  0000 C CNN
F 3 "" H 5050 3400 60  0000 C CNN
	1    5050 3400
	1    0    0    -1  
$EndComp
$Comp
L R R401
U 1 1 56313DAB
P 1750 2300
F 0 "R401" V 1670 2300 40  0000 C CNN
F 1 "1k5" V 1757 2301 40  0000 C CNN
F 2 "MyKiCadLibs-Footprints:SMD-1206" V 1680 2300 30  0001 C CNN
F 3 "" H 1750 2300 30  0000 C CNN
	1    1750 2300
	0    -1   -1   0   
$EndComp
$Comp
L C C401
U 1 1 5631450B
P 2050 3050
F 0 "C401" H 2050 3150 40  0000 L CNN
F 1 "2n2" H 2056 2965 40  0000 L CNN
F 2 "MyKiCadLibs-Footprints:SMD-1206" H 2088 2900 30  0001 C CNN
F 3 "" H 2050 3050 60  0000 C CNN
	1    2050 3050
	-1   0    0    1   
$EndComp
Text HLabel 1400 2300 0    60   Input ~ 0
P1
Text HLabel 1400 4050 0    60   Input ~ 0
N1
$Comp
L R R447
U 1 1 56315C7C
P 15350 900
F 0 "R447" V 15270 900 40  0000 C CNN
F 1 "1" V 15357 901 40  0000 C CNN
F 2 "MyKiCadLibs-Footprints:SMD-0805" V 15280 900 30  0001 C CNN
F 3 "" H 15350 900 30  0000 C CNN
	1    15350 900 
	0    1    1    0   
$EndComp
$Comp
L R R452
U 1 1 56315D11
P 15400 2450
F 0 "R452" V 15320 2450 40  0000 C CNN
F 1 "1" V 15407 2451 40  0000 C CNN
F 2 "MyKiCadLibs-Footprints:SMD-0805" V 15330 2450 30  0001 C CNN
F 3 "" H 15400 2450 30  0000 C CNN
	1    15400 2450
	0    1    1    0   
$EndComp
$Comp
L C C454
U 1 1 56315EC9
P 15350 1850
F 0 "C454" H 15350 1950 40  0000 L CNN
F 1 "100p" H 15356 1765 40  0000 L CNN
F 2 "MyKiCadLibs-Footprints:SMD-0805" H 15388 1700 30  0001 C CNN
F 3 "" H 15350 1850 60  0000 C CNN
	1    15350 1850
	0    -1   -1   0   
$EndComp
$Comp
L R R451
U 1 1 56315FAB
P 15400 2250
F 0 "R451" V 15320 2250 40  0000 C CNN
F 1 "47" V 15407 2251 40  0000 C CNN
F 2 "MyKiCadLibs-Footprints:SMD-0805" V 15330 2250 30  0001 C CNN
F 3 "" H 15400 2250 30  0000 C CNN
	1    15400 2250
	0    1    1    0   
$EndComp
$Comp
L VEE #PWR022
U 1 1 563162A2
P 15750 2500
F 0 "#PWR022" H 15750 2350 50  0001 C CNN
F 1 "VEE" H 15750 2650 50  0000 C CNN
F 2 "" H 15750 2500 60  0000 C CNN
F 3 "" H 15750 2500 60  0000 C CNN
	1    15750 2500
	-1   0    0    1   
$EndComp
$Comp
L VCC #PWR023
U 1 1 563162D6
P 15650 850
F 0 "#PWR023" H 15650 700 50  0001 C CNN
F 1 "VCC" H 15650 1000 50  0000 C CNN
F 2 "" H 15650 850 60  0000 C CNN
F 3 "" H 15650 850 60  0000 C CNN
	1    15650 850 
	1    0    0    -1  
$EndComp
$Comp
L C C423
U 1 1 56316E04
P 6350 1650
F 0 "C423" H 6350 1750 40  0000 L CNN
F 1 "100n" H 6356 1565 40  0000 L CNN
F 2 "MyKiCadLibs-Footprints:SMD-0805" H 6388 1500 30  0001 C CNN
F 3 "" H 6350 1650 60  0000 C CNN
	1    6350 1650
	-1   0    0    1   
$EndComp
$Comp
L C C421
U 1 1 56316E6D
P 6100 1650
F 0 "C421" H 6100 1750 40  0000 L CNN
F 1 "1n" H 6106 1565 40  0000 L CNN
F 2 "MyKiCadLibs-Footprints:SMD-0805" H 6138 1500 30  0001 C CNN
F 3 "" H 6100 1650 60  0000 C CNN
	1    6100 1650
	-1   0    0    1   
$EndComp
$Comp
L GNDA #PWR024
U 1 1 5631750C
P 14900 1900
F 0 "#PWR024" H 14900 1650 50  0001 C CNN
F 1 "GNDA" H 14900 1750 50  0000 C CNN
F 2 "" H 14900 1900 60  0000 C CNN
F 3 "" H 14900 1900 60  0000 C CNN
	1    14900 1900
	1    0    0    -1  
$EndComp
$Comp
L R R448
U 1 1 563175A6
P 15350 1100
F 0 "R448" V 15270 1100 40  0000 C CNN
F 1 "47" V 15357 1101 40  0000 C CNN
F 2 "MyKiCadLibs-Footprints:SMD-0805" V 15280 1100 30  0001 C CNN
F 3 "" H 15350 1100 30  0000 C CNN
	1    15350 1100
	0    1    1    0   
$EndComp
$Comp
L C C453
U 1 1 56317703
P 15350 1350
F 0 "C453" H 15350 1450 40  0000 L CNN
F 1 "100p" H 15356 1265 40  0000 L CNN
F 2 "MyKiCadLibs-Footprints:SMD-0805" H 15388 1200 30  0001 C CNN
F 3 "" H 15350 1350 60  0000 C CNN
	1    15350 1350
	0    -1   -1   0   
$EndComp
$Comp
L GNDA #PWR025
U 1 1 56317775
P 15050 1450
F 0 "#PWR025" H 15050 1200 50  0001 C CNN
F 1 "GNDA" H 15050 1300 50  0000 C CNN
F 2 "" H 15050 1450 60  0000 C CNN
F 3 "" H 15050 1450 60  0000 C CNN
	1    15050 1450
	1    0    0    -1  
$EndComp
$Comp
L C C450
U 1 1 56317ABE
P 14800 1200
F 0 "C450" H 14800 1300 40  0000 L CNN
F 1 "100n" H 14806 1115 40  0000 L CNN
F 2 "MyKiCadLibs-Footprints:SMD-0805" H 14838 1050 30  0001 C CNN
F 3 "" H 14800 1200 60  0000 C CNN
	1    14800 1200
	-1   0    0    1   
$EndComp
$Comp
L C C446
U 1 1 56317B43
P 14500 1200
F 0 "C446" H 14500 1300 40  0000 L CNN
F 1 "1n" H 14506 1115 40  0000 L CNN
F 2 "MyKiCadLibs-Footprints:SMD-0805" H 14538 1050 30  0001 C CNN
F 3 "" H 14500 1200 60  0000 C CNN
	1    14500 1200
	-1   0    0    1   
$EndComp
$Comp
L GNDA #PWR026
U 1 1 56317C7D
P 14800 1450
F 0 "#PWR026" H 14800 1200 50  0001 C CNN
F 1 "GNDA" H 14800 1300 50  0000 C CNN
F 2 "" H 14800 1450 60  0000 C CNN
F 3 "" H 14800 1450 60  0000 C CNN
	1    14800 1450
	1    0    0    -1  
$EndComp
$Comp
L GNDA #PWR027
U 1 1 56317D3A
P 14500 1450
F 0 "#PWR027" H 14500 1200 50  0001 C CNN
F 1 "GNDA" H 14500 1300 50  0000 C CNN
F 2 "" H 14500 1450 60  0000 C CNN
F 3 "" H 14500 1450 60  0000 C CNN
	1    14500 1450
	1    0    0    -1  
$EndComp
$Comp
L CP1 C442
U 1 1 56317E37
P 14100 1200
F 0 "C442" H 14150 1300 50  0000 L CNN
F 1 "100u" H 14150 1100 50  0000 L CNN
F 2 "MyKiCadLibs-Footprints:CAP-TH-D10mmP5mm" H 14100 1200 60  0001 C CNN
F 3 "" H 14100 1200 60  0000 C CNN
	1    14100 1200
	1    0    0    -1  
$EndComp
$Comp
L GNDA #PWR028
U 1 1 56317FFD
P 14100 1450
F 0 "#PWR028" H 14100 1200 50  0001 C CNN
F 1 "GNDA" H 14100 1300 50  0000 C CNN
F 2 "" H 14100 1450 60  0000 C CNN
F 3 "" H 14100 1450 60  0000 C CNN
	1    14100 1450
	1    0    0    -1  
$EndComp
$Comp
L C C448
U 1 1 5631838C
P 14700 2150
F 0 "C448" H 14700 2250 40  0000 L CNN
F 1 "100n" H 14706 2065 40  0000 L CNN
F 2 "MyKiCadLibs-Footprints:SMD-0805" H 14738 2000 30  0001 C CNN
F 3 "" H 14700 2150 60  0000 C CNN
	1    14700 2150
	-1   0    0    1   
$EndComp
$Comp
L C C444
U 1 1 56318392
P 14400 2150
F 0 "C444" H 14400 2250 40  0000 L CNN
F 1 "1n" H 14406 2065 40  0000 L CNN
F 2 "MyKiCadLibs-Footprints:SMD-0805" H 14438 2000 30  0001 C CNN
F 3 "" H 14400 2150 60  0000 C CNN
	1    14400 2150
	-1   0    0    1   
$EndComp
$Comp
L CP1 C440
U 1 1 5631839C
P 14050 2150
F 0 "C440" H 14100 2250 50  0000 L CNN
F 1 "100u" H 14100 2050 50  0000 L CNN
F 2 "MyKiCadLibs-Footprints:CAP-TH-D10mmP5mm" H 14050 2150 60  0001 C CNN
F 3 "" H 14050 2150 60  0000 C CNN
	1    14050 2150
	1    0    0    -1  
$EndComp
$Comp
L C C419
U 1 1 563195BA
P 5850 1650
F 0 "C419" H 5850 1750 40  0000 L CNN
F 1 "10u" H 5856 1565 40  0000 L CNN
F 2 "MyKiCadLibs-Footprints:SMD-0805" H 5888 1500 30  0001 C CNN
F 3 "" H 5850 1650 60  0000 C CNN
	1    5850 1650
	-1   0    0    1   
$EndComp
Text HLabel 1400 6200 0    60   Input ~ 0
P2
Text HLabel 1400 7950 0    60   Input ~ 0
N2
$Comp
L CONN_2x1 P401
U 1 1 5633D229
P 10750 3300
F 0 "P401" V 11245 3145 40  0000 C CNN
F 1 "CONN_2x1" V 11190 3260 40  0000 C CNN
F 2 "MyKiCadLibs-Footprints:CONN_SIL_2" H 11090 3190 60  0001 C CNN
F 3 "" H 11090 3190 60  0000 C CNN
	1    10750 3300
	1    0    0    -1  
$EndComp
$Comp
L R R402
U 1 1 56348F5D
P 1750 4050
F 0 "R402" V 1670 4050 40  0000 C CNN
F 1 "1k5" V 1757 4051 40  0000 C CNN
F 2 "MyKiCadLibs-Footprints:SMD-1206" V 1680 4050 30  0001 C CNN
F 3 "" H 1750 4050 30  0000 C CNN
	1    1750 4050
	0    -1   -1   0   
$EndComp
$Comp
L CP1 C403
U 1 1 563490F5
P 3050 2300
F 0 "C403" H 3100 2400 50  0000 L CNN
F 1 "100u" H 3100 2200 50  0000 L CNN
F 2 "MyKiCadLibs-Footprints:CAP-TH-D10mmP5mm" H 3050 2300 60  0001 C CNN
F 3 "" H 3050 2300 60  0000 C CNN
	1    3050 2300
	0    1    1    0   
$EndComp
$Comp
L C C404
U 1 1 5634941C
P 3050 2650
F 0 "C404" H 3050 2750 40  0000 L CNN
F 1 "100n" H 3056 2565 40  0000 L CNN
F 2 "MyKiCadLibs-Footprints:SMD-1210" H 3088 2500 30  0000 C CNN
F 3 "" H 3050 2650 60  0000 C CNN
	1    3050 2650
	0    -1   -1   0   
$EndComp
$Comp
L R R405
U 1 1 56349ACD
P 2400 2300
F 0 "R405" V 2320 2300 40  0000 C CNN
F 1 "100R" V 2407 2301 40  0000 C CNN
F 2 "MyKiCadLibs-Footprints:SMD-1206" V 2330 2300 30  0001 C CNN
F 3 "" H 2400 2300 30  0000 C CNN
	1    2400 2300
	0    -1   -1   0   
$EndComp
$Comp
L R R406
U 1 1 56349C03
P 2400 4050
F 0 "R406" V 2320 4050 40  0000 C CNN
F 1 "100R" V 2407 4051 40  0000 C CNN
F 2 "MyKiCadLibs-Footprints:SMD-1206" V 2330 4050 30  0001 C CNN
F 3 "" H 2400 4050 30  0000 C CNN
	1    2400 4050
	0    -1   -1   0   
$EndComp
$Comp
L CP1 C406
U 1 1 56349DD1
P 3050 4050
F 0 "C406" H 3100 4150 50  0000 L CNN
F 1 "100u" H 3100 3950 50  0000 L CNN
F 2 "MyKiCadLibs-Footprints:CAP-TH-D10mmP5mm" H 3050 4050 60  0001 C CNN
F 3 "" H 3050 4050 60  0000 C CNN
	1    3050 4050
	0    1    1    0   
$EndComp
$Comp
L C C405
U 1 1 56349DD7
P 3050 3800
F 0 "C405" H 3050 3900 40  0000 L CNN
F 1 "100n" H 3056 3715 40  0000 L CNN
F 2 "MyKiCadLibs-Footprints:SMD-1210" H 3088 3650 30  0001 C CNN
F 3 "" H 3050 3800 60  0000 C CNN
	1    3050 3800
	0    -1   -1   0   
$EndComp
$Comp
L IC-OPAMP-DUAL-SOIC8 U401
U 1 1 5634A94A
P 5600 2400
F 0 "U401" H 5650 2250 60  0000 L CNN
F 1 "IC-OPAMP-DUAL-SOIC8" H 5650 2150 60  0000 L CNN
F 2 "MyKiCadLibs-Footprints:IC_SOIC_8" H 5600 2400 60  0001 C CNN
F 3 "" H 5600 2400 60  0000 C CNN
	1    5600 2400
	1    0    0    -1  
$EndComp
$Comp
L R R421
U 1 1 5634A9D0
P 6100 2800
F 0 "R421" V 6020 2800 40  0000 C CNN
F 1 "680" V 6107 2801 40  0000 C CNN
F 2 "MyKiCadLibs-Footprints:SMD-1206" V 6030 2800 30  0000 C CNN
F 3 "" H 6100 2800 30  0000 C CNN
	1    6100 2800
	0    -1   -1   0   
$EndComp
$Comp
L R R417
U 1 1 5634AB5B
P 5050 3100
F 0 "R417" V 4970 3100 40  0000 C CNN
F 1 "1k2" V 5057 3101 40  0000 C CNN
F 2 "MyKiCadLibs-Footprints:SMD-1206" V 4980 3100 30  0000 C CNN
F 3 "" H 5050 3100 30  0000 C CNN
	1    5050 3100
	1    0    0    -1  
$EndComp
$Comp
L R R413
U 1 1 5634B65A
P 4400 2300
F 0 "R413" V 4320 2300 40  0000 C CNN
F 1 "180" V 4407 2301 40  0000 C CNN
F 2 "MyKiCadLibs-Footprints:SMD-1206" V 4330 2300 30  0000 C CNN
F 3 "" H 4400 2300 30  0000 C CNN
	1    4400 2300
	0    -1   -1   0   
$EndComp
$Comp
L C C415
U 1 1 5634C604
P 4750 2700
F 0 "C415" H 4750 2800 40  0000 L CNN
F 1 "3n9" H 4756 2615 40  0000 L CNN
F 2 "MyKiCadLibs-Footprints:SMD-1206" H 4788 2550 30  0000 C CNN
F 3 "" H 4750 2700 60  0000 C CNN
	1    4750 2700
	-1   0    0    1   
$EndComp
$Comp
L GNDA #PWR029
U 1 1 5634C6F8
P 4750 2950
F 0 "#PWR029" H 4750 2700 50  0001 C CNN
F 1 "GNDA" H 4750 2800 50  0000 C CNN
F 2 "" H 4750 2950 60  0000 C CNN
F 3 "" H 4750 2950 60  0000 C CNN
	1    4750 2950
	1    0    0    -1  
$EndComp
$Comp
L C C411
U 1 1 5634C96E
P 4400 2000
F 0 "C411" H 4400 2100 40  0000 L CNN
F 1 "3n9" H 4406 1915 40  0000 L CNN
F 2 "MyKiCadLibs-Footprints:SMD-1206" H 4438 1850 30  0000 C CNN
F 3 "" H 4400 2000 60  0000 C CNN
	1    4400 2000
	0    -1   -1   0   
$EndComp
$Comp
L R R409
U 1 1 5634CB05
P 3700 2300
F 0 "R409" V 3620 2300 40  0000 C CNN
F 1 "330" V 3707 2301 40  0000 C CNN
F 2 "MyKiCadLibs-Footprints:SMD-1206" V 3630 2300 30  0000 C CNN
F 3 "" H 3700 2300 30  0000 C CNN
	1    3700 2300
	0    -1   -1   0   
$EndComp
$Comp
L GNDA #PWR030
U 1 1 5634CE86
P 5050 5150
F 0 "#PWR030" H 5050 4900 50  0001 C CNN
F 1 "GNDA" H 5050 5000 50  0000 C CNN
F 2 "" H 5050 5150 60  0000 C CNN
F 3 "" H 5050 5150 60  0000 C CNN
	1    5050 5150
	1    0    0    -1  
$EndComp
$Comp
L IC-OPAMP-DUAL-SOIC8 U401
U 2 1 5634CE8D
P 5600 4150
F 0 "U401" H 5650 4000 60  0000 L CNN
F 1 "IC-OPAMP-DUAL-SOIC8" H 5650 3900 60  0000 L CNN
F 2 "MyKiCadLibs-Footprints:IC_SOIC_8" H 5600 4150 60  0001 C CNN
F 3 "" H 5600 4150 60  0000 C CNN
	2    5600 4150
	1    0    0    -1  
$EndComp
$Comp
L R R422
U 1 1 5634CE93
P 6100 4550
F 0 "R422" V 6020 4550 40  0000 C CNN
F 1 "680" V 6107 4551 40  0000 C CNN
F 2 "MyKiCadLibs-Footprints:SMD-1206" V 6030 4550 30  0000 C CNN
F 3 "" H 6100 4550 30  0000 C CNN
	1    6100 4550
	0    -1   -1   0   
$EndComp
$Comp
L R R418
U 1 1 5634CE9E
P 5050 4850
F 0 "R418" V 4970 4850 40  0000 C CNN
F 1 "1k2" V 5057 4851 40  0000 C CNN
F 2 "MyKiCadLibs-Footprints:SMD-1206" V 4980 4850 30  0000 C CNN
F 3 "" H 5050 4850 30  0000 C CNN
	1    5050 4850
	1    0    0    -1  
$EndComp
$Comp
L R R414
U 1 1 5634CEA6
P 4400 4050
F 0 "R414" V 4320 4050 40  0000 C CNN
F 1 "180" V 4407 4051 40  0000 C CNN
F 2 "MyKiCadLibs-Footprints:SMD-1206" V 4330 4050 30  0000 C CNN
F 3 "" H 4400 4050 30  0000 C CNN
	1    4400 4050
	0    -1   -1   0   
$EndComp
$Comp
L C C416
U 1 1 5634CEAD
P 4750 4450
F 0 "C416" H 4750 4550 40  0000 L CNN
F 1 "3n9" H 4756 4365 40  0000 L CNN
F 2 "MyKiCadLibs-Footprints:SMD-1206" H 4788 4300 30  0000 C CNN
F 3 "" H 4750 4450 60  0000 C CNN
	1    4750 4450
	-1   0    0    1   
$EndComp
$Comp
L GNDA #PWR031
U 1 1 5634CEB5
P 4750 4700
F 0 "#PWR031" H 4750 4450 50  0001 C CNN
F 1 "GNDA" H 4750 4550 50  0000 C CNN
F 2 "" H 4750 4700 60  0000 C CNN
F 3 "" H 4750 4700 60  0000 C CNN
	1    4750 4700
	1    0    0    -1  
$EndComp
$Comp
L C C412
U 1 1 5634CEBC
P 4400 3750
F 0 "C412" H 4400 3850 40  0000 L CNN
F 1 "3n9" H 4406 3665 40  0000 L CNN
F 2 "MyKiCadLibs-Footprints:SMD-1206" H 4438 3600 30  0000 C CNN
F 3 "" H 4400 3750 60  0000 C CNN
	1    4400 3750
	0    -1   -1   0   
$EndComp
$Comp
L R R410
U 1 1 5634CEC4
P 3700 4050
F 0 "R410" V 3620 4050 40  0000 C CNN
F 1 "330" V 3707 4051 40  0000 C CNN
F 2 "MyKiCadLibs-Footprints:SMD-1206" V 3630 4050 30  0000 C CNN
F 3 "" H 3700 4050 30  0000 C CNN
	1    3700 4050
	0    -1   -1   0   
$EndComp
$Comp
L CP1 C431
U 1 1 5634E6EF
P 9800 2400
F 0 "C431" H 9850 2500 50  0000 L CNN
F 1 "100u" H 9850 2300 50  0000 L CNN
F 2 "MyKiCadLibs-Footprints:CAP-TH-D10mmP5mm" H 9800 2400 60  0001 C CNN
F 3 "" H 9800 2400 60  0000 C CNN
	1    9800 2400
	0    1    1    0   
$EndComp
$Comp
L C C432
U 1 1 5634E6F5
P 9800 2750
F 0 "C432" H 9800 2850 40  0000 L CNN
F 1 "100n" H 9806 2665 40  0000 L CNN
F 2 "MyKiCadLibs-Footprints:SMD-1210" H 9838 2600 30  0000 C CNN
F 3 "" H 9800 2750 60  0000 C CNN
	1    9800 2750
	0    -1   -1   0   
$EndComp
$Comp
L R R425
U 1 1 5634E6FB
P 6800 2500
F 0 "R425" V 6720 2500 40  0000 C CNN
F 1 "100R" V 6807 2501 40  0000 C CNN
F 2 "MyKiCadLibs-Footprints:SMD-1206" V 6730 2500 30  0000 C CNN
F 3 "" H 6800 2500 30  0000 C CNN
	1    6800 2500
	0    -1   -1   0   
$EndComp
$Comp
L GNDA #PWR032
U 1 1 5634E7FF
P 10200 3350
F 0 "#PWR032" H 10200 3100 50  0001 C CNN
F 1 "GNDA" H 10200 3200 50  0000 C CNN
F 2 "" H 10200 3350 60  0000 C CNN
F 3 "" H 10200 3350 60  0000 C CNN
	1    10200 3350
	1    0    0    -1  
$EndComp
$Comp
L R R441
U 1 1 5634E806
P 10200 3050
F 0 "R441" V 10120 3050 40  0000 C CNN
F 1 "100k" V 10207 3051 40  0000 C CNN
F 2 "MyKiCadLibs-Footprints:SMD-1206" V 10130 3050 30  0000 C CNN
F 3 "" H 10200 3050 30  0000 C CNN
	1    10200 3050
	1    0    0    -1  
$EndComp
$Comp
L CP1 C433
U 1 1 5634EAF4
P 9800 4150
F 0 "C433" H 9850 4250 50  0000 L CNN
F 1 "100u" H 9850 4050 50  0000 L CNN
F 2 "MyKiCadLibs-Footprints:CAP-TH-D10mmP5mm" H 9800 4150 60  0001 C CNN
F 3 "" H 9800 4150 60  0000 C CNN
	1    9800 4150
	0    1    1    0   
$EndComp
$Comp
L C C434
U 1 1 5634EAFA
P 9800 4500
F 0 "C434" H 9800 4600 40  0000 L CNN
F 1 "100n" H 9806 4415 40  0000 L CNN
F 2 "MyKiCadLibs-Footprints:SMD-1210" H 9838 4350 30  0000 C CNN
F 3 "" H 9800 4500 60  0000 C CNN
	1    9800 4500
	0    -1   -1   0   
$EndComp
$Comp
L R R426
U 1 1 5634EB00
P 6800 4250
F 0 "R426" V 6720 4250 40  0000 C CNN
F 1 "100R" V 6807 4251 40  0000 C CNN
F 2 "MyKiCadLibs-Footprints:SMD-1206" V 6730 4250 30  0000 C CNN
F 3 "" H 6800 4250 30  0000 C CNN
	1    6800 4250
	0    -1   -1   0   
$EndComp
$Comp
L GNDA #PWR033
U 1 1 5634EB0D
P 10200 5100
F 0 "#PWR033" H 10200 4850 50  0001 C CNN
F 1 "GNDA" H 10200 4950 50  0000 C CNN
F 2 "" H 10200 5100 60  0000 C CNN
F 3 "" H 10200 5100 60  0000 C CNN
	1    10200 5100
	1    0    0    -1  
$EndComp
$Comp
L R R442
U 1 1 5634EB14
P 10200 4800
F 0 "R442" V 10120 4800 40  0000 C CNN
F 1 "100k" V 10207 4801 40  0000 C CNN
F 2 "MyKiCadLibs-Footprints:SMD-1206" V 10130 4800 30  0000 C CNN
F 3 "" H 10200 4800 30  0000 C CNN
	1    10200 4800
	1    0    0    -1  
$EndComp
$Comp
L IC-OPAMP-DUAL-SOIC8 U403
U 1 1 563508E4
P 7850 2400
F 0 "U403" H 7900 2250 60  0000 L CNN
F 1 "IC-OPAMP-DUAL-SOIC8" H 7900 2150 60  0000 L CNN
F 2 "MyKiCadLibs-Footprints:IC_SOIC_8" H 7850 2400 60  0001 C CNN
F 3 "" H 7850 2400 60  0000 C CNN
	1    7850 2400
	1    0    0    -1  
$EndComp
$Comp
L R R433
U 1 1 563509B6
P 8250 2900
F 0 "R433" V 8170 2900 40  0000 C CNN
F 1 "680" V 8257 2901 40  0000 C CNN
F 2 "MyKiCadLibs-Footprints:SMD-1206" V 8180 2900 30  0000 C CNN
F 3 "" H 8250 2900 30  0000 C CNN
	1    8250 2900
	0    -1   -1   0   
$EndComp
$Comp
L R R437
U 1 1 563511FE
P 9000 2400
F 0 "R437" V 8920 2400 40  0000 C CNN
F 1 "100" V 9007 2401 40  0000 C CNN
F 2 "MyKiCadLibs-Footprints:SMD-1206" V 8930 2400 30  0000 C CNN
F 3 "" H 9000 2400 30  0000 C CNN
	1    9000 2400
	0    -1   -1   0   
$EndComp
$Comp
L GNDA #PWR034
U 1 1 563516F3
P 7200 3150
F 0 "#PWR034" H 7200 2900 50  0001 C CNN
F 1 "GNDA" H 7200 3000 50  0000 C CNN
F 2 "" H 7200 3150 60  0000 C CNN
F 3 "" H 7200 3150 60  0000 C CNN
	1    7200 3150
	1    0    0    -1  
$EndComp
$Comp
L R R429
U 1 1 563516FA
P 7200 2850
F 0 "R429" V 7120 2850 40  0000 C CNN
F 1 "100k" V 7207 2851 40  0000 C CNN
F 2 "MyKiCadLibs-Footprints:SMD-1206" V 7130 2850 30  0000 C CNN
F 3 "" H 7200 2850 30  0000 C CNN
	1    7200 2850
	1    0    0    -1  
$EndComp
$Comp
L IC-OPAMP-DUAL-SOIC8 U403
U 2 1 56351863
P 7850 4150
F 0 "U403" H 7900 4000 60  0000 L CNN
F 1 "IC-OPAMP-DUAL-SOIC8" H 7900 3900 60  0000 L CNN
F 2 "MyKiCadLibs-Footprints:IC_SOIC_8" H 7850 4150 60  0001 C CNN
F 3 "" H 7850 4150 60  0000 C CNN
	2    7850 4150
	1    0    0    -1  
$EndComp
$Comp
L R R434
U 1 1 56351869
P 8250 4650
F 0 "R434" V 8170 4650 40  0000 C CNN
F 1 "680" V 8257 4651 40  0000 C CNN
F 2 "MyKiCadLibs-Footprints:SMD-1206" V 8180 4650 30  0000 C CNN
F 3 "" H 8250 4650 30  0000 C CNN
	1    8250 4650
	0    -1   -1   0   
$EndComp
$Comp
L R R438
U 1 1 56351878
P 9000 4150
F 0 "R438" V 8920 4150 40  0000 C CNN
F 1 "100" V 9007 4151 40  0000 C CNN
F 2 "MyKiCadLibs-Footprints:SMD-1206" V 8930 4150 30  0000 C CNN
F 3 "" H 9000 4150 30  0000 C CNN
	1    9000 4150
	0    -1   -1   0   
$EndComp
$Comp
L GNDA #PWR035
U 1 1 5635187F
P 7200 4900
F 0 "#PWR035" H 7200 4650 50  0001 C CNN
F 1 "GNDA" H 7200 4750 50  0000 C CNN
F 2 "" H 7200 4900 60  0000 C CNN
F 3 "" H 7200 4900 60  0000 C CNN
	1    7200 4900
	1    0    0    -1  
$EndComp
$Comp
L R R430
U 1 1 56351886
P 7200 4600
F 0 "R430" V 7120 4600 40  0000 C CNN
F 1 "100k" V 7207 4601 40  0000 C CNN
F 2 "MyKiCadLibs-Footprints:SMD-1206" V 7130 4600 30  0000 C CNN
F 3 "" H 7200 4600 30  0000 C CNN
	1    7200 4600
	1    0    0    -1  
$EndComp
Text Label 5600 1650 3    60   ~ 0
VCC1
Text Label 5600 3150 1    60   ~ 0
VEE1
Text Label 6350 1350 2    60   ~ 0
VCC1
Text Label 6350 1950 2    60   ~ 0
VEE1
Wire Wire Line
	2000 2300 2150 2300
Wire Wire Line
	5050 3400 5050 3350
Wire Wire Line
	2050 2300 2050 2850
Connection ~ 2050 2300
Wire Wire Line
	2050 3250 2050 4050
Connection ~ 2050 4050
Wire Wire Line
	1400 4050 1500 4050
Wire Wire Line
	1500 2300 1400 2300
Wire Wire Line
	15150 2250 15100 2250
Wire Wire Line
	14050 1850 15150 1850
Wire Wire Line
	15750 1850 15750 2250
Wire Wire Line
	15750 2250 15650 2250
Wire Wire Line
	15100 2250 15100 2450
Wire Wire Line
	14050 2450 15150 2450
Wire Wire Line
	15650 2450 15750 2450
Wire Wire Line
	15750 2450 15750 2500
Connection ~ 15100 2450
Wire Wire Line
	14100 900  15100 900 
Wire Wire Line
	14900 1900 14900 1850
Wire Wire Line
	15650 850  15650 900 
Wire Wire Line
	15650 900  15600 900 
Wire Wire Line
	15100 1100 15050 1100
Wire Wire Line
	15050 1100 15050 900 
Connection ~ 15050 900 
Wire Wire Line
	15050 1450 15050 1350
Wire Wire Line
	15050 1350 15150 1350
Wire Wire Line
	15550 1350 15650 1350
Wire Wire Line
	15650 1350 15650 1100
Wire Wire Line
	15650 1100 15600 1100
Wire Wire Line
	14800 1000 14800 900 
Connection ~ 14800 900 
Wire Wire Line
	14500 1000 14500 900 
Connection ~ 14500 900 
Wire Wire Line
	14800 1450 14800 1400
Wire Wire Line
	14500 1450 14500 1400
Wire Wire Line
	14100 900  14100 1000
Wire Wire Line
	14100 1450 14100 1400
Wire Wire Line
	14700 1950 14700 1850
Wire Wire Line
	14400 1950 14400 1850
Wire Wire Line
	14700 2350 14700 2450
Wire Wire Line
	14400 2350 14400 2450
Wire Wire Line
	15550 1850 15750 1850
Connection ~ 14900 1850
Connection ~ 14700 1850
Connection ~ 14400 1850
Wire Wire Line
	14050 1850 14050 1950
Wire Wire Line
	14050 2350 14050 2450
Connection ~ 14400 2450
Connection ~ 14700 2450
Wire Wire Line
	2000 4050 2150 4050
Wire Wire Line
	2650 2300 2850 2300
Wire Wire Line
	2650 4050 2850 4050
Wire Wire Line
	2850 3800 2750 3800
Wire Wire Line
	2750 3800 2750 4050
Connection ~ 2750 4050
Wire Wire Line
	2850 2650 2750 2650
Wire Wire Line
	2750 2650 2750 2300
Connection ~ 2750 2300
Wire Wire Line
	6450 2800 6350 2800
Wire Wire Line
	6450 2000 6450 2800
Wire Wire Line
	6450 2400 6100 2400
Wire Wire Line
	5050 2500 5050 2850
Wire Wire Line
	5050 2800 5850 2800
Connection ~ 5050 2800
Wire Wire Line
	5100 2500 5050 2500
Wire Wire Line
	4650 2300 5100 2300
Wire Wire Line
	4750 2500 4750 2300
Connection ~ 4750 2300
Wire Wire Line
	4750 2950 4750 2900
Wire Wire Line
	4600 2000 6450 2000
Connection ~ 6450 2400
Wire Wire Line
	3250 2300 3450 2300
Wire Wire Line
	3950 2300 4150 2300
Wire Wire Line
	4200 2000 4050 2000
Wire Wire Line
	4050 2000 4050 2300
Connection ~ 4050 2300
Wire Wire Line
	3250 2650 3350 2650
Wire Wire Line
	3350 2650 3350 2300
Connection ~ 3350 2300
Wire Wire Line
	5050 5150 5050 5100
Wire Wire Line
	6450 4550 6350 4550
Wire Wire Line
	6450 3750 6450 4550
Wire Wire Line
	6450 4150 6100 4150
Wire Wire Line
	5050 4250 5050 4600
Wire Wire Line
	5050 4550 5850 4550
Connection ~ 5050 4550
Wire Wire Line
	5100 4250 5050 4250
Wire Wire Line
	4650 4050 5100 4050
Wire Wire Line
	4750 4250 4750 4050
Connection ~ 4750 4050
Wire Wire Line
	4750 4700 4750 4650
Wire Wire Line
	4600 3750 6450 3750
Connection ~ 6450 4150
Wire Wire Line
	3950 4050 4150 4050
Wire Wire Line
	4200 3750 4050 3750
Wire Wire Line
	4050 3750 4050 4050
Connection ~ 4050 4050
Wire Wire Line
	3250 4050 3450 4050
Wire Wire Line
	3250 3800 3350 3800
Wire Wire Line
	3350 3800 3350 4050
Connection ~ 3350 4050
Wire Wire Line
	9250 2400 9600 2400
Wire Wire Line
	9600 2750 9500 2750
Wire Wire Line
	9500 2750 9500 2400
Connection ~ 9500 2400
Wire Wire Line
	10000 2400 10650 2400
Wire Wire Line
	10000 2750 10200 2750
Wire Wire Line
	6550 2500 6450 2500
Connection ~ 6450 2500
Wire Wire Line
	10200 3350 10200 3300
Wire Wire Line
	10200 2400 10200 2800
Connection ~ 10200 2750
Wire Wire Line
	9250 4150 9600 4150
Wire Wire Line
	9600 4500 9500 4500
Wire Wire Line
	9500 4500 9500 4150
Connection ~ 9500 4150
Wire Wire Line
	10000 4150 10650 4150
Wire Wire Line
	10000 4500 10200 4500
Wire Wire Line
	6550 4250 6450 4250
Wire Wire Line
	10200 5100 10200 5050
Wire Wire Line
	10200 4150 10200 4550
Connection ~ 10200 4500
Connection ~ 6450 4250
Wire Wire Line
	10750 3300 10650 3300
Wire Wire Line
	10650 3300 10650 2400
Connection ~ 10200 2400
Wire Wire Line
	10750 3400 10650 3400
Wire Wire Line
	10650 3400 10650 4150
Connection ~ 10200 4150
Wire Wire Line
	7350 2300 7200 2300
Wire Wire Line
	7200 2300 7200 2600
Wire Wire Line
	7200 2500 7050 2500
Wire Wire Line
	7350 2500 7300 2500
Wire Wire Line
	7300 2500 7300 2900
Wire Wire Line
	7300 2900 8000 2900
Wire Wire Line
	8350 2400 8750 2400
Wire Wire Line
	8650 2400 8650 2900
Wire Wire Line
	8650 2900 8500 2900
Connection ~ 8650 2400
Wire Wire Line
	7200 3150 7200 3100
Connection ~ 7200 2500
Wire Wire Line
	7350 4050 7200 4050
Wire Wire Line
	7200 4050 7200 4350
Wire Wire Line
	7200 4250 7050 4250
Wire Wire Line
	7350 4250 7300 4250
Wire Wire Line
	7300 4250 7300 4650
Wire Wire Line
	7300 4650 8000 4650
Wire Wire Line
	8350 4150 8750 4150
Wire Wire Line
	8650 4150 8650 4650
Wire Wire Line
	8650 4650 8500 4650
Connection ~ 8650 4150
Wire Wire Line
	7200 4900 7200 4850
Connection ~ 7200 4250
Wire Wire Line
	5600 3150 5600 2750
Wire Wire Line
	5600 1650 5600 2050
Wire Wire Line
	6350 1350 6350 1450
Wire Wire Line
	6100 1450 6100 1350
Wire Wire Line
	5850 1350 6350 1350
Wire Wire Line
	5850 1350 5850 1450
Connection ~ 6100 1350
Wire Wire Line
	5850 1850 5850 1950
Wire Wire Line
	5850 1950 6350 1950
Wire Wire Line
	6100 1950 6100 1850
Wire Wire Line
	6350 1950 6350 1850
Connection ~ 6100 1950
Text Label 7850 1650 3    60   ~ 0
VCC1
Wire Wire Line
	7850 1650 7850 2050
Text Label 7850 3150 1    60   ~ 0
VEE1
Wire Wire Line
	7850 3150 7850 2750
$Comp
L C C429
U 1 1 56353185
P 8700 1800
F 0 "C429" H 8700 1900 40  0000 L CNN
F 1 "100n" H 8706 1715 40  0000 L CNN
F 2 "MyKiCadLibs-Footprints:SMD-0805" H 8738 1650 30  0001 C CNN
F 3 "" H 8700 1800 60  0000 C CNN
	1    8700 1800
	-1   0    0    1   
$EndComp
$Comp
L C C427
U 1 1 5635318B
P 8450 1800
F 0 "C427" H 8450 1900 40  0000 L CNN
F 1 "1n" H 8456 1715 40  0000 L CNN
F 2 "MyKiCadLibs-Footprints:SMD-0805" H 8488 1650 30  0001 C CNN
F 3 "" H 8450 1800 60  0000 C CNN
	1    8450 1800
	-1   0    0    1   
$EndComp
$Comp
L C C425
U 1 1 56353191
P 8200 1800
F 0 "C425" H 8200 1900 40  0000 L CNN
F 1 "10u" H 8206 1715 40  0000 L CNN
F 2 "MyKiCadLibs-Footprints:SMD-0805" H 8238 1650 30  0001 C CNN
F 3 "" H 8200 1800 60  0000 C CNN
	1    8200 1800
	-1   0    0    1   
$EndComp
Text Label 8700 1500 2    60   ~ 0
VCC1
Text Label 8700 2100 2    60   ~ 0
VEE1
Wire Wire Line
	8700 1500 8700 1600
Wire Wire Line
	8450 1600 8450 1500
Wire Wire Line
	8200 1500 8700 1500
Wire Wire Line
	8200 1500 8200 1600
Connection ~ 8450 1500
Wire Wire Line
	8200 2000 8200 2100
Wire Wire Line
	8200 2100 8700 2100
Wire Wire Line
	8450 2100 8450 2000
Wire Wire Line
	8700 2100 8700 2000
Connection ~ 8450 2100
Text Label 14100 900  0    60   ~ 0
VCC1
Text Label 14050 2450 0    60   ~ 0
VEE1
$Comp
L GNDA #PWR036
U 1 1 56355E04
P 5050 7300
F 0 "#PWR036" H 5050 7050 50  0001 C CNN
F 1 "GNDA" H 5050 7150 50  0000 C CNN
F 2 "" H 5050 7300 60  0000 C CNN
F 3 "" H 5050 7300 60  0000 C CNN
	1    5050 7300
	1    0    0    -1  
$EndComp
$Comp
L R R403
U 1 1 56355E0A
P 1750 6200
F 0 "R403" V 1670 6200 40  0000 C CNN
F 1 "1k5" V 1757 6201 40  0000 C CNN
F 2 "MyKiCadLibs-Footprints:SMD-1206" V 1680 6200 30  0000 C CNN
F 3 "" H 1750 6200 30  0000 C CNN
	1    1750 6200
	0    -1   -1   0   
$EndComp
$Comp
L C C402
U 1 1 56355E10
P 2050 6950
F 0 "C402" H 2050 7050 40  0000 L CNN
F 1 "2n2" H 2056 6865 40  0000 L CNN
F 2 "MyKiCadLibs-Footprints:SMD-1206" H 2088 6800 30  0000 C CNN
F 3 "" H 2050 6950 60  0000 C CNN
	1    2050 6950
	-1   0    0    1   
$EndComp
$Comp
L C C424
U 1 1 56355E16
P 6350 5550
F 0 "C424" H 6350 5650 40  0000 L CNN
F 1 "100n" H 6356 5465 40  0000 L CNN
F 2 "MyKiCadLibs-Footprints:SMD-0805" H 6388 5400 30  0001 C CNN
F 3 "" H 6350 5550 60  0000 C CNN
	1    6350 5550
	-1   0    0    1   
$EndComp
$Comp
L C C422
U 1 1 56355E1C
P 6100 5550
F 0 "C422" H 6100 5650 40  0000 L CNN
F 1 "1n" H 6106 5465 40  0000 L CNN
F 2 "MyKiCadLibs-Footprints:SMD-0805" H 6138 5400 30  0001 C CNN
F 3 "" H 6100 5550 60  0000 C CNN
	1    6100 5550
	-1   0    0    1   
$EndComp
$Comp
L C C420
U 1 1 56355E22
P 5850 5550
F 0 "C420" H 5850 5650 40  0000 L CNN
F 1 "10u" H 5856 5465 40  0000 L CNN
F 2 "MyKiCadLibs-Footprints:SMD-0805" H 5888 5400 30  0001 C CNN
F 3 "" H 5850 5550 60  0000 C CNN
	1    5850 5550
	-1   0    0    1   
$EndComp
$Comp
L CONN_2x1 P402
U 1 1 56355E28
P 10750 7200
F 0 "P402" V 11245 7045 40  0000 C CNN
F 1 "CONN_2x1" V 11190 7160 40  0000 C CNN
F 2 "MyKiCadLibs-Footprints:CONN_SIL_2" H 11090 7090 60  0001 C CNN
F 3 "" H 11090 7090 60  0000 C CNN
	1    10750 7200
	1    0    0    -1  
$EndComp
$Comp
L R R404
U 1 1 56355E2E
P 1750 7950
F 0 "R404" V 1670 7950 40  0000 C CNN
F 1 "1k5" V 1757 7951 40  0000 C CNN
F 2 "MyKiCadLibs-Footprints:SMD-1206" V 1680 7950 30  0000 C CNN
F 3 "" H 1750 7950 30  0000 C CNN
	1    1750 7950
	0    -1   -1   0   
$EndComp
$Comp
L CP1 C407
U 1 1 56355E34
P 3050 6200
F 0 "C407" H 3100 6300 50  0000 L CNN
F 1 "100u" H 3100 6100 50  0000 L CNN
F 2 "MyKiCadLibs-Footprints:CAP-TH-D10mmP5mm" H 3050 6200 60  0001 C CNN
F 3 "" H 3050 6200 60  0000 C CNN
	1    3050 6200
	0    1    1    0   
$EndComp
$Comp
L C C408
U 1 1 56355E3A
P 3050 6550
F 0 "C408" H 3050 6650 40  0000 L CNN
F 1 "100n" H 3056 6465 40  0000 L CNN
F 2 "MyKiCadLibs-Footprints:SMD-1210" H 3088 6400 30  0000 C CNN
F 3 "" H 3050 6550 60  0000 C CNN
	1    3050 6550
	0    -1   -1   0   
$EndComp
$Comp
L R R407
U 1 1 56355E40
P 2400 6200
F 0 "R407" V 2320 6200 40  0000 C CNN
F 1 "100R" V 2407 6201 40  0000 C CNN
F 2 "MyKiCadLibs-Footprints:SMD-1206" V 2330 6200 30  0000 C CNN
F 3 "" H 2400 6200 30  0000 C CNN
	1    2400 6200
	0    -1   -1   0   
$EndComp
$Comp
L R R408
U 1 1 56355E46
P 2400 7950
F 0 "R408" V 2320 7950 40  0000 C CNN
F 1 "100R" V 2407 7951 40  0000 C CNN
F 2 "MyKiCadLibs-Footprints:SMD-1206" V 2330 7950 30  0000 C CNN
F 3 "" H 2400 7950 30  0000 C CNN
	1    2400 7950
	0    -1   -1   0   
$EndComp
$Comp
L CP1 C410
U 1 1 56355E4C
P 3050 7950
F 0 "C410" H 3100 8050 50  0000 L CNN
F 1 "100u" H 3100 7850 50  0000 L CNN
F 2 "MyKiCadLibs-Footprints:CAP-TH-D10mmP5mm" H 3050 7950 60  0001 C CNN
F 3 "" H 3050 7950 60  0000 C CNN
	1    3050 7950
	0    1    1    0   
$EndComp
$Comp
L C C409
U 1 1 56355E52
P 3050 7700
F 0 "C409" H 3050 7800 40  0000 L CNN
F 1 "100n" H 3056 7615 40  0000 L CNN
F 2 "MyKiCadLibs-Footprints:SMD-1210" H 3088 7550 30  0000 C CNN
F 3 "" H 3050 7700 60  0000 C CNN
	1    3050 7700
	0    -1   -1   0   
$EndComp
$Comp
L IC-OPAMP-DUAL-SOIC8 U402
U 1 1 56355E58
P 5600 6300
F 0 "U402" H 5650 6150 60  0000 L CNN
F 1 "IC-OPAMP-DUAL-SOIC8" H 5650 6050 60  0000 L CNN
F 2 "MyKiCadLibs-Footprints:IC_SOIC_8" H 5600 6300 60  0001 C CNN
F 3 "" H 5600 6300 60  0000 C CNN
	1    5600 6300
	1    0    0    -1  
$EndComp
$Comp
L R R423
U 1 1 56355E5E
P 6100 6700
F 0 "R423" V 6020 6700 40  0000 C CNN
F 1 "680" V 6107 6701 40  0000 C CNN
F 2 "MyKiCadLibs-Footprints:SMD-1206" V 6030 6700 30  0000 C CNN
F 3 "" H 6100 6700 30  0000 C CNN
	1    6100 6700
	0    -1   -1   0   
$EndComp
$Comp
L R R419
U 1 1 56355E64
P 5050 7000
F 0 "R419" V 4970 7000 40  0000 C CNN
F 1 "1k2" V 5057 7001 40  0000 C CNN
F 2 "MyKiCadLibs-Footprints:SMD-1206" V 4980 7000 30  0000 C CNN
F 3 "" H 5050 7000 30  0000 C CNN
	1    5050 7000
	1    0    0    -1  
$EndComp
$Comp
L R R415
U 1 1 56355E6A
P 4400 6200
F 0 "R415" V 4320 6200 40  0000 C CNN
F 1 "180" V 4407 6201 40  0000 C CNN
F 2 "MyKiCadLibs-Footprints:SMD-1206" V 4330 6200 30  0000 C CNN
F 3 "" H 4400 6200 30  0000 C CNN
	1    4400 6200
	0    -1   -1   0   
$EndComp
$Comp
L C C417
U 1 1 56355E70
P 4750 6600
F 0 "C417" H 4750 6700 40  0000 L CNN
F 1 "3n9" H 4756 6515 40  0000 L CNN
F 2 "MyKiCadLibs-Footprints:SMD-1206" H 4788 6450 30  0000 C CNN
F 3 "" H 4750 6600 60  0000 C CNN
	1    4750 6600
	-1   0    0    1   
$EndComp
$Comp
L GNDA #PWR037
U 1 1 56355E76
P 4750 6850
F 0 "#PWR037" H 4750 6600 50  0001 C CNN
F 1 "GNDA" H 4750 6700 50  0000 C CNN
F 2 "" H 4750 6850 60  0000 C CNN
F 3 "" H 4750 6850 60  0000 C CNN
	1    4750 6850
	1    0    0    -1  
$EndComp
$Comp
L C C413
U 1 1 56355E7C
P 4400 5900
F 0 "C413" H 4400 6000 40  0000 L CNN
F 1 "3n9" H 4406 5815 40  0000 L CNN
F 2 "MyKiCadLibs-Footprints:SMD-1206" H 4438 5750 30  0000 C CNN
F 3 "" H 4400 5900 60  0000 C CNN
	1    4400 5900
	0    -1   -1   0   
$EndComp
$Comp
L R R411
U 1 1 56355E82
P 3700 6200
F 0 "R411" V 3620 6200 40  0000 C CNN
F 1 "330" V 3707 6201 40  0000 C CNN
F 2 "MyKiCadLibs-Footprints:SMD-1206" V 3630 6200 30  0000 C CNN
F 3 "" H 3700 6200 30  0000 C CNN
	1    3700 6200
	0    -1   -1   0   
$EndComp
$Comp
L GNDA #PWR038
U 1 1 56355E88
P 5050 9050
F 0 "#PWR038" H 5050 8800 50  0001 C CNN
F 1 "GNDA" H 5050 8900 50  0000 C CNN
F 2 "" H 5050 9050 60  0000 C CNN
F 3 "" H 5050 9050 60  0000 C CNN
	1    5050 9050
	1    0    0    -1  
$EndComp
$Comp
L IC-OPAMP-DUAL-SOIC8 U402
U 2 1 56355E8E
P 5600 8050
F 0 "U402" H 5650 7900 60  0000 L CNN
F 1 "IC-OPAMP-DUAL-SOIC8" H 5650 7800 60  0000 L CNN
F 2 "MyKiCadLibs-Footprints:IC_SOIC_8" H 5600 8050 60  0001 C CNN
F 3 "" H 5600 8050 60  0000 C CNN
	2    5600 8050
	1    0    0    -1  
$EndComp
$Comp
L R R424
U 1 1 56355E94
P 6100 8450
F 0 "R424" V 6020 8450 40  0000 C CNN
F 1 "680" V 6107 8451 40  0000 C CNN
F 2 "MyKiCadLibs-Footprints:SMD-1206" V 6030 8450 30  0000 C CNN
F 3 "" H 6100 8450 30  0000 C CNN
	1    6100 8450
	0    -1   -1   0   
$EndComp
$Comp
L R R420
U 1 1 56355E9A
P 5050 8750
F 0 "R420" V 4970 8750 40  0000 C CNN
F 1 "1k2" V 5057 8751 40  0000 C CNN
F 2 "MyKiCadLibs-Footprints:SMD-1206" V 4980 8750 30  0000 C CNN
F 3 "" H 5050 8750 30  0000 C CNN
	1    5050 8750
	1    0    0    -1  
$EndComp
$Comp
L R R416
U 1 1 56355EA0
P 4400 7950
F 0 "R416" V 4320 7950 40  0000 C CNN
F 1 "180" V 4407 7951 40  0000 C CNN
F 2 "MyKiCadLibs-Footprints:SMD-1206" V 4330 7950 30  0000 C CNN
F 3 "" H 4400 7950 30  0000 C CNN
	1    4400 7950
	0    -1   -1   0   
$EndComp
$Comp
L C C418
U 1 1 56355EA6
P 4750 8350
F 0 "C418" H 4750 8450 40  0000 L CNN
F 1 "3n9" H 4756 8265 40  0000 L CNN
F 2 "MyKiCadLibs-Footprints:SMD-1206" H 4788 8200 30  0000 C CNN
F 3 "" H 4750 8350 60  0000 C CNN
	1    4750 8350
	-1   0    0    1   
$EndComp
$Comp
L GNDA #PWR039
U 1 1 56355EAC
P 4750 8600
F 0 "#PWR039" H 4750 8350 50  0001 C CNN
F 1 "GNDA" H 4750 8450 50  0000 C CNN
F 2 "" H 4750 8600 60  0000 C CNN
F 3 "" H 4750 8600 60  0000 C CNN
	1    4750 8600
	1    0    0    -1  
$EndComp
$Comp
L C C414
U 1 1 56355EB2
P 4400 7650
F 0 "C414" H 4400 7750 40  0000 L CNN
F 1 "3n9" H 4406 7565 40  0000 L CNN
F 2 "MyKiCadLibs-Footprints:SMD-1206" H 4438 7500 30  0000 C CNN
F 3 "" H 4400 7650 60  0000 C CNN
	1    4400 7650
	0    -1   -1   0   
$EndComp
$Comp
L R R412
U 1 1 56355EB8
P 3700 7950
F 0 "R412" V 3620 7950 40  0000 C CNN
F 1 "330" V 3707 7951 40  0000 C CNN
F 2 "MyKiCadLibs-Footprints:SMD-1206" V 3630 7950 30  0000 C CNN
F 3 "" H 3700 7950 30  0000 C CNN
	1    3700 7950
	0    -1   -1   0   
$EndComp
$Comp
L CP1 C435
U 1 1 56355EBE
P 9800 6300
F 0 "C435" H 9850 6400 50  0000 L CNN
F 1 "100u" H 9850 6200 50  0000 L CNN
F 2 "MyKiCadLibs-Footprints:CAP-TH-D10mmP5mm" H 9800 6300 60  0001 C CNN
F 3 "" H 9800 6300 60  0000 C CNN
	1    9800 6300
	0    1    1    0   
$EndComp
$Comp
L C C436
U 1 1 56355EC4
P 9800 6650
F 0 "C436" H 9800 6750 40  0000 L CNN
F 1 "100n" H 9806 6565 40  0000 L CNN
F 2 "MyKiCadLibs-Footprints:SMD-1210" H 9838 6500 30  0000 C CNN
F 3 "" H 9800 6650 60  0000 C CNN
	1    9800 6650
	0    -1   -1   0   
$EndComp
$Comp
L R R427
U 1 1 56355ECA
P 6800 6400
F 0 "R427" V 6720 6400 40  0000 C CNN
F 1 "100R" V 6807 6401 40  0000 C CNN
F 2 "MyKiCadLibs-Footprints:SMD-1206" V 6730 6400 30  0000 C CNN
F 3 "" H 6800 6400 30  0000 C CNN
	1    6800 6400
	0    -1   -1   0   
$EndComp
$Comp
L GNDA #PWR040
U 1 1 56355ED0
P 10200 7250
F 0 "#PWR040" H 10200 7000 50  0001 C CNN
F 1 "GNDA" H 10200 7100 50  0000 C CNN
F 2 "" H 10200 7250 60  0000 C CNN
F 3 "" H 10200 7250 60  0000 C CNN
	1    10200 7250
	1    0    0    -1  
$EndComp
$Comp
L R R443
U 1 1 56355ED6
P 10200 6950
F 0 "R443" V 10120 6950 40  0000 C CNN
F 1 "100k" V 10207 6951 40  0000 C CNN
F 2 "MyKiCadLibs-Footprints:SMD-1206" V 10130 6950 30  0000 C CNN
F 3 "" H 10200 6950 30  0000 C CNN
	1    10200 6950
	1    0    0    -1  
$EndComp
$Comp
L CP1 C437
U 1 1 56355EDC
P 9800 8050
F 0 "C437" H 9850 8150 50  0000 L CNN
F 1 "100u" H 9850 7950 50  0000 L CNN
F 2 "MyKiCadLibs-Footprints:CAP-TH-D10mmP5mm" H 9800 8050 60  0001 C CNN
F 3 "" H 9800 8050 60  0000 C CNN
	1    9800 8050
	0    1    1    0   
$EndComp
$Comp
L C C438
U 1 1 56355EE2
P 9800 8400
F 0 "C438" H 9800 8500 40  0000 L CNN
F 1 "100n" H 9806 8315 40  0000 L CNN
F 2 "MyKiCadLibs-Footprints:SMD-1210" H 9838 8250 30  0000 C CNN
F 3 "" H 9800 8400 60  0000 C CNN
	1    9800 8400
	0    -1   -1   0   
$EndComp
$Comp
L R R428
U 1 1 56355EE8
P 6800 8150
F 0 "R428" V 6720 8150 40  0000 C CNN
F 1 "100R" V 6807 8151 40  0000 C CNN
F 2 "MyKiCadLibs-Footprints:SMD-1206" V 6730 8150 30  0000 C CNN
F 3 "" H 6800 8150 30  0000 C CNN
	1    6800 8150
	0    -1   -1   0   
$EndComp
$Comp
L GNDA #PWR041
U 1 1 56355EEE
P 10200 9000
F 0 "#PWR041" H 10200 8750 50  0001 C CNN
F 1 "GNDA" H 10200 8850 50  0000 C CNN
F 2 "" H 10200 9000 60  0000 C CNN
F 3 "" H 10200 9000 60  0000 C CNN
	1    10200 9000
	1    0    0    -1  
$EndComp
$Comp
L R R444
U 1 1 56355EF4
P 10200 8700
F 0 "R444" V 10120 8700 40  0000 C CNN
F 1 "100k" V 10207 8701 40  0000 C CNN
F 2 "MyKiCadLibs-Footprints:SMD-1206" V 10130 8700 30  0000 C CNN
F 3 "" H 10200 8700 30  0000 C CNN
	1    10200 8700
	1    0    0    -1  
$EndComp
$Comp
L IC-OPAMP-DUAL-SOIC8 U404
U 1 1 56355EFA
P 7850 6300
F 0 "U404" H 7900 6150 60  0000 L CNN
F 1 "IC-OPAMP-DUAL-SOIC8" H 7900 6050 60  0000 L CNN
F 2 "MyKiCadLibs-Footprints:IC_SOIC_8" H 7850 6300 60  0001 C CNN
F 3 "" H 7850 6300 60  0000 C CNN
	1    7850 6300
	1    0    0    -1  
$EndComp
$Comp
L R R435
U 1 1 56355F00
P 8250 6800
F 0 "R435" V 8170 6800 40  0000 C CNN
F 1 "680" V 8257 6801 40  0000 C CNN
F 2 "MyKiCadLibs-Footprints:SMD-1206" V 8180 6800 30  0000 C CNN
F 3 "" H 8250 6800 30  0000 C CNN
	1    8250 6800
	0    -1   -1   0   
$EndComp
$Comp
L R R439
U 1 1 56355F06
P 9000 6300
F 0 "R439" V 8920 6300 40  0000 C CNN
F 1 "100" V 9007 6301 40  0000 C CNN
F 2 "MyKiCadLibs-Footprints:SMD-1206" V 8930 6300 30  0000 C CNN
F 3 "" H 9000 6300 30  0000 C CNN
	1    9000 6300
	0    -1   -1   0   
$EndComp
$Comp
L GNDA #PWR042
U 1 1 56355F0C
P 7200 7050
F 0 "#PWR042" H 7200 6800 50  0001 C CNN
F 1 "GNDA" H 7200 6900 50  0000 C CNN
F 2 "" H 7200 7050 60  0000 C CNN
F 3 "" H 7200 7050 60  0000 C CNN
	1    7200 7050
	1    0    0    -1  
$EndComp
$Comp
L R R431
U 1 1 56355F12
P 7200 6750
F 0 "R431" V 7120 6750 40  0000 C CNN
F 1 "100k" V 7207 6751 40  0000 C CNN
F 2 "MyKiCadLibs-Footprints:SMD-1206" V 7130 6750 30  0000 C CNN
F 3 "" H 7200 6750 30  0000 C CNN
	1    7200 6750
	1    0    0    -1  
$EndComp
$Comp
L IC-OPAMP-DUAL-SOIC8 U404
U 2 1 56355F18
P 7850 8050
F 0 "U404" H 7900 7900 60  0000 L CNN
F 1 "IC-OPAMP-DUAL-SOIC8" H 7900 7800 60  0000 L CNN
F 2 "MyKiCadLibs-Footprints:IC_SOIC_8" H 7850 8050 60  0001 C CNN
F 3 "" H 7850 8050 60  0000 C CNN
	2    7850 8050
	1    0    0    -1  
$EndComp
$Comp
L R R436
U 1 1 56355F1E
P 8250 8550
F 0 "R436" V 8170 8550 40  0000 C CNN
F 1 "680" V 8257 8551 40  0000 C CNN
F 2 "MyKiCadLibs-Footprints:SMD-1206" V 8180 8550 30  0000 C CNN
F 3 "" H 8250 8550 30  0000 C CNN
	1    8250 8550
	0    -1   -1   0   
$EndComp
$Comp
L R R440
U 1 1 56355F24
P 9000 8050
F 0 "R440" V 8920 8050 40  0000 C CNN
F 1 "100" V 9007 8051 40  0000 C CNN
F 2 "MyKiCadLibs-Footprints:SMD-1206" V 8930 8050 30  0000 C CNN
F 3 "" H 9000 8050 30  0000 C CNN
	1    9000 8050
	0    -1   -1   0   
$EndComp
$Comp
L GNDA #PWR043
U 1 1 56355F2A
P 7200 8800
F 0 "#PWR043" H 7200 8550 50  0001 C CNN
F 1 "GNDA" H 7200 8650 50  0000 C CNN
F 2 "" H 7200 8800 60  0000 C CNN
F 3 "" H 7200 8800 60  0000 C CNN
	1    7200 8800
	1    0    0    -1  
$EndComp
$Comp
L R R432
U 1 1 56355F30
P 7200 8500
F 0 "R432" V 7120 8500 40  0000 C CNN
F 1 "100k" V 7207 8501 40  0000 C CNN
F 2 "MyKiCadLibs-Footprints:SMD-1206" V 7130 8500 30  0000 C CNN
F 3 "" H 7200 8500 30  0000 C CNN
	1    7200 8500
	1    0    0    -1  
$EndComp
Text Label 5600 5550 3    60   ~ 0
VCC2
Text Label 5600 7050 1    60   ~ 0
VEE2
Wire Wire Line
	2000 6200 2150 6200
Wire Wire Line
	5050 7300 5050 7250
Wire Wire Line
	2050 6200 2050 6750
Connection ~ 2050 6200
Wire Wire Line
	2050 7150 2050 7950
Connection ~ 2050 7950
Wire Wire Line
	1400 7950 1500 7950
Wire Wire Line
	1500 6200 1400 6200
Wire Wire Line
	2000 7950 2150 7950
Wire Wire Line
	2650 6200 2850 6200
Wire Wire Line
	2650 7950 2850 7950
Wire Wire Line
	2850 7700 2750 7700
Wire Wire Line
	2750 7700 2750 7950
Connection ~ 2750 7950
Wire Wire Line
	2850 6550 2750 6550
Wire Wire Line
	2750 6550 2750 6200
Connection ~ 2750 6200
Wire Wire Line
	6450 6700 6350 6700
Wire Wire Line
	6450 5900 6450 6700
Wire Wire Line
	6450 6300 6100 6300
Wire Wire Line
	5050 6400 5050 6750
Wire Wire Line
	5050 6700 5850 6700
Connection ~ 5050 6700
Wire Wire Line
	5100 6400 5050 6400
Wire Wire Line
	4650 6200 5100 6200
Wire Wire Line
	4750 6400 4750 6200
Connection ~ 4750 6200
Wire Wire Line
	4750 6850 4750 6800
Wire Wire Line
	4600 5900 6450 5900
Connection ~ 6450 6300
Wire Wire Line
	3250 6200 3450 6200
Wire Wire Line
	3950 6200 4150 6200
Wire Wire Line
	4200 5900 4050 5900
Wire Wire Line
	4050 5900 4050 6200
Connection ~ 4050 6200
Wire Wire Line
	3250 6550 3350 6550
Wire Wire Line
	3350 6550 3350 6200
Connection ~ 3350 6200
Wire Wire Line
	5050 9050 5050 9000
Wire Wire Line
	6450 8450 6350 8450
Wire Wire Line
	6450 7650 6450 8450
Wire Wire Line
	6450 8050 6100 8050
Wire Wire Line
	5050 8150 5050 8500
Wire Wire Line
	5050 8450 5850 8450
Connection ~ 5050 8450
Wire Wire Line
	5100 8150 5050 8150
Wire Wire Line
	4650 7950 5100 7950
Wire Wire Line
	4750 8150 4750 7950
Connection ~ 4750 7950
Wire Wire Line
	4750 8600 4750 8550
Wire Wire Line
	4600 7650 6450 7650
Connection ~ 6450 8050
Wire Wire Line
	3950 7950 4150 7950
Wire Wire Line
	4200 7650 4050 7650
Wire Wire Line
	4050 7650 4050 7950
Connection ~ 4050 7950
Wire Wire Line
	3250 7950 3450 7950
Wire Wire Line
	3250 7700 3350 7700
Wire Wire Line
	3350 7700 3350 7950
Connection ~ 3350 7950
Wire Wire Line
	9250 6300 9600 6300
Wire Wire Line
	9600 6650 9500 6650
Wire Wire Line
	9500 6650 9500 6300
Connection ~ 9500 6300
Wire Wire Line
	10000 6300 10650 6300
Wire Wire Line
	10000 6650 10200 6650
Wire Wire Line
	6550 6400 6450 6400
Connection ~ 6450 6400
Wire Wire Line
	10200 7250 10200 7200
Wire Wire Line
	10200 6300 10200 6700
Connection ~ 10200 6650
Wire Wire Line
	9250 8050 9600 8050
Wire Wire Line
	9600 8400 9500 8400
Wire Wire Line
	9500 8400 9500 8050
Connection ~ 9500 8050
Wire Wire Line
	10000 8050 10650 8050
Wire Wire Line
	10000 8400 10200 8400
Wire Wire Line
	6550 8150 6450 8150
Wire Wire Line
	10200 9000 10200 8950
Wire Wire Line
	10200 8050 10200 8450
Connection ~ 10200 8400
Connection ~ 6450 8150
Wire Wire Line
	10750 7200 10650 7200
Wire Wire Line
	10650 7200 10650 6300
Connection ~ 10200 6300
Wire Wire Line
	10750 7300 10650 7300
Wire Wire Line
	10650 7300 10650 8050
Connection ~ 10200 8050
Wire Wire Line
	7350 6200 7200 6200
Wire Wire Line
	7200 6200 7200 6500
Wire Wire Line
	7200 6400 7050 6400
Wire Wire Line
	7350 6400 7300 6400
Wire Wire Line
	7300 6400 7300 6800
Wire Wire Line
	7300 6800 8000 6800
Wire Wire Line
	8350 6300 8750 6300
Wire Wire Line
	8650 6300 8650 6800
Wire Wire Line
	8650 6800 8500 6800
Connection ~ 8650 6300
Wire Wire Line
	7200 7050 7200 7000
Connection ~ 7200 6400
Wire Wire Line
	7350 7950 7200 7950
Wire Wire Line
	7200 7950 7200 8250
Wire Wire Line
	7200 8150 7050 8150
Wire Wire Line
	7350 8150 7300 8150
Wire Wire Line
	7300 8150 7300 8550
Wire Wire Line
	7300 8550 8000 8550
Wire Wire Line
	8350 8050 8750 8050
Wire Wire Line
	8650 8050 8650 8550
Wire Wire Line
	8650 8550 8500 8550
Connection ~ 8650 8050
Wire Wire Line
	7200 8800 7200 8750
Connection ~ 7200 8150
Wire Wire Line
	5600 7050 5600 6650
Wire Wire Line
	5600 5550 5600 5950
Wire Wire Line
	6350 5250 6350 5350
Wire Wire Line
	6100 5350 6100 5250
Wire Wire Line
	5850 5250 6350 5250
Wire Wire Line
	5850 5250 5850 5350
Connection ~ 6100 5250
Wire Wire Line
	5850 5750 5850 5850
Wire Wire Line
	5850 5850 6350 5850
Wire Wire Line
	6100 5850 6100 5750
Wire Wire Line
	6350 5850 6350 5750
Connection ~ 6100 5850
Wire Wire Line
	7850 5550 7850 5950
Wire Wire Line
	7850 7050 7850 6650
$Comp
L C C430
U 1 1 56355FD6
P 8700 5700
F 0 "C430" H 8700 5800 40  0000 L CNN
F 1 "100n" H 8706 5615 40  0000 L CNN
F 2 "MyKiCadLibs-Footprints:SMD-0805" H 8738 5550 30  0001 C CNN
F 3 "" H 8700 5700 60  0000 C CNN
	1    8700 5700
	-1   0    0    1   
$EndComp
$Comp
L C C428
U 1 1 56355FDC
P 8450 5700
F 0 "C428" H 8450 5800 40  0000 L CNN
F 1 "1n" H 8456 5615 40  0000 L CNN
F 2 "MyKiCadLibs-Footprints:SMD-0805" H 8488 5550 30  0001 C CNN
F 3 "" H 8450 5700 60  0000 C CNN
	1    8450 5700
	-1   0    0    1   
$EndComp
$Comp
L C C426
U 1 1 56355FE2
P 8200 5700
F 0 "C426" H 8200 5800 40  0000 L CNN
F 1 "10u" H 8206 5615 40  0000 L CNN
F 2 "MyKiCadLibs-Footprints:SMD-0805" H 8238 5550 30  0001 C CNN
F 3 "" H 8200 5700 60  0000 C CNN
	1    8200 5700
	-1   0    0    1   
$EndComp
Wire Wire Line
	8700 5400 8700 5500
Wire Wire Line
	8450 5500 8450 5400
Wire Wire Line
	8200 5400 8700 5400
Wire Wire Line
	8200 5400 8200 5500
Connection ~ 8450 5400
Wire Wire Line
	8200 5900 8200 6000
Wire Wire Line
	8200 6000 8700 6000
Wire Wire Line
	8450 6000 8450 5900
Wire Wire Line
	8700 6000 8700 5900
Connection ~ 8450 6000
$Comp
L R R445
U 1 1 56357C75
P 15300 5550
F 0 "R445" V 15220 5550 40  0000 C CNN
F 1 "1" V 15307 5551 40  0000 C CNN
F 2 "MyKiCadLibs-Footprints:SMD-0805" V 15230 5550 30  0001 C CNN
F 3 "" H 15300 5550 30  0000 C CNN
	1    15300 5550
	0    1    1    0   
$EndComp
$Comp
L R R450
U 1 1 56357C7B
P 15350 7100
F 0 "R450" V 15270 7100 40  0000 C CNN
F 1 "1" V 15357 7101 40  0000 C CNN
F 2 "MyKiCadLibs-Footprints:SMD-0805" V 15280 7100 30  0001 C CNN
F 3 "" H 15350 7100 30  0000 C CNN
	1    15350 7100
	0    1    1    0   
$EndComp
$Comp
L C C452
U 1 1 56357C81
P 15300 6500
F 0 "C452" H 15300 6600 40  0000 L CNN
F 1 "100p" H 15306 6415 40  0000 L CNN
F 2 "MyKiCadLibs-Footprints:SMD-0805" H 15338 6350 30  0001 C CNN
F 3 "" H 15300 6500 60  0000 C CNN
	1    15300 6500
	0    -1   -1   0   
$EndComp
$Comp
L R R449
U 1 1 56357C87
P 15350 6900
F 0 "R449" V 15270 6900 40  0000 C CNN
F 1 "47" V 15357 6901 40  0000 C CNN
F 2 "MyKiCadLibs-Footprints:SMD-0805" V 15280 6900 30  0001 C CNN
F 3 "" H 15350 6900 30  0000 C CNN
	1    15350 6900
	0    1    1    0   
$EndComp
$Comp
L VEE #PWR044
U 1 1 56357C8D
P 15700 7150
F 0 "#PWR044" H 15700 7000 50  0001 C CNN
F 1 "VEE" H 15700 7300 50  0000 C CNN
F 2 "" H 15700 7150 60  0000 C CNN
F 3 "" H 15700 7150 60  0000 C CNN
	1    15700 7150
	-1   0    0    1   
$EndComp
$Comp
L VCC #PWR045
U 1 1 56357C93
P 15600 5500
F 0 "#PWR045" H 15600 5350 50  0001 C CNN
F 1 "VCC" H 15600 5650 50  0000 C CNN
F 2 "" H 15600 5500 60  0000 C CNN
F 3 "" H 15600 5500 60  0000 C CNN
	1    15600 5500
	1    0    0    -1  
$EndComp
$Comp
L GNDA #PWR046
U 1 1 56357C99
P 14850 6550
F 0 "#PWR046" H 14850 6300 50  0001 C CNN
F 1 "GNDA" H 14850 6400 50  0000 C CNN
F 2 "" H 14850 6550 60  0000 C CNN
F 3 "" H 14850 6550 60  0000 C CNN
	1    14850 6550
	1    0    0    -1  
$EndComp
$Comp
L R R446
U 1 1 56357C9F
P 15300 5750
F 0 "R446" V 15220 5750 40  0000 C CNN
F 1 "47" V 15307 5751 40  0000 C CNN
F 2 "MyKiCadLibs-Footprints:SMD-0805" V 15230 5750 30  0001 C CNN
F 3 "" H 15300 5750 30  0000 C CNN
	1    15300 5750
	0    1    1    0   
$EndComp
$Comp
L C C451
U 1 1 56357CA5
P 15300 6000
F 0 "C451" H 15300 6100 40  0000 L CNN
F 1 "100p" H 15306 5915 40  0000 L CNN
F 2 "MyKiCadLibs-Footprints:SMD-0805" H 15338 5850 30  0001 C CNN
F 3 "" H 15300 6000 60  0000 C CNN
	1    15300 6000
	0    -1   -1   0   
$EndComp
$Comp
L GNDA #PWR047
U 1 1 56357CAB
P 15000 6100
F 0 "#PWR047" H 15000 5850 50  0001 C CNN
F 1 "GNDA" H 15000 5950 50  0000 C CNN
F 2 "" H 15000 6100 60  0000 C CNN
F 3 "" H 15000 6100 60  0000 C CNN
	1    15000 6100
	1    0    0    -1  
$EndComp
$Comp
L C C449
U 1 1 56357CB1
P 14750 5850
F 0 "C449" H 14750 5950 40  0000 L CNN
F 1 "100n" H 14756 5765 40  0000 L CNN
F 2 "MyKiCadLibs-Footprints:SMD-0805" H 14788 5700 30  0001 C CNN
F 3 "" H 14750 5850 60  0000 C CNN
	1    14750 5850
	-1   0    0    1   
$EndComp
$Comp
L C C445
U 1 1 56357CB7
P 14450 5850
F 0 "C445" H 14450 5950 40  0000 L CNN
F 1 "1n" H 14456 5765 40  0000 L CNN
F 2 "MyKiCadLibs-Footprints:SMD-0805" H 14488 5700 30  0001 C CNN
F 3 "" H 14450 5850 60  0000 C CNN
	1    14450 5850
	-1   0    0    1   
$EndComp
$Comp
L GNDA #PWR048
U 1 1 56357CBD
P 14750 6100
F 0 "#PWR048" H 14750 5850 50  0001 C CNN
F 1 "GNDA" H 14750 5950 50  0000 C CNN
F 2 "" H 14750 6100 60  0000 C CNN
F 3 "" H 14750 6100 60  0000 C CNN
	1    14750 6100
	1    0    0    -1  
$EndComp
$Comp
L GNDA #PWR049
U 1 1 56357CC3
P 14450 6100
F 0 "#PWR049" H 14450 5850 50  0001 C CNN
F 1 "GNDA" H 14450 5950 50  0000 C CNN
F 2 "" H 14450 6100 60  0000 C CNN
F 3 "" H 14450 6100 60  0000 C CNN
	1    14450 6100
	1    0    0    -1  
$EndComp
$Comp
L CP1 C441
U 1 1 56357CC9
P 14050 5850
F 0 "C441" H 14100 5950 50  0000 L CNN
F 1 "100u" H 14100 5750 50  0000 L CNN
F 2 "MyKiCadLibs-Footprints:CAP-TH-D10mmP5mm" H 14050 5850 60  0001 C CNN
F 3 "" H 14050 5850 60  0000 C CNN
	1    14050 5850
	1    0    0    -1  
$EndComp
$Comp
L GNDA #PWR050
U 1 1 56357CCF
P 14050 6100
F 0 "#PWR050" H 14050 5850 50  0001 C CNN
F 1 "GNDA" H 14050 5950 50  0000 C CNN
F 2 "" H 14050 6100 60  0000 C CNN
F 3 "" H 14050 6100 60  0000 C CNN
	1    14050 6100
	1    0    0    -1  
$EndComp
$Comp
L C C447
U 1 1 56357CD5
P 14650 6800
F 0 "C447" H 14650 6900 40  0000 L CNN
F 1 "100n" H 14656 6715 40  0000 L CNN
F 2 "MyKiCadLibs-Footprints:SMD-0805" H 14688 6650 30  0001 C CNN
F 3 "" H 14650 6800 60  0000 C CNN
	1    14650 6800
	-1   0    0    1   
$EndComp
$Comp
L C C443
U 1 1 56357CDB
P 14350 6800
F 0 "C443" H 14350 6900 40  0000 L CNN
F 1 "1n" H 14356 6715 40  0000 L CNN
F 2 "MyKiCadLibs-Footprints:SMD-0805" H 14388 6650 30  0001 C CNN
F 3 "" H 14350 6800 60  0000 C CNN
	1    14350 6800
	-1   0    0    1   
$EndComp
$Comp
L CP1 C439
U 1 1 56357CE1
P 14000 6800
F 0 "C439" H 14050 6900 50  0000 L CNN
F 1 "100u" H 14050 6700 50  0000 L CNN
F 2 "MyKiCadLibs-Footprints:CAP-TH-D10mmP5mm" H 14000 6800 60  0001 C CNN
F 3 "" H 14000 6800 60  0000 C CNN
	1    14000 6800
	1    0    0    -1  
$EndComp
Wire Wire Line
	15100 6900 15050 6900
Wire Wire Line
	14000 6500 15100 6500
Wire Wire Line
	15700 6500 15700 6900
Wire Wire Line
	15700 6900 15600 6900
Wire Wire Line
	15050 6900 15050 7100
Wire Wire Line
	14000 7100 15100 7100
Wire Wire Line
	15600 7100 15700 7100
Wire Wire Line
	15700 7100 15700 7150
Connection ~ 15050 7100
Wire Wire Line
	14050 5550 15050 5550
Wire Wire Line
	14850 6550 14850 6500
Wire Wire Line
	15600 5500 15600 5550
Wire Wire Line
	15600 5550 15550 5550
Wire Wire Line
	15050 5750 15000 5750
Wire Wire Line
	15000 5750 15000 5550
Connection ~ 15000 5550
Wire Wire Line
	15000 6100 15000 6000
Wire Wire Line
	15000 6000 15100 6000
Wire Wire Line
	15500 6000 15600 6000
Wire Wire Line
	15600 6000 15600 5750
Wire Wire Line
	15600 5750 15550 5750
Wire Wire Line
	14750 5650 14750 5550
Connection ~ 14750 5550
Wire Wire Line
	14450 5650 14450 5550
Connection ~ 14450 5550
Wire Wire Line
	14750 6100 14750 6050
Wire Wire Line
	14450 6100 14450 6050
Wire Wire Line
	14050 5550 14050 5650
Wire Wire Line
	14050 6100 14050 6050
Wire Wire Line
	14650 6600 14650 6500
Wire Wire Line
	14350 6600 14350 6500
Wire Wire Line
	14650 7000 14650 7100
Wire Wire Line
	14350 7000 14350 7100
Wire Wire Line
	15500 6500 15700 6500
Connection ~ 14850 6500
Connection ~ 14650 6500
Connection ~ 14350 6500
Wire Wire Line
	14000 6500 14000 6600
Wire Wire Line
	14000 7000 14000 7100
Connection ~ 14350 7100
Connection ~ 14650 7100
Text Label 14050 5550 0    60   ~ 0
VCC2
Text Label 14000 7100 0    60   ~ 0
VEE2
Text Label 7850 7050 1    60   ~ 0
VEE2
Text Label 7850 5550 3    60   ~ 0
VCC2
Text Label 8700 5400 2    60   ~ 0
VCC2
Text Label 6350 5250 2    60   ~ 0
VCC2
Text Label 8700 6000 2    60   ~ 0
VEE2
Text Label 6350 5850 2    60   ~ 0
VEE2
Text Notes 11850 10550 0    59   ~ 0
Copyright Paul Janicki 2015\n\nLicensed under the TAPR Open Hardware License (www.tapr.org/OHL).\n\nThis documentation is distributed\nWITHOUT ANY EXPRESS OR IMPLIED WARRANTY, INCLUDING OF\nMERCHANTABILITY, SATISFACTORY QUALITY AND FITNESS FOR A\nPARTICULAR PURPOSE.\n
$EndSCHEMATC
