EESchema Schematic File Version 2
LIBS:power
LIBS:MyKiCadLibs-Lib
EELAYER 25 0
EELAYER END
$Descr A4 11693 8268
encoding utf-8
Sheet 2 5
Title ""
Date "10 feb 2015"
Rev ""
Comp ""
Comment1 ""
Comment2 ""
Comment3 ""
Comment4 ""
$EndDescr
Text HLabel 5200 1450 0    60   BiDi ~ 0
I2C_SCL
Text HLabel 5200 1550 0    60   BiDi ~ 0
I2C_SDA
$Comp
L R R205
U 1 1 54E4B9FE
P 6200 4100
F 0 "R205" V 6250 4400 40  0000 C CNN
F 1 "N/F" V 6207 4101 40  0000 C CNN
F 2 "MyKiCadLibs-Footprints:SMD-0805" V 6130 4100 30  0001 C CNN
F 3 "~" H 6200 4100 30  0000 C CNN
	1    6200 4100
	-1   0    0    1   
$EndComp
$Comp
L R R206
U 1 1 54E4BA04
P 6350 4100
F 0 "R206" V 6400 4400 40  0000 C CNN
F 1 "N/F" V 6357 4101 40  0000 C CNN
F 2 "MyKiCadLibs-Footprints:SMD-0805" V 6280 4100 30  0001 C CNN
F 3 "~" H 6350 4100 30  0000 C CNN
	1    6350 4100
	-1   0    0    1   
$EndComp
$Comp
L R R208
U 1 1 54E4BA0A
P 6500 4100
F 0 "R208" V 6550 4400 40  0000 C CNN
F 1 "N/F" V 6507 4101 40  0000 C CNN
F 2 "MyKiCadLibs-Footprints:SMD-0805" V 6430 4100 30  0001 C CNN
F 3 "~" H 6500 4100 30  0000 C CNN
	1    6500 4100
	-1   0    0    1   
$EndComp
$Comp
L R R202
U 1 1 54E4BA76
P 5850 3400
F 0 "R202" V 5900 3700 40  0000 C CNN
F 1 "0R" V 5857 3401 40  0000 C CNN
F 2 "MyKiCadLibs-Footprints:SMD-0805" V 5780 3400 30  0001 C CNN
F 3 "~" H 5850 3400 30  0000 C CNN
	1    5850 3400
	0    -1   -1   0   
$EndComp
$Comp
L R R203
U 1 1 54E4BA7C
P 5850 3600
F 0 "R203" V 5900 3900 40  0000 C CNN
F 1 "0R" V 5857 3601 40  0000 C CNN
F 2 "MyKiCadLibs-Footprints:SMD-0805" V 5780 3600 30  0001 C CNN
F 3 "~" H 5850 3600 30  0000 C CNN
	1    5850 3600
	0    -1   -1   0   
$EndComp
$Comp
L R R204
U 1 1 54E4BA82
P 5850 3800
F 0 "R204" V 5900 4100 40  0000 C CNN
F 1 "0R" V 5857 3801 40  0000 C CNN
F 2 "MyKiCadLibs-Footprints:SMD-0805" V 5780 3800 30  0001 C CNN
F 3 "~" H 5850 3800 30  0000 C CNN
	1    5850 3800
	0    -1   -1   0   
$EndComp
$Comp
L GNDD #PWR01
U 1 1 54E4C333
P 6200 4600
F 0 "#PWR01" H 6200 4350 60  0001 C CNN
F 1 "GNDD" H 6200 4450 60  0000 C CNN
F 2 "" H 6200 4600 60  0000 C CNN
F 3 "" H 6200 4600 60  0000 C CNN
	1    6200 4600
	1    0    0    -1  
$EndComp
$Comp
L CONN_02X05 P201
U 1 1 54E3B834
P 4900 3600
F 0 "P201" H 4900 3900 50  0000 C CNN
F 1 "CONN_02X05" H 4900 3300 50  0000 C CNN
F 2 "MyKiCadLibs-Footprints:CONN_DIL_2X5_BOX" H 4900 2400 60  0001 C CNN
F 3 "" H 4900 2400 60  0000 C CNN
	1    4900 3600
	1    0    0    -1  
$EndComp
$Comp
L GNDD #PWR02
U 1 1 54E3B83E
P 5200 3850
F 0 "#PWR02" H 5200 3600 60  0001 C CNN
F 1 "GNDD" H 5200 3700 60  0000 C CNN
F 2 "" H 5200 3850 60  0000 C CNN
F 3 "" H 5200 3850 60  0000 C CNN
	1    5200 3850
	-1   0    0    -1  
$EndComp
Text Notes 11850 10550 0    59   ~ 0
Copyright Paul Janicki 2015\n\nLicensed under the TAPR Open Hardware License (www.tapr.org/OHL).\n\nThis documentation is distributed\nWITHOUT ANY EXPRESS OR IMPLIED WARRANTY, INCLUDING OF\nMERCHANTABILITY, SATISFACTORY QUALITY AND FITNESS FOR A\nPARTICULAR PURPOSE.\n
NoConn ~ 6050 1550
NoConn ~ 6050 1450
$Comp
L GNDD #PWR03
U 1 1 55002B18
P 4600 3850
F 0 "#PWR03" H 4600 3600 60  0001 C CNN
F 1 "GNDD" H 4600 3700 60  0000 C CNN
F 2 "" H 4600 3850 60  0000 C CNN
F 3 "" H 4600 3850 60  0000 C CNN
	1    4600 3850
	-1   0    0    -1  
$EndComp
$Comp
L R R207
U 1 1 551A45D5
P 6450 1650
F 0 "R207" V 6550 1750 40  0000 C CNN
F 1 "0R" V 6457 1651 40  0000 C CNN
F 2 "MyKiCadLibs-Footprints:SMD-0805" V 6380 1650 30  0001 C CNN
F 3 "~" H 6450 1650 30  0000 C CNN
	1    6450 1650
	0    -1   -1   0   
$EndComp
Text HLabel 6800 1650 2    60   Output ~ 0
RST
Text Label 7050 3200 2    60   ~ 0
MCLK
$Comp
L R R201
U 1 1 556235CD
P 5850 3200
F 0 "R201" V 5900 3500 40  0000 C CNN
F 1 "0R" V 5857 3201 40  0000 C CNN
F 2 "MyKiCadLibs-Footprints:SMD-0805" V 5780 3200 30  0001 C CNN
F 3 "~" H 5850 3200 30  0000 C CNN
	1    5850 3200
	0    -1   -1   0   
$EndComp
Wire Wire Line
	6500 3400 6500 3850
Wire Wire Line
	5150 3400 5350 3400
Wire Wire Line
	5200 3800 5150 3800
Wire Wire Line
	5400 3800 5600 3800
Wire Wire Line
	5400 3700 5400 3800
Wire Wire Line
	5150 3700 5400 3700
Wire Wire Line
	5600 3600 5150 3600
Wire Wire Line
	5400 3400 5600 3400
Wire Wire Line
	5400 3500 5400 3400
Wire Wire Line
	5150 3500 5400 3500
Connection ~ 6500 3400
Wire Wire Line
	6100 3400 7050 3400
Connection ~ 6350 3600
Wire Wire Line
	6100 3600 7050 3600
Wire Wire Line
	6350 3850 6350 3600
Connection ~ 6200 3800
Wire Wire Line
	6100 3800 7050 3800
Wire Wire Line
	6200 3850 6200 3800
Wire Wire Line
	6200 4350 6200 4600
Connection ~ 6350 4500
Wire Wire Line
	6500 4500 6500 4350
Connection ~ 6200 4500
Wire Wire Line
	6200 4500 6500 4500
Wire Wire Line
	6350 4350 6350 4500
Wire Wire Line
	5200 1550 5550 1550
Wire Wire Line
	5200 1450 5550 1450
Wire Wire Line
	4600 3400 4600 3850
Wire Wire Line
	4600 3800 4650 3800
Wire Wire Line
	4600 3700 4650 3700
Connection ~ 4600 3800
Wire Wire Line
	4600 3600 4650 3600
Connection ~ 4600 3700
Wire Wire Line
	4600 3500 4650 3500
Connection ~ 4600 3600
Wire Wire Line
	4600 3400 4650 3400
Connection ~ 4600 3500
Wire Wire Line
	6800 1650 6700 1650
Wire Wire Line
	6200 1650 6050 1650
Wire Wire Line
	5350 3400 5350 3200
Wire Wire Line
	5350 3200 5600 3200
Wire Wire Line
	5200 3800 5200 3850
Wire Wire Line
	7050 3200 6100 3200
Text Label 7050 3400 2    60   ~ 0
LRCLK
Text Label 7050 3600 2    60   ~ 0
BCLK
Text Label 7050 3800 2    60   ~ 0
SDATA
Text HLabel 7050 3400 2    60   Output ~ 0
LRCLK1
Text HLabel 7050 3200 2    60   Output ~ 0
MCLK1
Text HLabel 7050 3600 2    60   Output ~ 0
BCLK1
Text HLabel 7050 3800 2    60   Output ~ 0
SDATA1
$Comp
L GNDD #PWR04
U 1 1 561756E3
P 6150 2100
F 0 "#PWR04" H 6150 1850 60  0001 C CNN
F 1 "GNDD" H 6150 1950 60  0000 C CNN
F 2 "" H 6150 2100 60  0000 C CNN
F 3 "" H 6150 2100 60  0000 C CNN
	1    6150 2100
	1    0    0    -1  
$EndComp
Wire Wire Line
	6150 2100 6150 1850
Wire Wire Line
	6150 1850 6050 1850
Text Notes 4600 1100 0    118  ~ 0
I2C/SPI Connector
Text HLabel 5200 1650 0    60   Input ~ 0
SPI_MISO
Text HLabel 5200 1750 0    60   Output ~ 0
SPI_SCLK
Text HLabel 5200 1850 0    60   Output ~ 0
SPI_SS1
Wire Wire Line
	5200 1650 5550 1650
Wire Wire Line
	5200 1750 5550 1750
Wire Wire Line
	5550 1850 5200 1850
Text HLabel 6800 1750 2    60   Output ~ 0
SPI_MOSI
Wire Wire Line
	6800 1750 6050 1750
$Comp
L CONN_02X07 P202
U 1 1 5628BD2D
P 5800 1550
F 0 "P202" H 5800 1850 50  0000 C CNN
F 1 "CONN_02X07" H 5800 1050 50  0000 C CNN
F 2 "MyKiCadLibs-Footprints:CONN_DIL_2X7_BOX" H 5800 350 60  0001 C CNN
F 3 "" H 5800 350 60  0000 C CNN
	1    5800 1550
	1    0    0    -1  
$EndComp
Text HLabel 5200 1350 0    60   Output ~ 0
SPI_SS2
Text HLabel 5200 1950 0    60   Output ~ 0
SPI_SS4
Text HLabel 6300 1950 2    60   Output ~ 0
SPI_SS5
Wire Wire Line
	6050 1950 6300 1950
Wire Wire Line
	5550 1950 5200 1950
Wire Wire Line
	5200 1350 5550 1350
Text HLabel 6300 1350 2    60   Output ~ 0
SPI_SS3
Wire Wire Line
	6300 1350 6050 1350
Text Notes 4600 2950 0    118  ~ 0
I2S Connector
Text Notes 7000 7100 0    59   ~ 0
Copyright Paul Janicki 2015\n\nLicensed under the TAPR Open Hardware License (www.tapr.org/OHL).\n\nThis documentation is distributed\nWITHOUT ANY EXPRESS OR IMPLIED WARRANTY, INCLUDING OF\nMERCHANTABILITY, SATISFACTORY QUALITY AND FITNESS FOR A\nPARTICULAR PURPOSE.\n
$EndSCHEMATC
