EESchema Schematic File Version 2
LIBS:power
LIBS:MyKiCadLibs-Lib
EELAYER 25 0
EELAYER END
$Descr A4 11693 8268
encoding utf-8
Sheet 1 5
Title ""
Date ""
Rev ""
Comp ""
Comment1 ""
Comment2 ""
Comment3 ""
Comment4 ""
$EndDescr
$Sheet
S 1300 2050 1650 1950
U 5616730E
F0 "Connectors" 60
F1 "Connectors.sch" 60
F2 "I2C_SCL" B R 2950 2200 60 
F3 "I2C_SDA" B R 2950 2300 60 
F4 "RST" O R 2950 3350 60 
F5 "LRCLK1" O R 2950 3750 60 
F6 "MCLK1" O R 2950 3550 60 
F7 "BCLK1" O R 2950 3650 60 
F8 "SDATA1" O R 2950 3850 60 
F9 "SPI_MISO" I R 2950 2550 60 
F10 "SPI_SCLK" O R 2950 2450 60 
F11 "SPI_SS1" O R 2950 2800 60 
F12 "SPI_MOSI" O R 2950 2650 60 
F13 "SPI_SS2" O R 2950 2900 60 
F14 "SPI_SS4" O R 2950 3100 60 
F15 "SPI_SS5" O R 2950 3200 60 
F16 "SPI_SS3" O R 2950 3000 60 
$EndSheet
$Sheet
S 1350 6050 1800 1050
U 562E6585
F0 "PowerSupply" 60
F1 "PowerSupply.sch" 60
$EndSheet
$Sheet
S 8450 2250 1850 1050
U 562FC729
F0 "AnalogueFilters" 60
F1 "AnalogueFilters.sch" 60
F2 "P1" I L 8450 2350 60 
F3 "N1" I L 8450 2450 60 
F4 "P2" I L 8450 2600 60 
F5 "N2" I L 8450 2700 60 
$EndSheet
$Sheet
S 5350 2200 2500 1600
U 56336A3E
F0 "AK4490Stereo" 60
F1 "AK4490Stereo.sch" 60
F2 "WCK1" I L 5350 3200 60 
F3 "CCLK/SCL" I L 5350 2300 60 
F4 "CDTI/SDA" I L 5350 2400 60 
F5 "DZFL1" O L 5350 3450 60 
F6 "DZFR1" O L 5350 3550 60 
F7 "MCLK1" I L 5350 2700 60 
F8 "BICK1" I L 5350 2850 60 
F9 "SDATA1" I L 5350 3050 60 
F10 "LRCK1" I L 5350 2950 60 
F11 "ALP1" O R 7850 2300 60 
F12 "ALN1" O R 7850 2400 60 
F13 "ARP1" O R 7850 2750 60 
F14 "ARN1" O R 7850 2850 60 
F15 "SMUTE/CSN" I L 5350 2550 60 
F16 "MAN_RST_IN" I L 5350 3700 60 
$EndSheet
$Comp
L R R101
U 1 1 5638FA6E
P 3400 2200
F 0 "R101" V 3450 2500 40  0000 C CNN
F 1 "N/F" V 3407 2201 40  0000 C CNN
F 2 "MyKiCadLibs-Footprints:SMD-0805" V 3330 2200 30  0001 C CNN
F 3 "~" H 3400 2200 30  0000 C CNN
	1    3400 2200
	0    -1   -1   0   
$EndComp
$Comp
L R R102
U 1 1 563902AC
P 3400 2300
F 0 "R102" V 3450 2600 40  0000 C CNN
F 1 "N/F" V 3407 2301 40  0000 C CNN
F 2 "MyKiCadLibs-Footprints:SMD-0805" V 3330 2300 30  0001 C CNN
F 3 "~" H 3400 2300 30  0000 C CNN
	1    3400 2300
	0    -1   -1   0   
$EndComp
$Comp
L R R103
U 1 1 56390388
P 3400 2450
F 0 "R103" V 3450 2750 40  0000 C CNN
F 1 "N/F" V 3407 2451 40  0000 C CNN
F 2 "MyKiCadLibs-Footprints:SMD-0805" V 3330 2450 30  0001 C CNN
F 3 "~" H 3400 2450 30  0000 C CNN
	1    3400 2450
	0    -1   -1   0   
$EndComp
$Comp
L R R104
U 1 1 56390469
P 3400 2650
F 0 "R104" V 3450 2950 40  0000 C CNN
F 1 "N/F" V 3407 2651 40  0000 C CNN
F 2 "MyKiCadLibs-Footprints:SMD-0805" V 3330 2650 30  0001 C CNN
F 3 "~" H 3400 2650 30  0000 C CNN
	1    3400 2650
	0    -1   -1   0   
$EndComp
$Comp
L R R105
U 1 1 5639062B
P 3400 2800
F 0 "R105" V 3450 3100 40  0000 C CNN
F 1 "N/F" V 3407 2801 40  0000 C CNN
F 2 "MyKiCadLibs-Footprints:SMD-0805" V 3330 2800 30  0001 C CNN
F 3 "~" H 3400 2800 30  0000 C CNN
	1    3400 2800
	0    -1   -1   0   
$EndComp
$Comp
L R R106
U 1 1 56390712
P 3400 2900
F 0 "R106" V 3450 3200 40  0000 C CNN
F 1 "N/F" V 3407 2901 40  0000 C CNN
F 2 "MyKiCadLibs-Footprints:SMD-0805" V 3330 2900 30  0001 C CNN
F 3 "~" H 3400 2900 30  0000 C CNN
	1    3400 2900
	0    -1   -1   0   
$EndComp
$Comp
L R R107
U 1 1 563907FA
P 3400 3000
F 0 "R107" V 3450 3300 40  0000 C CNN
F 1 "N/F" V 3407 3001 40  0000 C CNN
F 2 "MyKiCadLibs-Footprints:SMD-0805" V 3330 3000 30  0001 C CNN
F 3 "~" H 3400 3000 30  0000 C CNN
	1    3400 3000
	0    -1   -1   0   
$EndComp
$Comp
L R R108
U 1 1 563908E5
P 3400 3100
F 0 "R108" V 3450 3400 40  0000 C CNN
F 1 "N/F" V 3407 3101 40  0000 C CNN
F 2 "MyKiCadLibs-Footprints:SMD-0805" V 3330 3100 30  0001 C CNN
F 3 "~" H 3400 3100 30  0000 C CNN
	1    3400 3100
	0    -1   -1   0   
$EndComp
$Comp
L R R109
U 1 1 563909D3
P 3400 3200
F 0 "R109" V 3450 3500 40  0000 C CNN
F 1 "N/F" V 3407 3201 40  0000 C CNN
F 2 "MyKiCadLibs-Footprints:SMD-0805" V 3330 3200 30  0001 C CNN
F 3 "~" H 3400 3200 30  0000 C CNN
	1    3400 3200
	0    -1   -1   0   
$EndComp
Text Label 3750 2800 2    60   ~ 0
CS
Text Label 3900 2200 2    60   ~ 0
SCL
Text Label 3900 2450 2    60   ~ 0
SCL
Text Label 5050 2300 0    60   ~ 0
SCL
Text Label 5050 2400 0    60   ~ 0
SDA
Text Label 3900 2300 2    60   ~ 0
SDA
Text Label 3900 2650 2    60   ~ 0
SDA
Text Label 5050 2550 0    60   ~ 0
CS
Text Label 3200 3350 2    60   ~ 0
RST
Text Label 5050 3700 0    60   ~ 0
RST
Text Label 3450 3550 2    60   ~ 0
MCLK
Text Label 3450 3650 2    60   ~ 0
BCLK
Text Label 3450 3750 2    60   ~ 0
LRCLK
Text Label 3450 3850 2    60   ~ 0
SDATA
Text Label 4950 2700 0    60   ~ 0
MCLK
Text Label 4950 2850 0    60   ~ 0
BCLK
Text Label 4950 2950 0    60   ~ 0
LRCLK
Text Label 4950 3050 0    60   ~ 0
SDATA
Wire Wire Line
	7850 2300 8150 2300
Wire Wire Line
	8150 2300 8150 2350
Wire Wire Line
	8150 2350 8450 2350
Wire Wire Line
	8450 2450 8100 2450
Wire Wire Line
	8100 2450 8100 2400
Wire Wire Line
	8100 2400 7850 2400
Wire Wire Line
	7850 2750 8100 2750
Wire Wire Line
	8100 2750 8100 2600
Wire Wire Line
	8100 2600 8450 2600
Wire Wire Line
	8450 2700 8150 2700
Wire Wire Line
	8150 2700 8150 2850
Wire Wire Line
	8150 2850 7850 2850
Wire Wire Line
	3750 3200 3650 3200
Wire Wire Line
	3750 3100 3650 3100
Wire Wire Line
	3750 3000 3650 3000
Connection ~ 3750 3100
Wire Wire Line
	3650 2900 3750 2900
Connection ~ 3750 3000
Wire Wire Line
	3650 2800 3750 2800
Connection ~ 3750 2900
Wire Wire Line
	2950 2800 3150 2800
Wire Wire Line
	3150 2650 2950 2650
Wire Wire Line
	2950 2450 3150 2450
Wire Wire Line
	3150 2900 2950 2900
Wire Wire Line
	2950 3000 3150 3000
Wire Wire Line
	3150 3100 2950 3100
Wire Wire Line
	2950 3200 3150 3200
Wire Wire Line
	3750 2800 3750 3200
Wire Wire Line
	2950 2300 3150 2300
Wire Wire Line
	3150 2200 2950 2200
Wire Wire Line
	3900 2450 3650 2450
Wire Wire Line
	3650 2200 3900 2200
Wire Wire Line
	5050 2300 5350 2300
Wire Wire Line
	3900 2650 3650 2650
Wire Wire Line
	5050 2400 5350 2400
Wire Wire Line
	3900 2300 3650 2300
Wire Wire Line
	5050 2550 5350 2550
Wire Wire Line
	5050 3700 5350 3700
Wire Wire Line
	3200 3350 2950 3350
Wire Wire Line
	4950 2700 5350 2700
Wire Wire Line
	5350 2850 4950 2850
Wire Wire Line
	4950 2950 5350 2950
Wire Wire Line
	5350 3050 4950 3050
Wire Wire Line
	3450 3550 2950 3550
Wire Wire Line
	2950 3650 3450 3650
Wire Wire Line
	3450 3750 2950 3750
Wire Wire Line
	2950 3850 3450 3850
Text Notes 7000 7100 0    59   ~ 0
Copyright Paul Janicki 2015\n\nLicensed under the TAPR Open Hardware License (www.tapr.org/OHL).\n\nThis documentation is distributed\nWITHOUT ANY EXPRESS OR IMPLIED WARRANTY, INCLUDING OF\nMERCHANTABILITY, SATISFACTORY QUALITY AND FITNESS FOR A\nPARTICULAR PURPOSE.\n
$EndSCHEMATC
