EESchema Schematic File Version 2
LIBS:power
LIBS:MyKiCadLibs-Lib
EELAYER 25 0
EELAYER END
$Descr A4 11693 8268
encoding utf-8
Sheet 3 5
Title ""
Date ""
Rev ""
Comp ""
Comment1 ""
Comment2 ""
Comment3 ""
Comment4 ""
$EndDescr
$Comp
L CONN_2x1 P301
U 1 1 562E6C0C
P 1300 1900
F 0 "P301" V 1795 1745 40  0000 C CNN
F 1 "CONN_2x1" V 1740 1860 40  0000 C CNN
F 2 "MyKiCadLibs-Footprints:CONN-2WAY-2.54mm-3.81mm-SPACING" H 1640 1790 60  0001 C CNN
F 3 "" H 1640 1790 60  0000 C CNN
	1    1300 1900
	-1   0    0    -1  
$EndComp
$Comp
L CONN_2x1 P302
U 1 1 562E6D66
P 1300 2200
F 0 "P302" V 1795 2045 40  0000 C CNN
F 1 "CONN_2x1" V 1740 2160 40  0000 C CNN
F 2 "MyKiCadLibs-Footprints:CONN-2WAY-2.54mm-3.81mm-SPACING" H 1640 2090 60  0001 C CNN
F 3 "" H 1640 2090 60  0000 C CNN
	1    1300 2200
	-1   0    0    -1  
$EndComp
$Comp
L VCC #PWR05
U 1 1 562E6E19
P 4300 850
F 0 "#PWR05" H 4300 700 50  0001 C CNN
F 1 "VCC" H 4300 1000 50  0000 C CNN
F 2 "" H 4300 850 60  0000 C CNN
F 3 "" H 4300 850 60  0000 C CNN
	1    4300 850 
	1    0    0    -1  
$EndComp
$Comp
L VEE #PWR06
U 1 1 562E6E31
P 4600 3550
F 0 "#PWR06" H 4600 3400 50  0001 C CNN
F 1 "VEE" H 4600 3700 50  0000 C CNN
F 2 "" H 4600 3550 60  0000 C CNN
F 3 "" H 4600 3550 60  0000 C CNN
	1    4600 3550
	-1   0    0    1   
$EndComp
$Comp
L GNDA #PWR07
U 1 1 562E6E50
P 4150 2300
F 0 "#PWR07" H 4150 2050 50  0001 C CNN
F 1 "GNDA" H 4150 2150 50  0000 C CNN
F 2 "" H 4150 2300 60  0000 C CNN
F 3 "" H 4150 2300 60  0000 C CNN
	1    4150 2300
	1    0    0    -1  
$EndComp
$Comp
L GNDD #PWR08
U 1 1 562E6E68
P 4400 2300
F 0 "#PWR08" H 4400 2050 50  0001 C CNN
F 1 "GNDD" H 4400 2150 50  0000 C CNN
F 2 "" H 4400 2300 60  0000 C CNN
F 3 "" H 4400 2300 60  0000 C CNN
	1    4400 2300
	1    0    0    -1  
$EndComp
$Comp
L PWR_FLAG #FLG09
U 1 1 562E6E80
P 4600 850
F 0 "#FLG09" H 4600 945 50  0001 C CNN
F 1 "PWR_FLAG" H 4600 1030 50  0000 C CNN
F 2 "" H 4600 850 60  0000 C CNN
F 3 "" H 4600 850 60  0000 C CNN
	1    4600 850 
	1    0    0    -1  
$EndComp
$Comp
L PWR_FLAG #FLG010
U 1 1 562E6E98
P 4300 3550
F 0 "#FLG010" H 4300 3645 50  0001 C CNN
F 1 "PWR_FLAG" H 4300 3730 50  0000 C CNN
F 2 "" H 4300 3550 60  0000 C CNN
F 3 "" H 4300 3550 60  0000 C CNN
	1    4300 3550
	-1   0    0    1   
$EndComp
$Comp
L PWR_FLAG #FLG011
U 1 1 562E6EA9
P 4750 2300
F 0 "#FLG011" H 4750 2395 50  0001 C CNN
F 1 "PWR_FLAG" H 4750 2480 50  0000 C CNN
F 2 "" H 4750 2300 60  0000 C CNN
F 3 "" H 4750 2300 60  0000 C CNN
	1    4750 2300
	-1   0    0    1   
$EndComp
$Comp
L INDUCTOR L302
U 1 1 562E788F
P 2700 950
F 0 "L302" V 2650 950 40  0000 C CNN
F 1 "600R@100MHz" V 2800 950 40  0000 C CNN
F 2 "MyKiCadLibs-Footprints:SMD-0805" H 2700 950 60  0001 C CNN
F 3 "" H 2700 950 60  0000 C CNN
	1    2700 950 
	0    -1   -1   0   
$EndComp
$Comp
L INDUCTOR L303
U 1 1 562E8053
P 2700 3450
F 0 "L303" V 2650 3450 40  0000 C CNN
F 1 "600R@100MHz" V 2800 3450 40  0000 C CNN
F 2 "MyKiCadLibs-Footprints:SMD-0805" H 2700 3450 60  0001 C CNN
F 3 "" H 2700 3450 60  0000 C CNN
	1    2700 3450
	0    -1   1    0   
$EndComp
$Comp
L R R303
U 1 1 562E805A
P 3100 3100
F 0 "R303" V 3020 3100 40  0000 C CNN
F 1 "47R" V 3107 3101 40  0000 C CNN
F 2 "MyKiCadLibs-Footprints:SMD-0805" V 3030 3100 30  0001 C CNN
F 3 "" H 3100 3100 30  0000 C CNN
	1    3100 3100
	1    0    0    -1  
$EndComp
$Comp
L C C309
U 1 1 562E8061
P 3100 2550
F 0 "C309" H 3100 2650 40  0000 L CNN
F 1 "100p" H 3106 2465 40  0000 L CNN
F 2 "MyKiCadLibs-Footprints:SMD-0805" H 3138 2400 30  0001 C CNN
F 3 "" H 3100 2550 60  0000 C CNN
	1    3100 2550
	-1   0    0    -1  
$EndComp
$Comp
L R R302
U 1 1 562E8A2F
P 3050 1850
F 0 "R302" V 2970 1850 40  0000 C CNN
F 1 "47R" V 3057 1851 40  0000 C CNN
F 2 "MyKiCadLibs-Footprints:SMD-0805" V 2980 1850 30  0001 C CNN
F 3 "" H 3050 1850 30  0000 C CNN
	1    3050 1850
	1    0    0    -1  
$EndComp
$Comp
L C C308
U 1 1 562E8A35
P 3050 1300
F 0 "C308" H 3050 1400 40  0000 L CNN
F 1 "100p" H 3056 1215 40  0000 L CNN
F 2 "MyKiCadLibs-Footprints:SMD-0805" H 3088 1150 30  0001 C CNN
F 3 "" H 3050 1300 60  0000 C CNN
	1    3050 1300
	-1   0    0    -1  
$EndComp
$Comp
L CP1 C301
U 1 1 562E935F
P 1700 1550
F 0 "C301" H 1750 1650 50  0000 L CNN
F 1 "1000u" H 1750 1450 50  0000 L CNN
F 2 "MyKiCadLibs-Footprints:CAP-TH-D12.5mmP5mm" H 1700 1550 60  0001 C CNN
F 3 "" H 1700 1550 60  0000 C CNN
	1    1700 1550
	1    0    0    -1  
$EndComp
$Comp
L C C303
U 1 1 562E9365
P 2050 1550
F 0 "C303" H 2050 1650 40  0000 L CNN
F 1 "100n" H 2056 1465 40  0000 L CNN
F 2 "MyKiCadLibs-Footprints:SMD-0805" H 2088 1400 30  0001 C CNN
F 3 "" H 2050 1550 60  0000 C CNN
	1    2050 1550
	1    0    0    -1  
$EndComp
$Comp
L C C305
U 1 1 562E958D
P 2300 1550
F 0 "C305" H 2300 1650 40  0000 L CNN
F 1 "1n" H 2306 1465 40  0000 L CNN
F 2 "MyKiCadLibs-Footprints:SMD-0805" H 2338 1400 30  0001 C CNN
F 3 "" H 2300 1550 60  0000 C CNN
	1    2300 1550
	1    0    0    -1  
$EndComp
$Comp
L C C306
U 1 1 562E9786
P 2350 2800
F 0 "C306" H 2350 2900 40  0000 L CNN
F 1 "1n" H 2356 2715 40  0000 L CNN
F 2 "MyKiCadLibs-Footprints:SMD-0805" H 2388 2650 30  0001 C CNN
F 3 "" H 2350 2800 60  0000 C CNN
	1    2350 2800
	1    0    0    -1  
$EndComp
$Comp
L C C304
U 1 1 562E9780
P 2100 2800
F 0 "C304" H 2100 2900 40  0000 L CNN
F 1 "100n" H 2106 2715 40  0000 L CNN
F 2 "MyKiCadLibs-Footprints:SMD-0805" H 2138 2650 30  0001 C CNN
F 3 "" H 2100 2800 60  0000 C CNN
	1    2100 2800
	1    0    0    -1  
$EndComp
$Comp
L CP1 C302
U 1 1 562E977A
P 1800 2800
F 0 "C302" H 1850 2900 50  0000 L CNN
F 1 "1000u" H 1850 2700 50  0000 L CNN
F 2 "MyKiCadLibs-Footprints:CAP-TH-D12.5mmP5mm" H 1800 2800 60  0001 C CNN
F 3 "" H 1800 2800 60  0000 C CNN
	1    1800 2800
	1    0    0    -1  
$EndComp
$Comp
L C C320
U 1 1 562E987E
P 3900 2800
F 0 "C320" H 3900 2900 40  0000 L CNN
F 1 "1n" H 3906 2715 40  0000 L CNN
F 2 "MyKiCadLibs-Footprints:SMD-0805" H 3938 2650 30  0001 C CNN
F 3 "" H 3900 2800 60  0000 C CNN
	1    3900 2800
	1    0    0    -1  
$EndComp
$Comp
L C C316
U 1 1 562E9884
P 3650 2800
F 0 "C316" H 3650 2900 40  0000 L CNN
F 1 "100n" H 3656 2715 40  0000 L CNN
F 2 "MyKiCadLibs-Footprints:SMD-0805" H 3688 2650 30  0001 C CNN
F 3 "" H 3650 2800 60  0000 C CNN
	1    3650 2800
	1    0    0    -1  
$EndComp
$Comp
L CP1 C312
U 1 1 562E988A
P 3350 2800
F 0 "C312" H 3400 2900 50  0000 L CNN
F 1 "1000u" H 3400 2700 50  0000 L CNN
F 2 "MyKiCadLibs-Footprints:CAP-TH-D12.5mmP5mm" H 3350 2800 60  0001 C CNN
F 3 "" H 3350 2800 60  0000 C CNN
	1    3350 2800
	1    0    0    -1  
$EndComp
$Comp
L C C323
U 1 1 562E98FB
P 4000 1550
F 0 "C323" H 4000 1650 40  0000 L CNN
F 1 "1n" H 4006 1465 40  0000 L CNN
F 2 "MyKiCadLibs-Footprints:SMD-0805" H 4038 1400 30  0001 C CNN
F 3 "" H 4000 1550 60  0000 C CNN
	1    4000 1550
	1    0    0    -1  
$EndComp
$Comp
L C C319
U 1 1 562E9901
P 3750 1550
F 0 "C319" H 3750 1650 40  0000 L CNN
F 1 "100n" H 3756 1465 40  0000 L CNN
F 2 "MyKiCadLibs-Footprints:SMD-0805" H 3788 1400 30  0001 C CNN
F 3 "" H 3750 1550 60  0000 C CNN
	1    3750 1550
	1    0    0    -1  
$EndComp
$Comp
L CP1 C313
U 1 1 562E9907
P 3400 1550
F 0 "C313" H 3450 1650 50  0000 L CNN
F 1 "1000u" H 3450 1450 50  0000 L CNN
F 2 "MyKiCadLibs-Footprints:CAP-TH-D12.5mmP5mm" H 3400 1550 60  0001 C CNN
F 3 "" H 3400 1550 60  0000 C CNN
	1    3400 1550
	1    0    0    -1  
$EndComp
$Comp
L IC-REG-POS-TPS7A45xx U301
U 1 1 562EA76E
P 4400 4250
F 0 "U301" H 4650 4500 60  0000 C CNN
F 1 "TPS7A4533" H 4900 4400 60  0000 C CNN
F 2 "MyKiCadLibs-Footprints:IC-SOT223-6" H 4400 4250 60  0001 C CNN
F 3 "" H 4400 4250 60  0000 C CNN
	1    4400 4250
	1    0    0    -1  
$EndComp
$Comp
L C C321
U 1 1 562EA8EC
P 3950 4650
F 0 "C321" H 3950 4750 40  0000 L CNN
F 1 "1n" H 3956 4565 40  0000 L CNN
F 2 "MyKiCadLibs-Footprints:SMD-0805" H 3988 4500 30  0001 C CNN
F 3 "" H 3950 4650 60  0000 C CNN
	1    3950 4650
	1    0    0    -1  
$EndComp
$Comp
L C C317
U 1 1 562EA8F2
P 3700 4650
F 0 "C317" H 3700 4750 40  0000 L CNN
F 1 "100n" H 3706 4565 40  0000 L CNN
F 2 "MyKiCadLibs-Footprints:SMD-0805" H 3738 4500 30  0001 C CNN
F 3 "" H 3700 4650 60  0000 C CNN
	1    3700 4650
	1    0    0    -1  
$EndComp
$Comp
L CP1 C310
U 1 1 562EA8F8
P 3150 4650
F 0 "C310" H 3200 4750 50  0000 L CNN
F 1 "220u" H 3200 4550 50  0000 L CNN
F 2 "MyKiCadLibs-Footprints:CAP-TH-D8mmP3.5mm" H 3150 4650 60  0001 C CNN
F 3 "" H 3150 4650 60  0000 C CNN
	1    3150 4650
	1    0    0    -1  
$EndComp
$Comp
L GNDD #PWR012
U 1 1 562EAB2F
P 3150 5050
F 0 "#PWR012" H 3150 4800 50  0001 C CNN
F 1 "GNDD" H 3150 4900 50  0000 C CNN
F 2 "" H 3150 5050 60  0000 C CNN
F 3 "" H 3150 5050 60  0000 C CNN
	1    3150 5050
	1    0    0    -1  
$EndComp
$Comp
L C C314
U 1 1 562EB299
P 3450 4650
F 0 "C314" H 3450 4750 40  0000 L CNN
F 1 "10u" H 3456 4565 40  0000 L CNN
F 2 "MyKiCadLibs-Footprints:SMD-0805" H 3488 4500 30  0001 C CNN
F 3 "" H 3450 4650 60  0000 C CNN
	1    3450 4650
	1    0    0    -1  
$EndComp
$Comp
L C C334
U 1 1 562EB72B
P 7300 4650
F 0 "C334" H 7300 4750 40  0000 L CNN
F 1 "1n" H 7306 4565 40  0000 L CNN
F 2 "MyKiCadLibs-Footprints:SMD-0805" H 7338 4500 30  0001 C CNN
F 3 "" H 7300 4650 60  0000 C CNN
	1    7300 4650
	1    0    0    -1  
$EndComp
$Comp
L C C332
U 1 1 562EB731
P 7050 4650
F 0 "C332" H 7050 4750 40  0000 L CNN
F 1 "100n" H 7056 4565 40  0000 L CNN
F 2 "MyKiCadLibs-Footprints:SMD-0805" H 7088 4500 30  0001 C CNN
F 3 "" H 7050 4650 60  0000 C CNN
	1    7050 4650
	1    0    0    -1  
$EndComp
$Comp
L CP1 C328
U 1 1 562EB737
P 6500 4650
F 0 "C328" H 6550 4750 50  0000 L CNN
F 1 "220u" H 6550 4550 50  0000 L CNN
F 2 "MyKiCadLibs-Footprints:CAP-TH-D8mmP3.5mm" H 6500 4650 60  0001 C CNN
F 3 "" H 6500 4650 60  0000 C CNN
	1    6500 4650
	1    0    0    -1  
$EndComp
$Comp
L C C330
U 1 1 562EB73D
P 6800 4650
F 0 "C330" H 6800 4750 40  0000 L CNN
F 1 "22u" H 6806 4565 40  0000 L CNN
F 2 "MyKiCadLibs-Footprints:SMD-0805" H 6838 4500 30  0001 C CNN
F 3 "" H 6800 4650 60  0000 C CNN
	1    6800 4650
	1    0    0    -1  
$EndComp
$Comp
L R R304
U 1 1 562EBF17
P 5900 4450
F 0 "R304" V 5820 4450 40  0000 C CNN
F 1 "0R" V 5907 4451 40  0000 C CNN
F 2 "MyKiCadLibs-Footprints:SMD-0805" V 5830 4450 30  0001 C CNN
F 3 "" H 5900 4450 30  0000 C CNN
	1    5900 4450
	0    1    1    0   
$EndComp
$Comp
L R R305
U 1 1 562EC117
P 5900 4750
F 0 "R305" V 5820 4750 40  0000 C CNN
F 1 "N/F" V 5907 4751 40  0000 C CNN
F 2 "MyKiCadLibs-Footprints:SMD-0805" V 5830 4750 30  0001 C CNN
F 3 "" H 5900 4750 30  0000 C CNN
	1    5900 4750
	0    1    1    0   
$EndComp
Connection ~ 3750 2200
Wire Wire Line
	3750 2200 3750 1750
Connection ~ 3400 2200
Wire Wire Line
	3400 2200 3400 1750
Connection ~ 3400 950 
Wire Wire Line
	3750 950  3750 1350
Wire Wire Line
	3400 950  3400 1350
Wire Wire Line
	1500 950  2400 950 
Connection ~ 4300 3450
Wire Wire Line
	4600 3450 4600 3550
Wire Wire Line
	4300 3450 4300 3550
Wire Wire Line
	1500 2300 1500 3450
Wire Wire Line
	1300 2300 1500 2300
Connection ~ 4300 950 
Wire Wire Line
	4600 950  4600 850 
Wire Wire Line
	4300 950  4300 850 
Wire Wire Line
	1500 1900 1500 950 
Wire Wire Line
	1300 1900 1500 1900
Connection ~ 4400 2200
Wire Wire Line
	4750 2200 4750 2300
Connection ~ 4150 2200
Wire Wire Line
	4400 2200 4400 2300
Connection ~ 1500 2200
Wire Wire Line
	4150 2200 4150 2300
Wire Wire Line
	1500 2000 1500 2200
Wire Wire Line
	1300 2000 1500 2000
Wire Wire Line
	1500 3450 2400 3450
Wire Wire Line
	3100 3350 3100 3450
Connection ~ 3100 3450
Wire Wire Line
	3350 3450 3350 3000
Wire Wire Line
	3650 3450 3650 3000
Connection ~ 3350 3450
Wire Wire Line
	3350 2200 3350 2600
Connection ~ 3350 2200
Wire Wire Line
	3650 2200 3650 2600
Connection ~ 3650 2200
Wire Wire Line
	3100 2750 3100 2850
Wire Wire Line
	3100 2200 3100 2350
Connection ~ 3100 2200
Wire Wire Line
	3050 2200 3050 2100
Wire Wire Line
	3050 1500 3050 1600
Wire Wire Line
	3050 1100 3050 950 
Connection ~ 3050 950 
Connection ~ 3050 2200
Connection ~ 3650 3450
Connection ~ 3750 950 
Wire Wire Line
	2050 2200 2050 1750
Wire Wire Line
	1700 2200 1700 1750
Wire Wire Line
	2050 950  2050 1350
Wire Wire Line
	1700 950  1700 1350
Wire Wire Line
	1800 3450 1800 3000
Wire Wire Line
	2100 3450 2100 3000
Wire Wire Line
	1800 2200 1800 2600
Wire Wire Line
	2100 2200 2100 2600
Wire Wire Line
	4000 950  4000 1350
Wire Wire Line
	4000 2200 4000 1750
Connection ~ 4000 2200
Wire Wire Line
	3900 3450 3900 3000
Wire Wire Line
	3900 2200 3900 2600
Connection ~ 3900 2200
Connection ~ 3900 3450
Connection ~ 4000 950 
Wire Wire Line
	2300 2200 2300 1750
Wire Wire Line
	2300 950  2300 1350
Wire Wire Line
	2350 3450 2350 3000
Wire Wire Line
	2350 2200 2350 2600
Connection ~ 1700 2200
Connection ~ 1800 2200
Connection ~ 2050 2200
Connection ~ 2100 2200
Connection ~ 2300 2200
Connection ~ 2350 2200
Connection ~ 2350 3450
Connection ~ 2100 3450
Connection ~ 1800 3450
Connection ~ 1700 950 
Connection ~ 2050 950 
Connection ~ 2300 950 
Wire Wire Line
	2650 4250 4400 4250
Wire Wire Line
	3950 4250 3950 4450
Wire Wire Line
	4400 4450 4250 4450
Wire Wire Line
	4250 4450 4250 4250
Connection ~ 4250 4250
Wire Wire Line
	3700 4450 3700 4250
Connection ~ 3950 4250
Connection ~ 3700 4250
Wire Wire Line
	3150 4850 3150 5050
Wire Wire Line
	3700 4850 3700 5000
Wire Wire Line
	3150 5000 7300 5000
Connection ~ 3150 5000
Wire Wire Line
	3950 5000 3950 4850
Connection ~ 3700 5000
Wire Wire Line
	4950 5000 4950 4800
Connection ~ 3950 5000
Wire Wire Line
	3450 4450 3450 4250
Wire Wire Line
	3450 4850 3450 5000
Wire Wire Line
	5450 4250 7300 4250
Wire Wire Line
	6500 4250 6500 4450
Wire Wire Line
	6800 4250 6800 4450
Connection ~ 6500 4250
Wire Wire Line
	7050 4250 7050 4450
Connection ~ 6800 4250
Wire Wire Line
	7300 4200 7300 4450
Connection ~ 7050 4250
Wire Wire Line
	6500 5000 6500 4850
Connection ~ 4950 5000
Wire Wire Line
	6800 5000 6800 4850
Connection ~ 6500 5000
Wire Wire Line
	7050 5000 7050 4850
Connection ~ 6800 5000
Wire Wire Line
	7300 5000 7300 4850
Connection ~ 7050 5000
Wire Wire Line
	5450 4450 5650 4450
Wire Wire Line
	5650 4750 5550 4750
Wire Wire Line
	5550 4750 5550 4450
Connection ~ 5550 4450
Wire Wire Line
	6150 4750 6250 4750
Wire Wire Line
	6250 4750 6250 5000
Connection ~ 6250 5000
Wire Wire Line
	6150 4450 6250 4450
Wire Wire Line
	6250 4450 6250 4350
Wire Wire Line
	6250 4350 6500 4350
Connection ~ 6500 4350
Connection ~ 3150 4250
Connection ~ 7300 4250
$Comp
L C C322
U 1 1 562F242A
P 3950 6000
F 0 "C322" H 3950 6100 40  0000 L CNN
F 1 "1n" H 3956 5915 40  0000 L CNN
F 2 "MyKiCadLibs-Footprints:SMD-0805" H 3988 5850 30  0001 C CNN
F 3 "" H 3950 6000 60  0000 C CNN
	1    3950 6000
	1    0    0    -1  
$EndComp
$Comp
L C C318
U 1 1 562F2430
P 3700 6000
F 0 "C318" H 3700 6100 40  0000 L CNN
F 1 "100n" H 3706 5915 40  0000 L CNN
F 2 "MyKiCadLibs-Footprints:SMD-0805" H 3738 5850 30  0001 C CNN
F 3 "" H 3700 6000 60  0000 C CNN
	1    3700 6000
	1    0    0    -1  
$EndComp
$Comp
L CP1 C311
U 1 1 562F2436
P 3150 6000
F 0 "C311" H 3200 6100 50  0000 L CNN
F 1 "220u" H 3200 5900 50  0000 L CNN
F 2 "MyKiCadLibs-Footprints:CAP-TH-D8mmP3.5mm" H 3150 6000 60  0001 C CNN
F 3 "" H 3150 6000 60  0000 C CNN
	1    3150 6000
	1    0    0    -1  
$EndComp
$Comp
L GNDD #PWR013
U 1 1 562F243C
P 3150 6400
F 0 "#PWR013" H 3150 6150 50  0001 C CNN
F 1 "GNDD" H 3150 6250 50  0000 C CNN
F 2 "" H 3150 6400 60  0000 C CNN
F 3 "" H 3150 6400 60  0000 C CNN
	1    3150 6400
	1    0    0    -1  
$EndComp
$Comp
L C C315
U 1 1 562F2442
P 3450 6000
F 0 "C315" H 3450 6100 40  0000 L CNN
F 1 "10u" H 3456 5915 40  0000 L CNN
F 2 "MyKiCadLibs-Footprints:SMD-0805" H 3488 5850 30  0001 C CNN
F 3 "" H 3450 6000 60  0000 C CNN
	1    3450 6000
	1    0    0    -1  
$EndComp
$Comp
L C C335
U 1 1 562F2448
P 7300 6000
F 0 "C335" H 7300 6100 40  0000 L CNN
F 1 "1n" H 7306 5915 40  0000 L CNN
F 2 "MyKiCadLibs-Footprints:SMD-0805" H 7338 5850 30  0001 C CNN
F 3 "" H 7300 6000 60  0000 C CNN
	1    7300 6000
	1    0    0    -1  
$EndComp
$Comp
L C C333
U 1 1 562F244E
P 7050 6000
F 0 "C333" H 7050 6100 40  0000 L CNN
F 1 "100n" H 7056 5915 40  0000 L CNN
F 2 "MyKiCadLibs-Footprints:SMD-0805" H 7088 5850 30  0001 C CNN
F 3 "" H 7050 6000 60  0000 C CNN
	1    7050 6000
	1    0    0    -1  
$EndComp
$Comp
L CP1 C329
U 1 1 562F2454
P 6500 6000
F 0 "C329" H 6550 6100 50  0000 L CNN
F 1 "220u" H 6550 5900 50  0000 L CNN
F 2 "MyKiCadLibs-Footprints:CAP-TH-D8mmP3.5mm" H 6500 6000 60  0001 C CNN
F 3 "" H 6500 6000 60  0000 C CNN
	1    6500 6000
	1    0    0    -1  
$EndComp
$Comp
L C C331
U 1 1 562F245A
P 6800 6000
F 0 "C331" H 6800 6100 40  0000 L CNN
F 1 "22u" H 6806 5915 40  0000 L CNN
F 2 "MyKiCadLibs-Footprints:SMD-0805" H 6838 5850 30  0001 C CNN
F 3 "" H 6800 6000 60  0000 C CNN
	1    6800 6000
	1    0    0    -1  
$EndComp
$Comp
L R R306
U 1 1 562F2460
P 5900 5800
F 0 "R306" V 5820 5800 40  0000 C CNN
F 1 "0R" V 5907 5801 40  0000 C CNN
F 2 "MyKiCadLibs-Footprints:SMD-0805" V 5830 5800 30  0001 C CNN
F 3 "" H 5900 5800 30  0000 C CNN
	1    5900 5800
	0    1    1    0   
$EndComp
Wire Wire Line
	2950 5600 4400 5600
Wire Wire Line
	3950 5600 3950 5800
Wire Wire Line
	4400 5800 4250 5800
Wire Wire Line
	4250 5800 4250 5600
Connection ~ 4250 5600
Wire Wire Line
	3700 5800 3700 5600
Connection ~ 3950 5600
Connection ~ 3700 5600
Wire Wire Line
	3150 6200 3150 6400
Wire Wire Line
	3700 6200 3700 6350
Wire Wire Line
	3150 6350 7300 6350
Connection ~ 3150 6350
Wire Wire Line
	3950 6350 3950 6200
Connection ~ 3700 6350
Wire Wire Line
	4950 6350 4950 6150
Connection ~ 3950 6350
Wire Wire Line
	3450 5800 3450 5600
Wire Wire Line
	3450 6200 3450 6350
Wire Wire Line
	5450 5600 7300 5600
Wire Wire Line
	6500 5600 6500 5800
Wire Wire Line
	6800 5600 6800 5800
Connection ~ 6500 5600
Wire Wire Line
	7050 5600 7050 5800
Connection ~ 6800 5600
Wire Wire Line
	7300 5550 7300 5800
Connection ~ 7050 5600
Wire Wire Line
	6500 6350 6500 6200
Connection ~ 4950 6350
Wire Wire Line
	6800 6350 6800 6200
Connection ~ 6500 6350
Wire Wire Line
	7050 6350 7050 6200
Connection ~ 6800 6350
Wire Wire Line
	7300 6350 7300 6200
Connection ~ 7050 6350
Connection ~ 3150 5600
$Comp
L VDD #PWR014
U 1 1 562F24B3
P 7300 5550
F 0 "#PWR014" H 7300 5400 50  0001 C CNN
F 1 "VDD" H 7300 5700 50  0000 C CNN
F 2 "" H 7300 5550 60  0000 C CNN
F 3 "" H 7300 5550 60  0000 C CNN
	1    7300 5550
	1    0    0    -1  
$EndComp
Connection ~ 7300 5600
Wire Wire Line
	3000 3450 4600 3450
Wire Wire Line
	1300 2200 4750 2200
Wire Wire Line
	3000 950  4600 950 
$Comp
L CONN_2x1 P303
U 1 1 56346FF5
P 1350 4700
F 0 "P303" V 1845 4545 40  0000 C CNN
F 1 "CONN_2x1" V 1790 4660 40  0000 C CNN
F 2 "MyKiCadLibs-Footprints:CONN-2WAY-2.54mm-3.81mm-SPACING" H 1690 4590 60  0001 C CNN
F 3 "" H 1690 4590 60  0000 C CNN
	1    1350 4700
	-1   0    0    -1  
$EndComp
$Comp
L GNDD #PWR015
U 1 1 56347330
P 1400 4850
F 0 "#PWR015" H 1400 4600 50  0001 C CNN
F 1 "GNDD" H 1400 4700 50  0000 C CNN
F 2 "" H 1400 4850 60  0000 C CNN
F 3 "" H 1400 4850 60  0000 C CNN
	1    1400 4850
	1    0    0    -1  
$EndComp
Wire Wire Line
	1400 4850 1400 4800
Wire Wire Line
	1400 4800 1350 4800
Wire Wire Line
	1400 4700 1350 4700
Wire Wire Line
	1400 4250 1400 4700
$Comp
L DIODE D301
U 1 1 56347BBA
P 1650 4250
F 0 "D301" H 1650 4350 40  0000 C CNN
F 1 "B230A" H 1650 4150 40  0000 C CNN
F 2 "MyKiCadLibs-Footprints:DIODE-SMA" H 1650 4250 60  0001 C CNN
F 3 "" H 1650 4250 60  0000 C CNN
	1    1650 4250
	1    0    0    -1  
$EndComp
Wire Wire Line
	1450 4250 1400 4250
$Comp
L IC-REG-POS-TPS7A45xx U303
U 1 1 56326273
P 6850 1150
F 0 "U303" H 7100 1400 60  0000 C CNN
F 1 "TPS7A4501" H 7350 1300 60  0000 C CNN
F 2 "MyKiCadLibs-Footprints:IC-SOT223-6" H 6850 1150 60  0001 C CNN
F 3 "" H 6850 1150 60  0000 C CNN
	1    6850 1150
	1    0    0    -1  
$EndComp
$Comp
L C C327
U 1 1 56326279
P 6400 1550
F 0 "C327" H 6400 1650 40  0000 L CNN
F 1 "1n" H 6406 1465 40  0000 L CNN
F 2 "MyKiCadLibs-Footprints:SMD-0805" H 6438 1400 30  0001 C CNN
F 3 "" H 6400 1550 60  0000 C CNN
	1    6400 1550
	1    0    0    -1  
$EndComp
$Comp
L C C326
U 1 1 5632627F
P 6150 1550
F 0 "C326" H 6150 1650 40  0000 L CNN
F 1 "100n" H 6156 1465 40  0000 L CNN
F 2 "MyKiCadLibs-Footprints:SMD-0805" H 6188 1400 30  0001 C CNN
F 3 "" H 6150 1550 60  0000 C CNN
	1    6150 1550
	1    0    0    -1  
$EndComp
$Comp
L CP1 C324
U 1 1 56326285
P 5600 1550
F 0 "C324" H 5650 1650 50  0000 L CNN
F 1 "220u" H 5650 1450 50  0000 L CNN
F 2 "MyKiCadLibs-Footprints:CAP-TH-D8mmP3.5mm" H 5600 1550 60  0001 C CNN
F 3 "" H 5600 1550 60  0000 C CNN
	1    5600 1550
	1    0    0    -1  
$EndComp
$Comp
L C C325
U 1 1 56326291
P 5900 1550
F 0 "C325" H 5900 1650 40  0000 L CNN
F 1 "10u" H 5906 1465 40  0000 L CNN
F 2 "MyKiCadLibs-Footprints:SMD-0805" H 5938 1400 30  0001 C CNN
F 3 "" H 5900 1550 60  0000 C CNN
	1    5900 1550
	1    0    0    -1  
$EndComp
$Comp
L VCC #PWR016
U 1 1 563262BB
P 5600 1050
F 0 "#PWR016" H 5600 900 50  0001 C CNN
F 1 "VCC" H 5600 1200 50  0000 C CNN
F 2 "" H 5600 1050 60  0000 C CNN
F 3 "" H 5600 1050 60  0000 C CNN
	1    5600 1050
	1    0    0    -1  
$EndComp
Wire Wire Line
	5600 1150 6850 1150
Wire Wire Line
	6400 1150 6400 1350
Wire Wire Line
	6850 1350 6700 1350
Wire Wire Line
	6700 1350 6700 1150
Connection ~ 6700 1150
Wire Wire Line
	6150 1350 6150 1150
Connection ~ 6400 1150
Wire Wire Line
	5600 1050 5600 1350
Connection ~ 6150 1150
Wire Wire Line
	5600 1750 5600 1950
Wire Wire Line
	6150 1750 6150 1900
Connection ~ 5600 1900
Wire Wire Line
	6400 1900 6400 1750
Connection ~ 6150 1900
Wire Wire Line
	7400 1900 7400 1700
Connection ~ 6400 1900
Wire Wire Line
	5900 1350 5900 1150
Wire Wire Line
	5900 1750 5900 1900
Connection ~ 7400 1900
Connection ~ 5600 1150
$Comp
L INDUCTOR L301
U 1 1 5632A441
P 2350 4250
F 0 "L301" V 2300 4250 40  0000 C CNN
F 1 "600R@100MHz" V 2450 4250 40  0000 C CNN
F 2 "MyKiCadLibs-Footprints:SMD-0805" H 2350 4250 60  0001 C CNN
F 3 "" H 2350 4250 60  0000 C CNN
	1    2350 4250
	0    -1   -1   0   
$EndComp
Wire Wire Line
	3150 4250 3150 4450
$Comp
L R R301
U 1 1 5632B412
P 2700 5200
F 0 "R301" V 2620 5200 40  0000 C CNN
F 1 "47R" V 2707 5201 40  0000 C CNN
F 2 "MyKiCadLibs-Footprints:SMD-0805" V 2630 5200 30  0001 C CNN
F 3 "" H 2700 5200 30  0000 C CNN
	1    2700 5200
	1    0    0    -1  
$EndComp
$Comp
L C C307
U 1 1 5632B418
P 2700 4650
F 0 "C307" H 2700 4750 40  0000 L CNN
F 1 "100p" H 2706 4565 40  0000 L CNN
F 2 "MyKiCadLibs-Footprints:SMD-0805" H 2738 4500 30  0001 C CNN
F 3 "" H 2700 4650 60  0000 C CNN
	1    2700 4650
	-1   0    0    -1  
$EndComp
Wire Wire Line
	2700 5450 2700 5500
Wire Wire Line
	2700 4850 2700 4950
Wire Wire Line
	2700 4250 2700 4450
Connection ~ 2700 4250
$Comp
L GNDD #PWR017
U 1 1 5632B5BB
P 2700 5500
F 0 "#PWR017" H 2700 5250 50  0001 C CNN
F 1 "GNDD" H 2700 5350 50  0000 C CNN
F 2 "" H 2700 5500 60  0000 C CNN
F 3 "" H 2700 5500 60  0000 C CNN
	1    2700 5500
	1    0    0    -1  
$EndComp
Wire Wire Line
	2050 4250 1850 4250
Wire Wire Line
	3150 5800 3150 5600
Wire Wire Line
	2950 5600 2950 4250
Connection ~ 2950 4250
$Comp
L GNDA #PWR018
U 1 1 5632D330
P 5600 1950
F 0 "#PWR018" H 5600 1700 50  0001 C CNN
F 1 "GNDA" H 5600 1800 50  0000 C CNN
F 2 "" H 5600 1950 60  0000 C CNN
F 3 "" H 5600 1950 60  0000 C CNN
	1    5600 1950
	1    0    0    -1  
$EndComp
$Comp
L R R307
U 1 1 5632E9EF
P 5900 6200
F 0 "R307" V 5820 6200 40  0000 C CNN
F 1 "N/F" V 5907 6201 40  0000 C CNN
F 2 "MyKiCadLibs-Footprints:SMD-0805" V 5830 6200 30  0001 C CNN
F 3 "" H 5900 6200 30  0000 C CNN
	1    5900 6200
	0    1    1    0   
$EndComp
Wire Wire Line
	6200 6200 6150 6200
Wire Wire Line
	5450 5800 5650 5800
Wire Wire Line
	5550 5800 5550 6200
Wire Wire Line
	5550 6200 5650 6200
Wire Wire Line
	6200 6200 6200 6350
Connection ~ 6200 6350
Wire Wire Line
	6150 5800 6350 5800
$Comp
L C C339
U 1 1 563304DC
P 9750 1550
F 0 "C339" H 9750 1650 40  0000 L CNN
F 1 "1n" H 9756 1465 40  0000 L CNN
F 2 "MyKiCadLibs-Footprints:SMD-0805" H 9788 1400 30  0001 C CNN
F 3 "" H 9750 1550 60  0000 C CNN
	1    9750 1550
	1    0    0    -1  
$EndComp
$Comp
L C C338
U 1 1 563304E2
P 9500 1550
F 0 "C338" H 9500 1650 40  0000 L CNN
F 1 "100n" H 9506 1465 40  0000 L CNN
F 2 "MyKiCadLibs-Footprints:SMD-0805" H 9538 1400 30  0001 C CNN
F 3 "" H 9500 1550 60  0000 C CNN
	1    9500 1550
	1    0    0    -1  
$EndComp
$Comp
L CP1 C336
U 1 1 563304E8
P 8950 1550
F 0 "C336" H 9000 1650 50  0000 L CNN
F 1 "220u" H 9000 1450 50  0000 L CNN
F 2 "MyKiCadLibs-Footprints:CAP-TH-D8mmP3.5mm" H 8950 1550 60  0001 C CNN
F 3 "" H 8950 1550 60  0000 C CNN
	1    8950 1550
	1    0    0    -1  
$EndComp
$Comp
L C C337
U 1 1 563304EE
P 9250 1550
F 0 "C337" H 9250 1650 40  0000 L CNN
F 1 "22u" H 9256 1465 40  0000 L CNN
F 2 "MyKiCadLibs-Footprints:SMD-0805" H 9288 1400 30  0001 C CNN
F 3 "" H 9250 1550 60  0000 C CNN
	1    9250 1550
	1    0    0    -1  
$EndComp
$Comp
L R R308
U 1 1 563304F4
P 8350 1350
F 0 "R308" V 8270 1350 40  0000 C CNN
F 1 "0R" V 8357 1351 40  0000 C CNN
F 2 "MyKiCadLibs-Footprints:SMD-0805" V 8280 1350 30  0001 C CNN
F 3 "" H 8350 1350 30  0000 C CNN
	1    8350 1350
	0    1    1    0   
$EndComp
$Comp
L R R309
U 1 1 563304FA
P 8350 1550
F 0 "R309" V 8270 1550 40  0000 C CNN
F 1 "6k8" V 8357 1551 40  0000 C CNN
F 2 "MyKiCadLibs-Footprints:SMD-0805" V 8280 1550 30  0001 C CNN
F 3 "" H 8350 1550 30  0000 C CNN
	1    8350 1550
	0    1    1    0   
$EndComp
Wire Wire Line
	5600 1900 9750 1900
Wire Wire Line
	7900 1150 9750 1150
Wire Wire Line
	8950 1150 8950 1350
Wire Wire Line
	9250 1150 9250 1350
Connection ~ 8950 1150
Wire Wire Line
	9500 1150 9500 1350
Connection ~ 9250 1150
Wire Wire Line
	9750 1100 9750 1350
Connection ~ 9500 1150
Wire Wire Line
	8950 1900 8950 1750
Wire Wire Line
	9250 1900 9250 1750
Connection ~ 8950 1900
Wire Wire Line
	9500 1900 9500 1750
Connection ~ 9250 1900
Wire Wire Line
	9750 1900 9750 1750
Connection ~ 9500 1900
Connection ~ 9750 1150
$Comp
L R R310
U 1 1 56330517
P 8350 1750
F 0 "R310" V 8270 1750 40  0000 C CNN
F 1 "2k2" V 8357 1751 40  0000 C CNN
F 2 "MyKiCadLibs-Footprints:SMD-0805" V 8280 1750 30  0001 C CNN
F 3 "" H 8350 1750 30  0000 C CNN
	1    8350 1750
	0    1    1    0   
$EndComp
Wire Wire Line
	8650 1750 8600 1750
Wire Wire Line
	7900 1350 8000 1350
Wire Wire Line
	8000 1350 8000 1750
Wire Wire Line
	8000 1550 8100 1550
Wire Wire Line
	8000 1750 8100 1750
Connection ~ 8000 1550
Wire Wire Line
	8650 1750 8650 1900
Connection ~ 8650 1900
Wire Wire Line
	8600 1350 8700 1350
Wire Wire Line
	8700 1350 8700 1550
Wire Wire Line
	8700 1550 8600 1550
Wire Wire Line
	8100 1350 8050 1350
Wire Wire Line
	8050 1350 8050 1150
Connection ~ 8050 1150
$Comp
L VCOM #PWR019
U 1 1 5633CBBA
P 9750 1100
F 0 "#PWR019" H 9750 950 50  0001 C CNN
F 1 "VCOM" H 9750 1250 50  0000 C CNN
F 2 "" H 9750 1100 60  0000 C CNN
F 3 "" H 9750 1100 60  0000 C CNN
	1    9750 1100
	1    0    0    -1  
$EndComp
$Comp
L VAA #PWR020
U 1 1 5633DDDE
P 7300 4200
F 0 "#PWR020" H 7300 4050 50  0001 C CNN
F 1 "VAA" H 7300 4350 50  0000 C CNN
F 2 "" H 7300 4200 60  0000 C CNN
F 3 "" H 7300 4200 60  0000 C CNN
	1    7300 4200
	1    0    0    -1  
$EndComp
$Comp
L IC-REG-POS-TPS7A45xx U302
U 1 1 5633DEDF
P 4400 5600
F 0 "U302" H 4650 5850 60  0000 C CNN
F 1 "TPS7A4533" H 4900 5750 60  0000 C CNN
F 2 "MyKiCadLibs-Footprints:IC-SOT223-6" H 4400 5600 60  0001 C CNN
F 3 "" H 4400 5600 60  0000 C CNN
	1    4400 5600
	1    0    0    -1  
$EndComp
Connection ~ 5550 5800
Wire Wire Line
	6350 5800 6350 5700
Wire Wire Line
	6350 5700 6500 5700
Connection ~ 6500 5700
Text Notes 7000 7100 0    59   ~ 0
Copyright Paul Janicki 2015\n\nLicensed under the TAPR Open Hardware License (www.tapr.org/OHL).\n\nThis documentation is distributed\nWITHOUT ANY EXPRESS OR IMPLIED WARRANTY, INCLUDING OF\nMERCHANTABILITY, SATISFACTORY QUALITY AND FITNESS FOR A\nPARTICULAR PURPOSE.\n
$EndSCHEMATC
